EESchema Schematic File Version 2
LIBS:spice
EELAYER 25 0
EELAYER END
$Descr A4 11693 8268
encoding utf-8
Sheet 1 1
Title ""
Date ""
Rev ""
Comp ""
Comment1 ""
Comment2 ""
Comment3 ""
Comment4 ""
$EndDescr
$Comp
L C C1
U 1 1 56F2C8D1
P 4500 1300
F 0 "C1" H 4500 1425 60  0000 C CNN
F 1 "940n" H 4500 1175 60  0000 C CNN
F 2 "" H 3850 1850 60  0000 C CNN
F 3 "" H 3850 1850 60  0000 C CNN
	1    4500 1300
	1    0    0    -1  
$EndComp
$Comp
L 0 #GND01
U 1 1 56F2C998
P 6700 1800
F 0 "#GND01" H 6700 1700 40  0001 C CNN
F 1 "0" H 6700 1730 40  0000 C CNN
F 2 "" H 6700 1800 60  0000 C CNN
F 3 "" H 6700 1800 60  0000 C CNN
	1    6700 1800
	1    0    0    -1  
$EndComp
Wire Wire Line
	6700 1700 6700 1800
Wire Wire Line
	4200 1300 4400 1300
$Comp
L R R1
U 1 1 56F2C9BD
P 4000 1300
F 0 "R1" H 4000 1400 60  0000 C CNN
F 1 "10" H 4000 1200 60  0000 C CNN
F 2 "" H 4000 1300 60  0000 C CNN
F 3 "" H 4000 1300 60  0000 C CNN
	1    4000 1300
	1    0    0    -1  
$EndComp
Wire Wire Line
	3800 1300 3700 1300
Text GLabel 5100 2000 2    60   Input ~ 0
PWR
Text GLabel 3700 1300 0    60   Input ~ 0
VPP
$Comp
L V V1
U 1 1 56F2CA7B
P 2500 1700
F 0 "V1" H 2375 1900 60  0000 C CNN
F 1 "SIN(0V 311V 50Hz 0 0)" V 2750 1700 60  0000 C CNN
F 2 "" H 2175 1700 60  0000 C CNN
F 3 "" H 2175 1700 60  0000 C CNN
	1    2500 1700
	1    0    0    -1  
$EndComp
Wire Wire Line
	2500 1400 2500 1500
Wire Wire Line
	2500 1900 2500 2000
Text Notes 2050 4150 0    60   ~ 0
+pspice\n* \n.control\n  options nopage\n  options savecurrents\n  tran 25uS 20S 0S\n  set gnuplot_terminal=png\n  gnuplot integr\n  + v(VPP,VC)\n  + v(VC,VO)\n  + v(PWR)\n.endc
Text GLabel 2500 1400 1    60   Input ~ 0
VPP
$Comp
L R R2
U 1 1 56F2E11A
P 7700 1650
F 0 "R2" H 7700 1750 60  0000 C CNN
F 1 "1MEG" H 7700 1550 60  0000 C CNN
F 2 "" H 7700 1650 60  0000 C CNN
F 3 "" H 7700 1650 60  0000 C CNN
	1    7700 1650
	0    -1   -1   0   
$EndComp
Wire Wire Line
	7700 1850 7700 1950
Wire Wire Line
	7700 1450 7700 1350
$Comp
L 0 #GND02
U 1 1 56F2E270
P 7700 1950
F 0 "#GND02" H 7700 1850 40  0001 C CNN
F 1 "0" H 7700 1880 40  0000 C CNN
F 2 "" H 7700 1950 60  0000 C CNN
F 3 "" H 7700 1950 60  0000 C CNN
	1    7700 1950
	1    0    0    -1  
$EndComp
Text GLabel 7700 1350 1    60   Input ~ 0
PWR
Wire Wire Line
	4700 1300 4600 1300
$Comp
L C C2
U 1 1 5775487D
P 6700 1600
F 0 "C2" H 6700 1725 60  0000 C CNN
F 1 "1980u" H 6700 1475 60  0000 C CNN
F 2 "" H 6050 2150 60  0000 C CNN
F 3 "" H 6050 2150 60  0000 C CNN
	1    6700 1600
	0    -1   -1   0   
$EndComp
Text GLabel 6700 1400 1    60   Input ~ 0
PWR
Wire Wire Line
	6700 1400 6700 1500
Text GLabel 4300 1300 1    60   Input ~ 0
VC
$Comp
L D D1
U 1 1 57754F9C
P 4800 2000
F 0 "D1" H 4800 2125 60  0000 C CNN
F 1 "DCUDD16_08C" H 4800 1875 60  0000 C CNN
F 2 "" H 4800 2000 60  0000 C CNN
F 3 "" H 4800 2000 60  0000 C CNN
	1    4800 2000
	1    0    0    -1  
$EndComp
Text Notes 5250 4950 0    60   ~ 0
-pspice\n*\n.MODEL DCUDD16_08C D\n+ IS=2.1043E-6\n+ N=2.4807\n+ RS=23.847E-3\n+ IKF=.12942\n+ CJO=40.347E-12\n+ M=.8907\n+ VJ=9.9900\n+ ISR=10.010E-21\n+ NR=4.9950\n+ BV=800.02\n+ IBV=25.870E-3\n+ TT=123.32E-9
Text GLabel 4700 1300 2    60   Input ~ 0
VO
Text GLabel 4500 2000 0    60   Input ~ 0
VO
$Comp
L D D3
U 1 1 57755246
P 4800 2800
F 0 "D3" H 4800 2925 60  0000 C CNN
F 1 "DCUDD16_08C" H 4800 2675 60  0000 C CNN
F 2 "" H 4800 2800 60  0000 C CNN
F 3 "" H 4800 2800 60  0000 C CNN
	1    4800 2800
	1    0    0    -1  
$EndComp
$Comp
L D D2
U 1 1 57755296
P 4800 2400
F 0 "D2" H 4800 2525 60  0000 C CNN
F 1 "DCUDD16_08C" H 4800 2275 60  0000 C CNN
F 2 "" H 4800 2400 60  0000 C CNN
F 3 "" H 4800 2400 60  0000 C CNN
	1    4800 2400
	-1   0    0    -1  
$EndComp
$Comp
L D D4
U 1 1 577552DD
P 4800 3200
F 0 "D4" H 4800 3325 60  0000 C CNN
F 1 "DCUDD16_08C" H 4800 3075 60  0000 C CNN
F 2 "" H 4800 3200 60  0000 C CNN
F 3 "" H 4800 3200 60  0000 C CNN
	1    4800 3200
	-1   0    0    -1  
$EndComp
Wire Wire Line
	4500 2000 4700 2000
Wire Wire Line
	4600 2000 4600 2400
Wire Wire Line
	4600 2400 4700 2400
Connection ~ 4600 2000
Wire Wire Line
	4700 2800 4600 2800
Wire Wire Line
	4600 2800 4600 3200
Wire Wire Line
	4500 3200 4700 3200
$Comp
L 0 #GND03
U 1 1 57755429
P 5000 3300
F 0 "#GND03" H 5000 3200 40  0001 C CNN
F 1 "0" H 5000 3230 40  0000 C CNN
F 2 "" H 5000 3300 60  0000 C CNN
F 3 "" H 5000 3300 60  0000 C CNN
	1    5000 3300
	1    0    0    -1  
$EndComp
Wire Wire Line
	4900 2400 5000 2400
Wire Wire Line
	5000 2400 5000 3300
Wire Wire Line
	5000 3200 4900 3200
Wire Wire Line
	4900 2800 5100 2800
Wire Wire Line
	5100 2800 5100 2000
Wire Wire Line
	5100 2000 4900 2000
Connection ~ 5000 3200
Text GLabel 2500 2000 3    60   Input ~ 0
VNN
Text GLabel 4500 3200 0    60   Input ~ 0
VNN
Connection ~ 4600 3200
$EndSCHEMATC
