EESchema Schematic File Version 2
LIBS:power
LIBS:device
LIBS:transistors
LIBS:conn
LIBS:linear
LIBS:regul
LIBS:74xx
LIBS:cmos4000
LIBS:adc-dac
LIBS:memory
LIBS:xilinx
LIBS:microcontrollers
LIBS:dsp
LIBS:microchip
LIBS:analog_switches
LIBS:motorola
LIBS:texas
LIBS:intel
LIBS:audio
LIBS:interface
LIBS:digital-audio
LIBS:philips
LIBS:display
LIBS:cypress
LIBS:siliconi
LIBS:opto
LIBS:atmel
LIBS:contrib
LIBS:valves
LIBS:bridge
LIBS:addon
LIBS:stm32
LIBS:hall
LIBS:driver
LIBS:lph7366
LIBS:handler
LIBS:iface
LIBS:radio
LIBS:esdprot
LIBS:project-cache
EELAYER 25 0
EELAYER END
$Descr A4 11693 8268
encoding utf-8
Sheet 2 5
Title "3-Phase Inverter"
Date "2017-02-07"
Rev "Rev. 0.3"
Comp "Illumium.Org"
Comment1 ""
Comment2 ""
Comment3 ""
Comment4 ""
$EndDescr
$Comp
L STM32F103RBT6 U101
U 1 1 56F51735
P 2900 2500
F 0 "U101" H 2900 4300 60  0000 C CNN
F 1 "STM32F103RBT6" H 2900 700 60  0000 C CNN
F 2 "Local:LQFP-64_10x10mm_Pitch0.5mm" H 2900 2500 60  0001 C CNN
F 3 "" H 2900 2500 60  0000 C CNN
	1    2900 2500
	1    0    0    -1  
$EndComp
$Comp
L GND #PWR02
U 1 1 56F51851
P 1200 4200
F 0 "#PWR02" H 1200 3950 50  0001 C CNN
F 1 "GND" H 1200 4050 50  0000 C CNN
F 2 "" H 1200 4200 60  0000 C CNN
F 3 "" H 1200 4200 60  0000 C CNN
	1    1200 4200
	1    0    0    -1  
$EndComp
Text GLabel 1000 3300 0    47   Input ~ 0
+3V3A
$Comp
L +3V3 #PWR03
U 1 1 56F51910
P 900 4000
F 0 "#PWR03" H 900 3850 50  0001 C CNN
F 1 "+3V3" H 900 4140 50  0000 C CNN
F 2 "" H 900 4000 60  0000 C CNN
F 3 "" H 900 4000 60  0000 C CNN
	1    900  4000
	1    0    0    -1  
$EndComp
$Comp
L RJ12 P102
U 1 1 572B2C76
P 8750 1200
F 0 "P102" V 8350 1200 60  0000 C CNN
F 1 "RS485" V 9200 1100 60  0000 C CNN
F 2 "Local:RJ12" H 8750 1200 60  0001 C CNN
F 3 "" H 8750 1200 60  0000 C CNN
	1    8750 1200
	0    1    1    0   
$EndComp
$Comp
L GND #PWR04
U 1 1 572B2FC5
P 8200 1600
F 0 "#PWR04" H 8200 1350 50  0001 C CNN
F 1 "GND" H 8200 1450 50  0000 C CNN
F 2 "" H 8200 1600 60  0000 C CNN
F 3 "" H 8200 1600 60  0000 C CNN
	1    8200 1600
	1    0    0    -1  
$EndComp
$Comp
L RJ12 P103
U 1 1 572B3F32
P 10450 1200
F 0 "P103" V 10050 1200 60  0000 C CNN
F 1 "RS485" V 10900 1100 60  0000 C CNN
F 2 "Local:RJ12" H 10450 1200 60  0001 C CNN
F 3 "" H 10450 1200 60  0000 C CNN
	1    10450 1200
	0    1    1    0   
$EndComp
$Comp
L GND #PWR05
U 1 1 572B3F4C
P 9900 1600
F 0 "#PWR05" H 9900 1350 50  0001 C CNN
F 1 "GND" H 9900 1450 50  0000 C CNN
F 2 "" H 9900 1600 60  0000 C CNN
F 3 "" H 9900 1600 60  0000 C CNN
	1    9900 1600
	1    0    0    -1  
$EndComp
$Comp
L GND #PWR06
U 1 1 572B438A
P 7000 1400
F 0 "#PWR06" H 7000 1150 50  0001 C CNN
F 1 "GND" H 7000 1250 50  0000 C CNN
F 2 "" H 7000 1400 60  0000 C CNN
F 3 "" H 7000 1400 60  0000 C CNN
	1    7000 1400
	1    0    0    -1  
$EndComp
Text GLabel 4600 1100 2    47   Input ~ 0
BOX_TMP
$Comp
L LPH7366 U102
U 1 1 572BF734
P 2100 6500
F 0 "U102" H 2100 7050 60  0000 C CNN
F 1 "LPH7366" V 2200 6500 60  0000 C CNN
F 2 "Local:LPH-7366" H 1900 6400 60  0001 C CNN
F 3 "" H 1900 6400 60  0000 C CNN
	1    2100 6500
	1    0    0    -1  
$EndComp
$Comp
L C C102
U 1 1 572BF748
P 1200 7050
F 0 "C102" H 1200 7150 50  0000 L CNN
F 1 "100n" H 1200 6950 50  0000 L CNN
F 2 "Local:C_0603" H 1238 6900 30  0001 C CNN
F 3 "" H 1200 7050 60  0000 C CNN
	1    1200 7050
	1    0    0    -1  
$EndComp
$Comp
L LED D101
U 1 1 572BF778
P 2800 6400
F 0 "D101" H 2800 6500 50  0000 C CNN
F 1 "LED" H 2800 6300 50  0000 C CNN
F 2 "Local:LED_0603" H 2800 6400 60  0001 C CNN
F 3 "" H 2800 6400 60  0000 C CNN
	1    2800 6400
	0    -1   -1   0   
$EndComp
$Comp
L LED D102
U 1 1 572BF77F
P 3100 6400
F 0 "D102" H 3100 6500 50  0000 C CNN
F 1 "LED" H 3100 6300 50  0000 C CNN
F 2 "Local:LED_0603" H 3100 6400 60  0001 C CNN
F 3 "" H 3100 6400 60  0000 C CNN
	1    3100 6400
	0    -1   -1   0   
$EndComp
$Comp
L LED D103
U 1 1 572BF786
P 3400 6400
F 0 "D103" H 3400 6500 50  0000 C CNN
F 1 "LED" H 3400 6300 50  0000 C CNN
F 2 "Local:LED_0603" H 3400 6400 60  0001 C CNN
F 3 "" H 3400 6400 60  0000 C CNN
	1    3400 6400
	0    -1   -1   0   
$EndComp
$Comp
L LED D104
U 1 1 572BF78D
P 3700 6400
F 0 "D104" H 3700 6500 50  0000 C CNN
F 1 "LED" H 3700 6300 50  0000 C CNN
F 2 "Local:LED_0603" H 3700 6400 60  0001 C CNN
F 3 "" H 3700 6400 60  0000 C CNN
	1    3700 6400
	0    -1   -1   0   
$EndComp
$Comp
L R R101
U 1 1 572BF7EB
P 3150 7000
F 0 "R101" V 3230 7000 50  0000 C CNN
F 1 "1K" V 3157 7001 50  0000 C CNN
F 2 "Local:R_0603" V 3080 7000 30  0001 C CNN
F 3 "" H 3150 7000 30  0000 C CNN
	1    3150 7000
	0    -1   -1   0   
$EndComp
$Comp
L C C101
U 1 1 572C0A05
P 800 6350
F 0 "C101" H 850 6450 50  0000 L CNN
F 1 "100n" H 850 6250 50  0000 L CNN
F 2 "Local:C_0603" H 838 6200 30  0001 C CNN
F 3 "" H 800 6350 60  0000 C CNN
	1    800  6350
	1    0    0    -1  
$EndComp
$Comp
L EC11E E101
U 1 1 572C5512
P 4900 6300
F 0 "E101" H 4700 6550 60  0000 C CNN
F 1 "EC11E" H 4900 6050 60  0000 C CNN
F 2 "Local:EC11E" H 4950 6300 60  0001 C CNN
F 3 "" H 4950 6300 60  0000 C CNN
	1    4900 6300
	1    0    0    -1  
$EndComp
Text GLabel 4600 2700 2    47   Input ~ 0
~ENC_A
Text GLabel 4600 2900 2    47   Input ~ 0
LCD_SCLK
Text GLabel 4600 3100 2    47   Input ~ 0
LCD_MOSI
Text GLabel 4600 3000 2    47   Input ~ 0
LCD_D~C
Text GLabel 1200 2400 0    47   Input ~ 0
~LCD_NSS
$Comp
L GND #PWR07
U 1 1 572CB5FB
P 4000 5500
F 0 "#PWR07" H 4000 5250 60  0001 C CNN
F 1 "GND" H 4000 5350 60  0000 C CNN
F 2 "" H 4000 5500 60  0000 C CNN
F 3 "" H 4000 5500 60  0000 C CNN
	1    4000 5500
	1    0    0    -1  
$EndComp
$Comp
L C C103
U 1 1 572CB601
P 4000 5250
F 0 "C103" H 4050 5350 50  0000 L CNN
F 1 "100n" H 4050 5150 50  0000 L CNN
F 2 "Local:C_0603" H 4038 5100 30  0001 C CNN
F 3 "" H 4000 5250 60  0000 C CNN
	1    4000 5250
	1    0    0    -1  
$EndComp
Text GLabel 4000 5000 1    47   Input ~ 0
RESET
Text GLabel 1200 3000 0    47   Input ~ 0
RESET
Text GLabel 4600 2100 2    47   Input ~ 0
~LCD_RES
Text GLabel 1200 2200 0    47   Input ~ 0
SWDIO
Text GLabel 1200 2300 0    47   Input ~ 0
SWCLK
Text GLabel 4600 2600 2    47   Input ~ 0
~ENC_B
Text GLabel 4600 2800 2    47   Input ~ 0
~ENC_C
Text GLabel 4600 3300 2    47   Input ~ 0
WRT_TX
Text GLabel 4600 3200 2    47   Input ~ 0
WRT_RX
Text GLabel 1200 2000 0    47   Input ~ 0
USB_DM
Text GLabel 1200 2100 0    47   Input ~ 0
USB_DP
Text GLabel 1200 1500 0    47   Input ~ 0
USB_CON
Text GLabel 1200 2600 0    47   Input ~ 0
OSC_IN
Text GLabel 1200 2700 0    47   Input ~ 0
OSC_OUT
Text GLabel 5400 2200 1    47   Input ~ 0
OSC_IN
Text GLabel 5900 2200 1    47   Input ~ 0
OSC_OUT
$Comp
L Crystal Y101
U 1 1 572D32A3
P 5650 2600
F 0 "Y101" H 5650 2750 50  0000 C CNN
F 1 "8MHz" H 5650 2450 50  0000 C CNN
F 2 "Local:Crystal_HC49-U_Vertical" H 5650 2600 60  0001 C CNN
F 3 "" H 5650 2600 60  0000 C CNN
	1    5650 2600
	1    0    0    -1  
$EndComp
$Comp
L C C114
U 1 1 572D3810
P 5400 2850
F 0 "C114" H 5425 2950 50  0000 L CNN
F 1 "27p" H 5425 2750 50  0000 L CNN
F 2 "Local:C_0603" H 5438 2700 30  0001 C CNN
F 3 "" H 5400 2850 60  0000 C CNN
	1    5400 2850
	-1   0    0    -1  
$EndComp
$Comp
L C C115
U 1 1 572D3DA3
P 5900 2850
F 0 "C115" H 5925 2950 50  0000 L CNN
F 1 "27p" H 5925 2750 50  0000 L CNN
F 2 "Local:C_0603" H 5938 2700 30  0001 C CNN
F 3 "" H 5900 2850 60  0000 C CNN
	1    5900 2850
	1    0    0    -1  
$EndComp
$Comp
L GND #PWR08
U 1 1 572D43C7
P 5900 3100
F 0 "#PWR08" H 5900 2850 50  0001 C CNN
F 1 "GND" H 5900 2950 50  0000 C CNN
F 2 "" H 5900 3100 60  0000 C CNN
F 3 "" H 5900 3100 60  0000 C CNN
	1    5900 3100
	1    0    0    -1  
$EndComp
$Comp
L GND #PWR09
U 1 1 572D448F
P 5400 3100
F 0 "#PWR09" H 5400 2850 50  0001 C CNN
F 1 "GND" H 5400 2950 50  0000 C CNN
F 2 "" H 5400 3100 60  0000 C CNN
F 3 "" H 5400 3100 60  0000 C CNN
	1    5400 3100
	1    0    0    -1  
$EndComp
$Comp
L R R103
U 1 1 572D481D
P 5650 2300
F 0 "R103" V 5730 2300 50  0000 C CNN
F 1 "1M" V 5657 2301 50  0000 C CNN
F 2 "Local:R_0603" V 5580 2300 30  0001 C CNN
F 3 "" H 5650 2300 30  0000 C CNN
	1    5650 2300
	0    -1   -1   0   
$EndComp
Text GLabel 1200 1400 0    47   Input ~ 0
USB_DET
Text GLabel 4600 1700 2    47   Input ~ 0
LCD_BLC
$Comp
L MAX485 U103
U 1 1 57565A5A
P 6500 1150
F 0 "U103" H 6500 1450 60  0000 C CNN
F 1 "MAX485" H 6500 850 60  0000 C CNN
F 2 "Local:SOIC-8_3.9x4.9mm_Pitch1.27mm" H 6340 1150 60  0001 C CNN
F 3 "" H 6340 1150 60  0000 C CNN
	1    6500 1150
	1    0    0    -1  
$EndComp
$Comp
L +3V3 #PWR010
U 1 1 57568681
P 7000 900
F 0 "#PWR010" H 7000 750 50  0001 C CNN
F 1 "+3V3" H 7000 1040 50  0000 C CNN
F 2 "" H 7000 900 60  0000 C CNN
F 3 "" H 7000 900 60  0000 C CNN
	1    7000 900 
	1    0    0    -1  
$EndComp
Text GLabel 7000 1100 2    47   Input ~ 0
RS485_B
Text GLabel 7000 1200 2    47   Input ~ 0
RS485_A
Text GLabel 6000 1000 0    47   Input ~ 0
RS485_RO
Wire Wire Line
	4500 1100 4600 1100
Wire Wire Line
	4500 900  4600 900 
Wire Wire Line
	4500 1000 4600 1000
Wire Wire Line
	1300 1000 1200 1000
Wire Wire Line
	7000 1300 7000 1400
Wire Wire Line
	9900 1200 10000 1200
Wire Wire Line
	9900 900  9900 1200
Wire Wire Line
	9900 1400 9900 1600
Wire Wire Line
	10000 1400 9900 1400
Wire Wire Line
	8300 1300 8100 1300
Wire Wire Line
	8300 1100 8100 1100
Wire Wire Line
	8200 1200 8300 1200
Wire Wire Line
	8200 900  8200 1200
Wire Wire Line
	8200 1400 8200 1600
Wire Wire Line
	8300 1400 8200 1400
Connection ~ 1100 4100
Wire Wire Line
	900  4100 900  4000
Wire Wire Line
	1300 3300 1000 3300
Connection ~ 1100 3700
Wire Wire Line
	1300 3500 1100 3500
Connection ~ 1100 3900
Wire Wire Line
	1100 3700 1300 3700
Wire Wire Line
	1100 3900 1300 3900
Wire Wire Line
	1100 3100 1100 4100
Wire Wire Line
	900  4100 1300 4100
Connection ~ 1200 3400
Wire Wire Line
	1300 3200 1200 3200
Connection ~ 1200 3600
Wire Wire Line
	1200 3400 1300 3400
Connection ~ 1200 3800
Wire Wire Line
	1200 3600 1300 3600
Connection ~ 1200 4000
Wire Wire Line
	1200 3800 1300 3800
Wire Wire Line
	1200 4000 1300 4000
Wire Wire Line
	4500 1200 4600 1200
Wire Wire Line
	4500 1300 4600 1300
Wire Wire Line
	4500 1400 4600 1400
Wire Wire Line
	1300 1700 1200 1700
Wire Wire Line
	4600 2600 4500 2600
Wire Wire Line
	4600 2700 4500 2700
Wire Wire Line
	4600 3200 4500 3200
Wire Wire Line
	4600 3300 4500 3300
Wire Wire Line
	800  6100 1700 6100
Wire Wire Line
	1100 5850 1100 6600
Wire Wire Line
	1700 6800 1200 6800
Wire Wire Line
	1200 6800 1200 6900
Connection ~ 1100 6100
Wire Wire Line
	1300 6200 1700 6200
Wire Wire Line
	1300 6300 1700 6300
Wire Wire Line
	1300 6400 1700 6400
Wire Wire Line
	1300 6500 1700 6500
Wire Wire Line
	2800 6600 2800 6700
Wire Wire Line
	2800 6700 3700 6700
Wire Wire Line
	3100 6700 3100 6600
Wire Wire Line
	3400 6700 3400 6600
Connection ~ 3100 6700
Wire Wire Line
	3700 6600 3700 6800
Connection ~ 3400 6700
Wire Wire Line
	2800 6200 2800 6100
Wire Wire Line
	2800 6100 3700 6100
Wire Wire Line
	3100 6100 3100 6200
Wire Wire Line
	3400 6100 3400 6200
Connection ~ 3100 6100
Wire Wire Line
	3700 5850 3700 6200
Connection ~ 3400 6100
Wire Wire Line
	3700 7200 3700 7400
Wire Wire Line
	3000 7000 2700 7000
Wire Wire Line
	3400 7000 3300 7000
Wire Wire Line
	1100 6600 1700 6600
Wire Wire Line
	1200 7200 1200 7500
Wire Wire Line
	800  6500 800  7300
Wire Wire Line
	800  6100 800  6200
Wire Wire Line
	4150 6200 4500 6200
Wire Wire Line
	4150 6400 4500 6400
Wire Wire Line
	5300 6400 5400 6400
Wire Wire Line
	5400 6300 5400 6600
Wire Wire Line
	4500 6300 4400 6300
Wire Wire Line
	4400 6300 4400 6600
Wire Wire Line
	5300 6200 5550 6200
Wire Wire Line
	4600 3600 4500 3600
Wire Wire Line
	4600 3700 4500 3700
Wire Wire Line
	4600 3900 4500 3900
Wire Wire Line
	4600 3800 4500 3800
Wire Wire Line
	4600 4100 4500 4100
Wire Wire Line
	4600 4000 4500 4000
Wire Wire Line
	4000 5400 4000 5500
Wire Wire Line
	4000 5100 4000 5000
Wire Wire Line
	1300 3000 1200 3000
Wire Wire Line
	1300 3100 1100 3100
Connection ~ 1100 3500
Wire Wire Line
	4600 3500 4500 3500
Wire Wire Line
	1300 2200 1200 2200
Wire Wire Line
	1300 2300 1200 2300
Wire Wire Line
	1300 1300 1200 1300
Wire Wire Line
	1300 1400 1200 1400
Wire Wire Line
	1300 1500 1200 1500
Wire Wire Line
	1300 1600 1200 1600
Wire Wire Line
	1300 1100 1200 1100
Wire Wire Line
	1300 1200 1200 1200
Wire Wire Line
	1300 1800 1200 1800
Wire Wire Line
	1300 1900 1200 1900
Wire Wire Line
	1300 2000 1200 2000
Wire Wire Line
	1300 2100 1200 2100
Wire Wire Line
	1300 2400 1200 2400
Wire Wire Line
	1300 2600 1200 2600
Wire Wire Line
	1300 2700 1200 2700
Wire Wire Line
	5400 2200 5400 2700
Wire Wire Line
	5400 2600 5500 2600
Wire Wire Line
	5900 2200 5900 2700
Wire Wire Line
	5900 2600 5800 2600
Connection ~ 5900 2600
Connection ~ 5400 2600
Wire Wire Line
	5400 3000 5400 3100
Wire Wire Line
	5900 3000 5900 3100
Wire Wire Line
	5900 2300 5800 2300
Connection ~ 5900 2300
Wire Wire Line
	5500 2300 5400 2300
Connection ~ 5400 2300
Wire Wire Line
	4600 2900 4500 2900
Wire Wire Line
	4600 2800 4500 2800
Wire Wire Line
	4600 1500 4500 1500
Wire Wire Line
	4600 1600 4500 1600
Wire Wire Line
	4600 1700 4500 1700
Wire Wire Line
	4600 1800 4500 1800
Wire Wire Line
	4600 1900 4500 1900
Wire Wire Line
	1300 900  1200 900 
Wire Wire Line
	4600 3400 4500 3400
Wire Wire Line
	7000 1300 6900 1300
Wire Wire Line
	6900 1000 7000 1000
Wire Wire Line
	7000 1000 7000 900 
Wire Wire Line
	6900 1100 7000 1100
Wire Wire Line
	6900 1200 7000 1200
Wire Wire Line
	6100 1000 6000 1000
Wire Wire Line
	6100 1100 6000 1100
Wire Wire Line
	6100 1200 6000 1200
Wire Wire Line
	6100 1300 6000 1300
Text GLabel 6000 1300 0    47   Input ~ 0
RS485_DI
Text GLabel 6000 1100 0    47   Input ~ 0
~RS485_RE
Text GLabel 6000 1200 0    47   Input ~ 0
RS485_DE
Text GLabel 1200 1200 0    47   Input ~ 0
RS485_RO
Text GLabel 1200 1100 0    47   Input ~ 0
RS485_DI
Text GLabel 1200 1000 0    47   Input ~ 0
RS485_DE
Text GLabel 1200 900  0    47   Input ~ 0
~RS485_RE
Text GLabel 8100 1100 0    47   Input ~ 0
RS485_B
Text GLabel 8100 1300 0    47   Input ~ 0
RS485_A
Wire Wire Line
	10000 1100 9800 1100
Wire Wire Line
	10000 1300 9800 1300
Text GLabel 9800 1100 0    47   Input ~ 0
RS485_B
Text GLabel 9800 1300 0    47   Input ~ 0
RS485_A
Wire Wire Line
	4600 2000 4500 2000
Wire Wire Line
	4600 2100 4500 2100
Wire Wire Line
	4600 3000 4500 3000
Wire Wire Line
	4600 3100 4500 3100
Wire Wire Line
	4500 2300 4600 2300
Wire Wire Line
	4600 2400 4500 2400
Wire Wire Line
	4500 2200 4600 2200
$Comp
L C C116
U 1 1 5769714F
P 7500 1150
F 0 "C116" H 7525 1250 50  0000 L CNN
F 1 "100n" H 7525 1050 50  0000 L CNN
F 2 "Local:C_0603" H 7538 1000 30  0001 C CNN
F 3 "" H 7500 1150 60  0000 C CNN
	1    7500 1150
	1    0    0    -1  
$EndComp
$Comp
L +3V3 #PWR011
U 1 1 57697155
P 7500 900
F 0 "#PWR011" H 7500 750 50  0001 C CNN
F 1 "+3V3" H 7500 1040 50  0000 C CNN
F 2 "" H 7500 900 60  0000 C CNN
F 3 "" H 7500 900 60  0000 C CNN
	1    7500 900 
	1    0    0    -1  
$EndComp
$Comp
L GND #PWR012
U 1 1 5769715B
P 7500 1400
F 0 "#PWR012" H 7500 1150 50  0001 C CNN
F 1 "GND" H 7500 1250 50  0000 C CNN
F 2 "" H 7500 1400 60  0000 C CNN
F 3 "" H 7500 1400 60  0000 C CNN
	1    7500 1400
	1    0    0    -1  
$EndComp
Wire Wire Line
	7500 1000 7500 900 
Wire Wire Line
	7500 1400 7500 1300
Text GLabel 4600 2000 2    47   Input ~ 0
~WRT_OFF
Text GLabel 4600 1900 2    47   Input ~ 0
~WRT_RES
Wire Wire Line
	1700 6900 1300 6900
Wire Wire Line
	1300 2800 1200 2800
Text Notes -950 5400 0    60   ~ 0
Periphery mapping:\n\nADC1:\nPC1/CH11: MOT_TMP\nPC2/CH12: BOX_TMP\nPC3/CH13: DRV_TMP\n\nSPI1*: LCD\n\nUART1*: RADIO\nUART2: RS485\nUART3: PWR_MON\n\nTIM1: 3-PHASE PWM\nCH1/CH1N: PHASE_A\nCH2/CH2N: PHASE_B\nCH3/CH3N: PHASE_C\n\nTIM2: NONE\n\nTIM3*: PWM\nCH1: LCD_BLC\n\nTIM4: PWM\nPB8/CH3: BOX_FAN\nPB9/CH4: DRV_FAN\n\nDRV_PIN:\nPA7: PWR_ON\nPA6: USB_CON\n\nEXT_IRQ:\nPB0: ~ENC_B\nPB1: ~ENC_A\nPB2: ~ENC_C\nPA5: USB_DET\n\n* - REMAP\n\nDMA request mapping:\n\nCH1: ADC\nCH2: ---\nCH3: SPI1 TX (LCD)\nCH4: UART1 TX (RADIO)\nCH5: UART1 RX (RADIO)\nCH6: UART2 RX (RS485)\nCH7: UART2 TX (RS485)
Wire Wire Line
	5300 6300 5400 6300
Connection ~ 5400 6400
Wire Wire Line
	2100 7300 2100 7150
$Comp
L ESP-12 U104
U 1 1 5860AA06
P 9000 2650
F 0 "U104" H 9000 3150 60  0000 C CNN
F 1 "ESP-12" H 9000 2150 60  0000 C CNN
F 2 "Local:ESP-12" H 9000 2650 60  0001 C CNN
F 3 "" H 9000 2650 60  0000 C CNN
	1    9000 2650
	1    0    0    -1  
$EndComp
Wire Wire Line
	10500 2300 10100 2300
Wire Wire Line
	10500 2400 10100 2400
Wire Wire Line
	7900 3000 7600 3000
Wire Wire Line
	10100 3000 10500 3000
$Comp
L GND #PWR013
U 1 1 5860AA15
P 7100 2500
F 0 "#PWR013" H 7100 2250 50  0001 C CNN
F 1 "GND" H 7100 2350 50  0000 C CNN
F 2 "" H 7100 2500 60  0000 C CNN
F 3 "" H 7100 2500 60  0000 C CNN
	1    7100 2500
	1    0    0    -1  
$EndComp
$Comp
L +3V3 #PWR014
U 1 1 5860AA1B
P 7100 2100
F 0 "#PWR014" H 7100 1950 60  0001 C CNN
F 1 "+3V3" H 7100 2240 60  0000 C CNN
F 2 "" H 7100 2100 60  0000 C CNN
F 3 "" H 7100 2100 60  0000 C CNN
	1    7100 2100
	1    0    0    -1  
$EndComp
Wire Wire Line
	7900 2500 7600 2500
Wire Wire Line
	7900 2300 7600 2300
$Comp
L C C118
U 1 1 5860AA25
P 11100 2650
F 0 "C118" H 11125 2750 50  0000 L CNN
F 1 "10u" H 11125 2550 50  0000 L CNN
F 2 "Local:C_0805" H 11138 2500 30  0001 C CNN
F 3 "" H 11100 2650 60  0000 C CNN
	1    11100 2650
	-1   0    0    -1  
$EndComp
Wire Wire Line
	11100 2800 11100 3000
Wire Wire Line
	11100 2200 11100 2500
Text GLabel 2900 5100 0    47   Input ~ 0
SWDIO
Text GLabel 2900 5300 0    47   Input ~ 0
SWCLK
$Comp
L GND #PWR015
U 1 1 5860AA3C
P 3000 5500
F 0 "#PWR015" H 3000 5250 60  0001 C CNN
F 1 "GND" H 3000 5350 60  0000 C CNN
F 2 "" H 3000 5500 60  0000 C CNN
F 3 "" H 3000 5500 60  0000 C CNN
	1    3000 5500
	1    0    0    -1  
$EndComp
$Comp
L +3V3 #PWR016
U 1 1 5860AA42
P 3000 5000
F 0 "#PWR016" H 3000 4850 60  0001 C CNN
F 1 "+3V3" H 3000 5140 60  0000 C CNN
F 2 "" H 3000 5000 60  0000 C CNN
F 3 "" H 3000 5000 60  0000 C CNN
	1    3000 5000
	1    0    0    -1  
$EndComp
Wire Wire Line
	3100 5200 3000 5200
Wire Wire Line
	3000 5200 3000 5000
Wire Wire Line
	3100 5400 3000 5400
Wire Wire Line
	3000 5400 3000 5500
Wire Wire Line
	3100 5300 2900 5300
Wire Wire Line
	3100 5100 2900 5100
$Comp
L R R107
U 1 1 5860AA4E
P 8900 5350
F 0 "R107" V 8980 5350 50  0000 C CNN
F 1 "1K5" V 8900 5350 50  0000 C CNN
F 2 "Local:R_0603" H 8900 5350 60  0001 C CNN
F 3 "" H 8900 5350 60  0001 C CNN
	1    8900 5350
	-1   0    0    -1  
$EndComp
$Comp
L GND #PWR017
U 1 1 5860AA55
P 7800 4450
F 0 "#PWR017" H 7800 4450 30  0001 C CNN
F 1 "GND" H 7800 4380 30  0001 C CNN
F 2 "" H 7800 4450 60  0001 C CNN
F 3 "" H 7800 4450 60  0001 C CNN
	1    7800 4450
	1    0    0    -1  
$EndComp
Text Label 7800 3900 0    60   ~ 0
USBD-
$Comp
L ESD_PROT U105
U 1 1 5860AA5C
P 8250 4350
F 0 "U105" H 7950 4100 60  0000 C CNN
F 1 "ESD_PROT" H 8550 4600 60  0000 C CNN
F 2 "Local:SOT-143" H 8250 4350 60  0001 C CNN
F 3 "" H 8250 4350 60  0001 C CNN
	1    8250 4350
	1    0    0    1   
$EndComp
$Comp
L USB_OTG P105
U 1 1 5860AA63
P 9500 4600
F 0 "P105" V 9200 4600 60  0000 C CNN
F 1 "USB-OTG" H 9500 4800 60  0000 C CNN
F 2 "Local:USB_Mini-B" H 9500 4600 60  0001 C CNN
F 3 "" H 9500 4600 60  0001 C CNN
	1    9500 4600
	0    1    1    0   
$EndComp
Text Label 8350 4800 0    60   ~ 0
USBD+
$Comp
L C C120
U 1 1 5860AA6B
P 8000 5250
F 0 "C120" H 8050 5350 50  0000 L CNN
F 1 "47p" H 8050 5150 50  0000 L CNN
F 2 "Local:C_0603" H 8000 5250 60  0001 C CNN
F 3 "" H 8000 5250 60  0001 C CNN
	1    8000 5250
	-1   0    0    -1  
$EndComp
$Comp
L GND #PWR018
U 1 1 5860AA72
P 8000 5500
F 0 "#PWR018" H 8000 5500 30  0001 C CNN
F 1 "GND" H 8000 5430 30  0001 C CNN
F 2 "" H 8000 5500 60  0001 C CNN
F 3 "" H 8000 5500 60  0001 C CNN
	1    8000 5500
	1    0    0    -1  
$EndComp
$Comp
L C C119
U 1 1 5860AA78
P 7700 5250
F 0 "C119" H 7750 5350 50  0000 L CNN
F 1 "47p" H 7750 5150 50  0000 L CNN
F 2 "Local:C_0603" H 7700 5250 60  0001 C CNN
F 3 "" H 7700 5250 60  0001 C CNN
	1    7700 5250
	-1   0    0    -1  
$EndComp
$Comp
L R R106
U 1 1 5860AA7F
P 8650 5000
F 0 "R106" V 8730 5000 50  0000 C CNN
F 1 "22" V 8650 5000 50  0000 C CNN
F 2 "Local:R_0603" H 8650 5000 60  0001 C CNN
F 3 "" H 8650 5000 60  0001 C CNN
	1    8650 5000
	0    1    -1   0   
$EndComp
$Comp
L R R105
U 1 1 5860AA86
P 7700 4150
F 0 "R105" V 7780 4150 50  0000 C CNN
F 1 "22" V 7700 4150 50  0000 C CNN
F 2 "Local:R_0603" H 7700 4150 60  0001 C CNN
F 3 "" H 7700 4150 60  0001 C CNN
	1    7700 4150
	-1   0    0    1   
$EndComp
Wire Wire Line
	8900 5000 8800 5000
Wire Wire Line
	7700 3900 8900 3900
Wire Wire Line
	7700 4000 7700 3900
Connection ~ 8900 4800
Wire Wire Line
	8900 4600 8900 5200
Connection ~ 8000 5000
Wire Wire Line
	7700 5400 7700 5500
Wire Wire Line
	8000 5500 8000 5400
Wire Wire Line
	7700 4300 7700 5100
Wire Wire Line
	7600 4900 7700 4900
Connection ~ 7700 4900
Wire Wire Line
	9100 4800 9200 4800
Wire Wire Line
	8250 4000 8250 3900
Connection ~ 8250 3900
Wire Wire Line
	8250 4800 8250 4700
Wire Wire Line
	7600 5000 8500 5000
Wire Wire Line
	8000 5000 8000 5100
Wire Wire Line
	8900 3900 8900 4500
Wire Wire Line
	8250 4800 8900 4800
Wire Wire Line
	7800 4350 7900 4350
Wire Wire Line
	7800 4450 7800 4350
Wire Wire Line
	8600 4350 8700 4350
Wire Wire Line
	8700 4350 8700 4250
Text GLabel 7600 5000 0    47   Input ~ 0
USB_DP
Text GLabel 7600 4900 0    47   Input ~ 0
USB_DM
Text GLabel 8800 5600 0    47   Input ~ 0
USB_CON
Wire Wire Line
	8900 4500 9200 4500
Wire Wire Line
	9200 4600 8900 4600
Text Notes 9500 6200 0    60   ~ 0
USB cable detection with debounce\n~ \nUSB 5V => 3V2 (logic one)
Text Notes 7450 6450 0    60   ~ 0
Three conditional USB Connection Logic\n~ \n\n1. USB Cable connected\n2. 2.7-3.3V appears on USB_DET\n3. Logic one applied to USB_CON
Text Notes 7600 3850 0    60   ~ 0
ESD and current peak protection\n~ 
Text GLabel 9100 4300 1    47   Input ~ 0
USB_5V
Wire Wire Line
	9200 4400 9100 4400
Wire Wire Line
	9100 4400 9100 4300
Text GLabel 10200 4600 1    47   Input ~ 0
USB_5V
$Comp
L R R109
U 1 1 5860AAB3
P 10200 4850
F 0 "R109" V 10280 4850 50  0000 C CNN
F 1 "22K" V 10200 4850 50  0000 C CNN
F 2 "Local:R_0603" H 10200 4850 60  0001 C CNN
F 3 "" H 10200 4850 60  0001 C CNN
	1    10200 4850
	-1   0    0    -1  
$EndComp
$Comp
L C C122
U 1 1 5860AABA
P 10200 5350
F 0 "C122" H 10250 5450 50  0000 L CNN
F 1 "100n" H 10250 5250 50  0000 L CNN
F 2 "Local:C_0603" H 10200 5350 60  0001 C CNN
F 3 "" H 10200 5350 60  0001 C CNN
	1    10200 5350
	-1   0    0    -1  
$EndComp
$Comp
L GND #PWR019
U 1 1 5860AAC1
P 10200 5600
F 0 "#PWR019" H 10200 5350 50  0001 C CNN
F 1 "GND" H 10200 5450 50  0000 C CNN
F 2 "" H 10200 5600 60  0000 C CNN
F 3 "" H 10200 5600 60  0000 C CNN
	1    10200 5600
	1    0    0    -1  
$EndComp
Wire Wire Line
	10200 5500 10200 5600
Wire Wire Line
	10200 4600 10200 4700
Wire Wire Line
	10200 5000 10200 5200
Wire Wire Line
	10200 5100 10600 5100
Wire Wire Line
	10500 5100 10500 5200
Connection ~ 10200 5100
$Comp
L R R110
U 1 1 5860AACD
P 10500 5350
F 0 "R110" V 10580 5350 50  0000 C CNN
F 1 "39K" V 10500 5350 50  0000 C CNN
F 2 "Local:R_0603" H 10500 5350 60  0001 C CNN
F 3 "" H 10500 5350 60  0001 C CNN
	1    10500 5350
	-1   0    0    -1  
$EndComp
Wire Wire Line
	10500 5500 10500 5600
$Comp
L GND #PWR020
U 1 1 5860AAD5
P 10500 5600
F 0 "#PWR020" H 10500 5350 50  0001 C CNN
F 1 "GND" H 10500 5450 50  0000 C CNN
F 2 "" H 10500 5600 60  0000 C CNN
F 3 "" H 10500 5600 60  0000 C CNN
	1    10500 5600
	1    0    0    -1  
$EndComp
Text GLabel 10600 5100 2    47   Input ~ 0
USB_DET
Connection ~ 10500 5100
Wire Wire Line
	8900 5500 8900 5600
$Comp
L R R108
U 1 1 5860AADE
P 9600 5350
F 0 "R108" V 9680 5350 50  0000 C CNN
F 1 "1M" V 9600 5350 50  0000 C CNN
F 2 "Local:R_0603" H 9600 5350 60  0001 C CNN
F 3 "" H 9600 5350 60  0001 C CNN
	1    9600 5350
	-1   0    0    -1  
$EndComp
$Comp
L C C121
U 1 1 5860AAE5
P 9300 5350
F 0 "C121" H 9350 5450 50  0000 L CNN
F 1 "10n" H 9350 5250 50  0000 L CNN
F 2 "Local:C_0603" H 9300 5350 60  0001 C CNN
F 3 "" H 9300 5350 60  0001 C CNN
	1    9300 5350
	-1   0    0    -1  
$EndComp
$Comp
L GND #PWR021
U 1 1 5860AAEC
P 9100 4900
F 0 "#PWR021" H 9100 4900 30  0001 C CNN
F 1 "GND" H 9100 4830 30  0001 C CNN
F 2 "" H 9100 4900 60  0001 C CNN
F 3 "" H 9100 4900 60  0001 C CNN
	1    9100 4900
	1    0    0    -1  
$EndComp
Wire Wire Line
	9100 4800 9100 4900
Wire Wire Line
	9600 5000 9600 5200
Wire Wire Line
	9600 5100 9300 5100
Wire Wire Line
	9300 5100 9300 5200
Connection ~ 9600 5100
$Comp
L GND #PWR022
U 1 1 5860AAF7
P 9600 5600
F 0 "#PWR022" H 9600 5350 50  0001 C CNN
F 1 "GND" H 9600 5450 50  0000 C CNN
F 2 "" H 9600 5600 60  0000 C CNN
F 3 "" H 9600 5600 60  0000 C CNN
	1    9600 5600
	1    0    0    -1  
$EndComp
$Comp
L GND #PWR023
U 1 1 5860AAFD
P 9300 5600
F 0 "#PWR023" H 9300 5350 50  0001 C CNN
F 1 "GND" H 9300 5450 50  0000 C CNN
F 2 "" H 9300 5600 60  0000 C CNN
F 3 "" H 9300 5600 60  0000 C CNN
	1    9300 5600
	1    0    0    -1  
$EndComp
Wire Wire Line
	9300 5500 9300 5600
Wire Wire Line
	9600 5500 9600 5600
Wire Wire Line
	9200 4700 9100 4700
NoConn ~ 9100 4700
Text Notes 8700 2050 0    60   ~ 0
WIFI interface
Text Notes 2650 4750 0    60   ~ 0
Flash/Debug connector
$Comp
L D_Schottky D105
U 1 1 5860AB09
P 9950 4000
F 0 "D105" H 9950 4100 50  0000 C CNN
F 1 "SS14" H 9950 3900 50  0000 C CNN
F 2 "Local:SMA_Standard" H 9950 4000 60  0001 C CNN
F 3 "" H 9950 4000 60  0000 C CNN
	1    9950 4000
	-1   0    0    -1  
$EndComp
Text GLabel 9700 4000 0    47   Input ~ 0
USB_5V
Wire Wire Line
	9800 4000 9700 4000
Wire Wire Line
	10100 4000 10200 4000
Text GLabel 8700 4250 1    47   Input ~ 0
USB_5V
Connection ~ 8900 5000
$Comp
L SWD P101
U 1 1 5860AB1C
P 3500 5250
F 0 "P101" H 3500 5550 60  0000 C CNN
F 1 "SWD" H 3500 4950 60  0000 C CNN
F 2 "Local:Pin_Header_Straight_1x04_Pitch2.54mm" H 3300 5250 60  0001 C CNN
F 3 "" H 3300 5250 60  0000 C CNN
	1    3500 5250
	1    0    0    -1  
$EndComp
Connection ~ 3700 6700
Connection ~ 3700 6100
Text GLabel 4600 3900 2    47   Input ~ 0
~PH_A_CTL
Text GLabel 4600 4000 2    47   Input ~ 0
~PH_B_CTL
Text GLabel 4600 4100 2    47   Input ~ 0
~PH_C_CTL
Text GLabel 1200 1700 0    47   Input ~ 0
PH_A_CTL
Text GLabel 1200 1800 0    47   Input ~ 0
PH_B_CTL
Text GLabel 1200 1900 0    47   Input ~ 0
PH_C_CTL
Text GLabel 4600 1200 2    47   Input ~ 0
DRV_TMP
Text GLabel 4600 1000 2    47   Input ~ 0
MOT_TMP
Text GLabel 4600 3600 2    47   Input ~ 0
MON_TX
$Comp
L C C104
U 1 1 5861FD9E
P 4500 5250
F 0 "C104" H 4525 5350 50  0000 L CNN
F 1 "100n" H 4525 5150 50  0000 L CNN
F 2 "Local:C_0603" H 4538 5100 30  0001 C CNN
F 3 "" H 4500 5250 60  0000 C CNN
	1    4500 5250
	1    0    0    -1  
$EndComp
$Comp
L +3V3 #PWR024
U 1 1 5861FDA4
P 4500 5000
F 0 "#PWR024" H 4500 4850 50  0001 C CNN
F 1 "+3V3" H 4500 5140 50  0000 C CNN
F 2 "" H 4500 5000 60  0000 C CNN
F 3 "" H 4500 5000 60  0000 C CNN
	1    4500 5000
	1    0    0    -1  
$EndComp
$Comp
L GND #PWR025
U 1 1 5861FDAA
P 4500 5500
F 0 "#PWR025" H 4500 5250 50  0001 C CNN
F 1 "GND" H 4500 5350 50  0000 C CNN
F 2 "" H 4500 5500 60  0000 C CNN
F 3 "" H 4500 5500 60  0000 C CNN
	1    4500 5500
	1    0    0    -1  
$EndComp
Wire Wire Line
	4500 5100 4500 5000
Wire Wire Line
	4500 5500 4500 5400
$Comp
L C C105
U 1 1 5861FE24
P 4800 5250
F 0 "C105" H 4825 5350 50  0000 L CNN
F 1 "100n" H 4825 5150 50  0000 L CNN
F 2 "Local:C_0603" H 4838 5100 30  0001 C CNN
F 3 "" H 4800 5250 60  0000 C CNN
	1    4800 5250
	1    0    0    -1  
$EndComp
$Comp
L +3V3 #PWR026
U 1 1 5861FE2A
P 4800 5000
F 0 "#PWR026" H 4800 4850 50  0001 C CNN
F 1 "+3V3" H 4800 5140 50  0000 C CNN
F 2 "" H 4800 5000 60  0000 C CNN
F 3 "" H 4800 5000 60  0000 C CNN
	1    4800 5000
	1    0    0    -1  
$EndComp
$Comp
L GND #PWR027
U 1 1 5861FE30
P 4800 5500
F 0 "#PWR027" H 4800 5250 50  0001 C CNN
F 1 "GND" H 4800 5350 50  0000 C CNN
F 2 "" H 4800 5500 60  0000 C CNN
F 3 "" H 4800 5500 60  0000 C CNN
	1    4800 5500
	1    0    0    -1  
$EndComp
Wire Wire Line
	4800 5100 4800 5000
Wire Wire Line
	4800 5500 4800 5400
$Comp
L C C106
U 1 1 5861FEE0
P 5100 5250
F 0 "C106" H 5125 5350 50  0000 L CNN
F 1 "100n" H 5125 5150 50  0000 L CNN
F 2 "Local:C_0603" H 5138 5100 30  0001 C CNN
F 3 "" H 5100 5250 60  0000 C CNN
	1    5100 5250
	1    0    0    -1  
$EndComp
$Comp
L +3V3 #PWR028
U 1 1 5861FEE6
P 5100 5000
F 0 "#PWR028" H 5100 4850 50  0001 C CNN
F 1 "+3V3" H 5100 5140 50  0000 C CNN
F 2 "" H 5100 5000 60  0000 C CNN
F 3 "" H 5100 5000 60  0000 C CNN
	1    5100 5000
	1    0    0    -1  
$EndComp
$Comp
L GND #PWR029
U 1 1 5861FEEC
P 5100 5500
F 0 "#PWR029" H 5100 5250 50  0001 C CNN
F 1 "GND" H 5100 5350 50  0000 C CNN
F 2 "" H 5100 5500 60  0000 C CNN
F 3 "" H 5100 5500 60  0000 C CNN
	1    5100 5500
	1    0    0    -1  
$EndComp
Wire Wire Line
	5100 5100 5100 5000
Wire Wire Line
	5100 5500 5100 5400
$Comp
L C C107
U 1 1 5861FEF4
P 5400 5250
F 0 "C107" H 5425 5350 50  0000 L CNN
F 1 "100n" H 5425 5150 50  0000 L CNN
F 2 "Local:C_0603" H 5438 5100 30  0001 C CNN
F 3 "" H 5400 5250 60  0000 C CNN
	1    5400 5250
	1    0    0    -1  
$EndComp
$Comp
L +3V3 #PWR030
U 1 1 5861FEFA
P 5400 5000
F 0 "#PWR030" H 5400 4850 50  0001 C CNN
F 1 "+3V3" H 5400 5140 50  0000 C CNN
F 2 "" H 5400 5000 60  0000 C CNN
F 3 "" H 5400 5000 60  0000 C CNN
	1    5400 5000
	1    0    0    -1  
$EndComp
$Comp
L GND #PWR031
U 1 1 5861FF00
P 5400 5500
F 0 "#PWR031" H 5400 5250 50  0001 C CNN
F 1 "GND" H 5400 5350 50  0000 C CNN
F 2 "" H 5400 5500 60  0000 C CNN
F 3 "" H 5400 5500 60  0000 C CNN
	1    5400 5500
	1    0    0    -1  
$EndComp
Wire Wire Line
	5400 5100 5400 5000
Wire Wire Line
	5400 5500 5400 5400
$Comp
L CP C109
U 1 1 58620E21
P 6050 5250
F 0 "C109" H 6075 5350 50  0000 L CNN
F 1 "10u" H 6075 5150 50  0000 L CNN
F 2 "Local:C_0805" H 6088 5100 50  0001 C CNN
F 3 "" H 6050 5250 50  0000 C CNN
	1    6050 5250
	1    0    0    -1  
$EndComp
$Comp
L +3V3 #PWR032
U 1 1 58620FF4
P 6050 5000
F 0 "#PWR032" H 6050 4850 50  0001 C CNN
F 1 "+3V3" H 6050 5140 50  0000 C CNN
F 2 "" H 6050 5000 60  0000 C CNN
F 3 "" H 6050 5000 60  0000 C CNN
	1    6050 5000
	1    0    0    -1  
$EndComp
Wire Wire Line
	6050 5100 6050 5000
$Comp
L GND #PWR033
U 1 1 5862105B
P 6050 5500
F 0 "#PWR033" H 6050 5250 50  0001 C CNN
F 1 "GND" H 6050 5350 50  0000 C CNN
F 2 "" H 6050 5500 60  0000 C CNN
F 3 "" H 6050 5500 60  0000 C CNN
	1    6050 5500
	1    0    0    -1  
$EndComp
Wire Wire Line
	6050 5500 6050 5400
Text GLabel 4600 1300 2    47   Input ~ 0
PH_A_SENS
Text GLabel 4600 1400 2    47   Input ~ 0
PH_B_SENS
Text GLabel 4600 3500 2    47   Input ~ 0
DRV_FAN
Text GLabel 4600 3400 2    47   Input ~ 0
BOX_FAN
Text GLabel 1200 1600 0    47   Input ~ 0
PWR_ON
$Comp
L Q_NPN_BEC Q101
U 1 1 585F588A
P 3600 7000
F 0 "Q101" H 3800 7050 50  0000 L CNN
F 1 "MMBT3904" H 3800 6950 50  0000 L CNN
F 2 "Local:SOT-23" H 3800 7100 50  0001 C CNN
F 3 "" H 3600 7000 50  0000 C CNN
	1    3600 7000
	1    0    0    -1  
$EndComp
Wire Wire Line
	7900 2600 7600 2600
Wire Wire Line
	7900 2900 7600 2900
Wire Wire Line
	10100 2700 10500 2700
$Comp
L C C117
U 1 1 58611FC5
P 5700 4250
F 0 "C117" H 5725 4350 50  0000 L CNN
F 1 "10n" H 5725 4150 50  0000 L CNN
F 2 "Local:C_0603" H 5738 4100 30  0001 C CNN
F 3 "" H 5700 4250 60  0000 C CNN
	1    5700 4250
	-1   0    0    -1  
$EndComp
$Comp
L GND #PWR034
U 1 1 58611FCB
P 5700 4500
F 0 "#PWR034" H 5700 4250 60  0001 C CNN
F 1 "GND" H 5700 4350 60  0000 C CNN
F 2 "" H 5700 4500 60  0000 C CNN
F 3 "" H 5700 4500 60  0000 C CNN
	1    5700 4500
	1    0    0    -1  
$EndComp
Text GLabel 5600 4000 0    47   Input ~ 0
MOT_TMP
Wire Wire Line
	5600 4000 5800 4000
Wire Wire Line
	5700 4000 5700 4100
Wire Wire Line
	5700 4400 5700 4500
$Comp
L RJ12 P104
U 1 1 586132D5
P 6750 3900
F 0 "P104" V 6350 3900 60  0000 C CNN
F 1 "MOT_TMP" V 7200 3800 60  0000 C CNN
F 2 "Local:RJ12" H 6750 3900 60  0001 C CNN
F 3 "" H 6750 3900 60  0000 C CNN
	1    6750 3900
	0    1    1    0   
$EndComp
$Comp
L R R104
U 1 1 5861442A
P 6200 4250
F 0 "R104" V 6280 4250 50  0000 C CNN
F 1 "4K7" V 6200 4250 50  0000 C CNN
F 2 "Local:R_0603" H 6200 4250 60  0001 C CNN
F 3 "" H 6200 4250 60  0001 C CNN
	1    6200 4250
	-1   0    0    -1  
$EndComp
$Comp
L GND #PWR035
U 1 1 586147B0
P 6200 4500
F 0 "#PWR035" H 6200 4250 60  0001 C CNN
F 1 "GND" H 6200 4350 60  0000 C CNN
F 2 "" H 6200 4500 60  0000 C CNN
F 3 "" H 6200 4500 60  0000 C CNN
	1    6200 4500
	1    0    0    -1  
$EndComp
Wire Wire Line
	6200 4400 6200 4500
Wire Wire Line
	6200 4000 6200 4100
Connection ~ 5700 4000
Wire Wire Line
	6300 3900 6200 3900
Wire Wire Line
	6200 3900 6200 3800
Text GLabel 6200 3800 1    47   Input ~ 0
+3V3A
$Comp
L CP C111
U 1 1 58617D64
P 6800 5250
F 0 "C111" H 6825 5350 50  0000 L CNN
F 1 "1u" H 6825 5150 50  0000 L CNN
F 2 "Local:C_0805" H 6838 5100 50  0001 C CNN
F 3 "" H 6800 5250 50  0000 C CNN
	1    6800 5250
	1    0    0    -1  
$EndComp
Wire Wire Line
	6800 5100 6800 5000
$Comp
L GND #PWR036
U 1 1 58617D71
P 6800 5500
F 0 "#PWR036" H 6800 5250 50  0001 C CNN
F 1 "GND" H 6800 5350 50  0000 C CNN
F 2 "" H 6800 5500 60  0000 C CNN
F 3 "" H 6800 5500 60  0000 C CNN
	1    6800 5500
	1    0    0    -1  
$EndComp
Wire Wire Line
	6800 5500 6800 5400
Text GLabel 6800 5000 1    47   Input ~ 0
+3V3A
$Comp
L C C110
U 1 1 586183E6
P 6500 5250
F 0 "C110" H 6525 5350 50  0000 L CNN
F 1 "10n" H 6525 5150 50  0000 L CNN
F 2 "Local:C_0603" H 6538 5100 30  0001 C CNN
F 3 "" H 6500 5250 60  0000 C CNN
	1    6500 5250
	1    0    0    -1  
$EndComp
$Comp
L GND #PWR037
U 1 1 586183F2
P 6500 5500
F 0 "#PWR037" H 6500 5250 50  0001 C CNN
F 1 "GND" H 6500 5350 50  0000 C CNN
F 2 "" H 6500 5500 60  0000 C CNN
F 3 "" H 6500 5500 60  0000 C CNN
	1    6500 5500
	1    0    0    -1  
$EndComp
Wire Wire Line
	6500 5100 6500 5000
Wire Wire Line
	6500 5500 6500 5400
Text GLabel 6500 5000 1    47   Input ~ 0
+3V3A
$Comp
L C C108
U 1 1 5861B2C6
P 10800 2650
F 0 "C108" H 10825 2750 50  0000 L CNN
F 1 "100n" H 10825 2550 50  0000 L CNN
F 2 "Local:C_0603" H 10838 2500 30  0001 C CNN
F 3 "" H 10800 2650 60  0000 C CNN
	1    10800 2650
	-1   0    0    -1  
$EndComp
Wire Wire Line
	10800 2500 10800 2200
Wire Wire Line
	10800 3000 10800 2800
$Comp
L R R111
U 1 1 58621DA9
P 5950 4000
F 0 "R111" V 6030 4000 50  0000 C CNN
F 1 "10K" V 5950 4000 50  0000 C CNN
F 2 "Local:R_0603" H 5950 4000 60  0001 C CNN
F 3 "" H 5950 4000 60  0001 C CNN
	1    5950 4000
	0    1    -1   0   
$EndComp
Wire Wire Line
	6100 4000 6300 4000
Connection ~ 6200 4000
Text GLabel 4600 3700 2    47   Input ~ 0
MON_RX
Text GLabel 4600 3800 2    47   Input ~ 0
~MON_ALERT
$Comp
L +3V3 #PWR038
U 1 1 5894F181
P 8200 900
F 0 "#PWR038" H 8200 750 50  0001 C CNN
F 1 "+3V3" H 8200 1040 50  0000 C CNN
F 2 "" H 8200 900 60  0000 C CNN
F 3 "" H 8200 900 60  0000 C CNN
	1    8200 900 
	1    0    0    -1  
$EndComp
$Comp
L +3V3 #PWR039
U 1 1 5894F21C
P 9900 900
F 0 "#PWR039" H 9900 750 50  0001 C CNN
F 1 "+3V3" H 9900 1040 50  0000 C CNN
F 2 "" H 9900 900 60  0000 C CNN
F 3 "" H 9900 900 60  0000 C CNN
	1    9900 900 
	1    0    0    -1  
$EndComp
$Comp
L CONN_02X06 P106
U 1 1 589482E6
P 1650 5150
F 0 "P106" H 1650 5500 50  0000 C CNN
F 1 "PANEL_B" H 1650 4800 50  0000 C CNN
F 2 "Local:Pin_Header_Straight_2x06_Pitch2.54mm" H 1650 3950 50  0001 C CNN
F 3 "" H 1650 3950 50  0000 C CNN
	1    1650 5150
	1    0    0    -1  
$EndComp
$Comp
L CONN_02X06 P107
U 1 1 58948859
P 4950 7150
F 0 "P107" H 4950 7500 50  0000 C CNN
F 1 "PANEL_A" H 4950 6800 50  0000 C CNN
F 2 "Local:Pin_Header_Straight_2x06_Pitch2.54mm_Edge" H 4950 5950 50  0001 C CNN
F 3 "" H 4950 5950 50  0000 C CNN
	1    4950 7150
	1    0    0    -1  
$EndComp
Text GLabel 1300 4900 0    47   Input ~ 0
LCD_BLC
Text GLabel 1300 5300 0    47   Input ~ 0
LCD_SCLK
Text GLabel 1300 5100 0    47   Input ~ 0
LCD_MOSI
Text GLabel 1300 5200 0    47   Input ~ 0
LCD_D~C
Text GLabel 1300 5400 0    47   Input ~ 0
~LCD_NSS
Text GLabel 1300 5000 0    47   Input ~ 0
~LCD_RES
$Comp
L +3V3 #PWR040
U 1 1 58949E52
P 2000 4800
F 0 "#PWR040" H 2000 4650 60  0001 C CNN
F 1 "+3V3" H 2000 4940 60  0000 C CNN
F 2 "" H 2000 4800 60  0000 C CNN
F 3 "" H 2000 4800 60  0000 C CNN
	1    2000 4800
	1    0    0    -1  
$EndComp
Wire Wire Line
	1900 4900 2000 4900
Wire Wire Line
	2000 4900 2000 4800
$Comp
L GND #PWR041
U 1 1 5894A602
P 2000 5500
F 0 "#PWR041" H 2000 5250 60  0001 C CNN
F 1 "GND" H 2000 5350 60  0000 C CNN
F 2 "" H 2000 5500 60  0000 C CNN
F 3 "" H 2000 5500 60  0000 C CNN
	1    2000 5500
	1    0    0    -1  
$EndComp
Wire Wire Line
	1900 5400 2000 5400
Wire Wire Line
	2000 5400 2000 5500
Wire Wire Line
	1400 4900 1300 4900
Wire Wire Line
	1400 5000 1300 5000
Wire Wire Line
	1400 5100 1300 5100
Wire Wire Line
	1400 5200 1300 5200
Wire Wire Line
	1400 5300 1300 5300
Wire Wire Line
	1400 5400 1300 5400
Wire Wire Line
	1900 5300 2000 5300
Wire Wire Line
	1900 5200 2000 5200
Wire Wire Line
	1900 5100 2000 5100
Wire Wire Line
	1900 5000 2000 5000
Text GLabel 2000 5100 2    47   Input ~ 0
~ENC_A
Text GLabel 2000 5200 2    47   Input ~ 0
~ENC_B
Text GLabel 2000 5000 2    47   Input ~ 0
~ENC_C
Text Label 1300 6200 0    47   ~ 0
LCD_SCLK'
Text Label 1300 6300 0    47   ~ 0
LCD_MOSI'
Text Label 1300 6400 0    47   ~ 0
LCD_D~C'
Text Label 1300 6500 0    47   ~ 0
~LCD_NSS'
Text Label 1300 6900 0    47   ~ 0
~LCD_RES'
Text Label 5500 6900 2    47   ~ 0
+3V3'
Wire Wire Line
	5500 6900 5200 6900
Wire Wire Line
	5200 7300 5500 7300
Wire Wire Line
	5200 7000 5500 7000
Wire Wire Line
	5200 7200 5500 7200
Wire Wire Line
	5200 7100 5500 7100
Wire Wire Line
	5200 7400 5500 7400
Text Label 4150 6200 0    47   ~ 0
~ENC_A'
Text Label 4150 6400 0    47   ~ 0
~ENC_B'
Text Label 5550 6200 2    47   ~ 0
~ENC_C'
Text Label 1200 7500 1    47   ~ 0
GND'
Wire Wire Line
	1000 6700 1700 6700
Wire Wire Line
	1000 6700 1000 7300
Text Label 1100 5850 3    47   ~ 0
+3V3'
Text Label 3700 7400 1    47   ~ 0
GND'
Text Label 3700 5850 3    47   ~ 0
+3V3'
Text Label 4400 6600 1    47   ~ 0
GND'
Text Label 5400 6600 1    47   ~ 0
GND'
Text Label 5500 7400 2    47   ~ 0
GND'
Text Label 4300 7300 0    47   ~ 0
LCD_SCLK'
Text Label 4300 7100 0    47   ~ 0
LCD_MOSI'
Text Label 4300 7200 0    47   ~ 0
LCD_D~C'
Text Label 4300 7400 0    47   ~ 0
~LCD_NSS'
Text Label 4300 7000 0    47   ~ 0
~LCD_RES'
Text Label 2700 7000 0    47   ~ 0
LCD_BLC'
Text Label 4300 6900 0    47   ~ 0
LCD_BLC'
Text Label 5500 7100 2    47   ~ 0
~ENC_A'
Text Label 5500 7200 2    47   ~ 0
~ENC_B'
Text Label 5500 7000 2    47   ~ 0
~ENC_C'
Wire Wire Line
	4700 7300 4300 7300
Wire Wire Line
	4700 7100 4300 7100
Wire Wire Line
	4700 7200 4300 7200
Wire Wire Line
	4700 7400 4300 7400
Wire Wire Line
	4700 7000 4300 7000
Wire Wire Line
	4700 6900 4300 6900
Text GLabel 10200 4000 2    47   Input ~ 0
USB_PWR
Wire Wire Line
	800  7300 2100 7300
Connection ~ 1000 7300
Connection ~ 1200 7300
NoConn ~ 2000 5300
NoConn ~ 5500 7300
$Comp
L C C131
U 1 1 5897348B
P 5900 6950
F 0 "C131" H 5925 7050 50  0000 L CNN
F 1 "100n" H 5925 6850 50  0000 L CNN
F 2 "Local:C_0603" H 5938 6800 30  0001 C CNN
F 3 "" H 5900 6950 60  0000 C CNN
	1    5900 6950
	1    0    0    -1  
$EndComp
$Comp
L C C132
U 1 1 5897374A
P 6300 6950
F 0 "C132" H 6325 7050 50  0000 L CNN
F 1 "100n" H 6325 6850 50  0000 L CNN
F 2 "Local:C_0603" H 6338 6800 30  0001 C CNN
F 3 "" H 6300 6950 60  0000 C CNN
	1    6300 6950
	1    0    0    -1  
$EndComp
$Comp
L R R131
U 1 1 58973C05
P 5900 6450
F 0 "R131" V 5980 6450 50  0000 C CNN
F 1 "4K7" V 5900 6450 50  0000 C CNN
F 2 "Local:R_0603" H 5900 6450 60  0001 C CNN
F 3 "" H 5900 6450 60  0001 C CNN
	1    5900 6450
	-1   0    0    -1  
$EndComp
$Comp
L R R132
U 1 1 58973D44
P 6300 6450
F 0 "R132" V 6380 6450 50  0000 C CNN
F 1 "4K7" V 6300 6450 50  0000 C CNN
F 2 "Local:R_0603" H 6300 6450 60  0001 C CNN
F 3 "" H 6300 6450 60  0001 C CNN
	1    6300 6450
	-1   0    0    -1  
$EndComp
Wire Wire Line
	5650 6700 5900 6700
Wire Wire Line
	5900 6600 5900 6800
Connection ~ 5900 6700
Text Label 5650 6700 0    47   ~ 0
~ENC_A'
Wire Wire Line
	5900 6300 5900 6100
Text Label 5900 6100 3    47   ~ 0
+3V3'
Wire Wire Line
	5900 7100 5900 7250
Text Label 5900 7250 1    47   ~ 0
GND'
Wire Wire Line
	6300 6300 6300 6100
Text Label 6300 6100 3    47   ~ 0
+3V3'
Wire Wire Line
	6300 7100 6300 7250
Text Label 6300 7250 1    47   ~ 0
GND'
Wire Wire Line
	6050 6700 6300 6700
Wire Wire Line
	6300 6600 6300 6800
Connection ~ 6300 6700
Text Label 6050 6700 0    47   ~ 0
~ENC_B'
$Comp
L C C133
U 1 1 5897841B
P 6700 6950
F 0 "C133" H 6725 7050 50  0000 L CNN
F 1 "220n" H 6725 6850 50  0000 L CNN
F 2 "Local:C_0603" H 6738 6800 30  0001 C CNN
F 3 "" H 6700 6950 60  0000 C CNN
	1    6700 6950
	1    0    0    -1  
$EndComp
$Comp
L R R133
U 1 1 58978421
P 6700 6450
F 0 "R133" V 6780 6450 50  0000 C CNN
F 1 "10K" V 6700 6450 50  0000 C CNN
F 2 "Local:R_0603" H 6700 6450 60  0001 C CNN
F 3 "" H 6700 6450 60  0001 C CNN
	1    6700 6450
	-1   0    0    -1  
$EndComp
Wire Wire Line
	6700 6300 6700 6100
Text Label 6700 6100 3    47   ~ 0
+3V3'
Wire Wire Line
	6700 7100 6700 7250
Text Label 6700 7250 1    47   ~ 0
GND'
Wire Wire Line
	6450 6700 6700 6700
Wire Wire Line
	6700 6600 6700 6800
Connection ~ 6700 6700
Text Label 6450 6700 0    47   ~ 0
~ENC_C'
$Comp
L CONN_02X03 P108
U 1 1 5896DF48
P 6750 2300
F 0 "P108" H 6750 2500 50  0000 C CNN
F 1 "RADIO_B" H 6750 2100 50  0000 C CNN
F 2 "Local:Pin_Header_Straight_2x03_Pitch2.54mm" H 6750 1100 50  0001 C CNN
F 3 "" H 6750 1100 50  0000 C CNN
	1    6750 2300
	-1   0    0    -1  
$EndComp
Wire Wire Line
	7000 2200 7100 2200
Wire Wire Line
	7100 2200 7100 2100
Wire Wire Line
	7000 2400 7100 2400
Wire Wire Line
	7100 2400 7100 2500
Text GLabel 7100 2300 2    47   Input ~ 0
~WRT_RES
Wire Wire Line
	7100 2300 7000 2300
Text Label 7600 2300 0    47   ~ 0
~WRT_RES'
Text Label 7600 3000 0    47   ~ 0
+3V3''
Text Label 7600 2600 0    47   ~ 0
~WRT_RES'
Text Label 7600 2500 0    47   ~ 0
~WRT_OFF'
Wire Wire Line
	7900 2400 7600 2400
Wire Wire Line
	7900 2700 7600 2700
Wire Wire Line
	7900 2800 7600 2800
NoConn ~ 7600 2400
NoConn ~ 7600 2700
NoConn ~ 7600 2800
Text GLabel 6400 2200 0    47   Input ~ 0
~WRT_OFF
Wire Wire Line
	6500 2200 6400 2200
Text Label 10500 3000 2    47   ~ 0
GND''
Text Label 10500 2700 2    47   ~ 0
WRT_FLASH
Text GLabel 6400 2300 0    47   Input ~ 0
WRT_TX
Text GLabel 6400 2400 0    47   Input ~ 0
WRT_RX
Wire Wire Line
	6500 2300 6400 2300
Wire Wire Line
	6500 2400 6400 2400
$Comp
L CONN_02X03 P109
U 1 1 58974800
P 6750 2900
F 0 "P109" H 6750 3100 50  0000 C CNN
F 1 "RADIO_A" H 6750 2700 50  0000 C CNN
F 2 "Local:Pin_Header_Straight_2x03_Pitch2.54mm_Edge" H 6750 1700 50  0001 C CNN
F 3 "" H 6750 1700 50  0000 C CNN
	1    6750 2900
	-1   0    0    -1  
$EndComp
Text Label 10500 2300 2    47   ~ 0
WRT_TX'
Text Label 10500 2400 2    47   ~ 0
WRT_RX'
Wire Wire Line
	10100 2500 10500 2500
Wire Wire Line
	10100 2600 10500 2600
Wire Wire Line
	10100 2800 10500 2800
Text Label 7300 3000 2    47   ~ 0
GND''
Wire Wire Line
	7000 3000 7300 3000
Wire Wire Line
	7000 2800 7300 2800
Text Label 7300 2800 2    47   ~ 0
+3V3''
Text Label 6150 2800 0    47   ~ 0
~WRT_OFF'
NoConn ~ 7600 2900
Wire Wire Line
	7000 2900 7300 2900
Text Label 7300 2900 2    47   ~ 0
~WRT_RES'
Text Label 6150 2900 0    47   ~ 0
WRT_TX'
Text Label 6150 3000 0    47   ~ 0
WRT_RX'
Wire Wire Line
	6150 2900 6500 2900
Wire Wire Line
	6150 3000 6500 3000
Wire Wire Line
	6150 2800 6500 2800
Text Label 10800 3000 1    47   ~ 0
GND''
Text Label 11100 3000 1    47   ~ 0
GND''
Text Label 10800 2200 3    47   ~ 0
+3V3''
Text Label 11100 2200 3    47   ~ 0
+3V3''
$Comp
L SW_PUSH_SMALL SW201
U 1 1 5897B667
P 10600 3300
F 0 "SW201" H 10750 3410 50  0000 C CNN
F 1 "FLASH" H 10800 3300 50  0000 C CNN
F 2 "Local:MICRO_SW" H 10600 3300 50  0001 C CNN
F 3 "" H 10600 3300 50  0000 C CNN
	1    10600 3300
	1    0    0    -1  
$EndComp
Wire Wire Line
	10700 3400 10900 3400
Text Label 10100 3200 0    47   ~ 0
WRT_FLASH
Text Label 10900 3400 2    47   ~ 0
GND''
Wire Wire Line
	10500 3200 10100 3200
Text Label 8300 3400 0    47   ~ 0
~WRT_OFF'
$Comp
L R R112
U 1 1 5897D656
P 8800 3400
F 0 "R112" V 8880 3400 50  0000 C CNN
F 1 "10K" V 8807 3401 50  0000 C CNN
F 2 "Local:R_0603" V 8730 3400 30  0001 C CNN
F 3 "" H 8800 3400 30  0000 C CNN
	1    8800 3400
	0    -1   -1   0   
$EndComp
Text Label 9300 3400 2    47   ~ 0
+3V3''
Wire Wire Line
	8950 3400 9300 3400
Wire Wire Line
	8650 3400 8300 3400
NoConn ~ 10500 2500
NoConn ~ 10500 2600
NoConn ~ 10500 2800
NoConn ~ 6300 3700
NoConn ~ 6300 3800
NoConn ~ 6300 4100
NoConn ~ 6300 4200
NoConn ~ 7050 4400
NoConn ~ 7150 4400
NoConn ~ 8300 1000
NoConn ~ 8300 1500
NoConn ~ 9050 1700
NoConn ~ 9150 1700
NoConn ~ 10000 1000
NoConn ~ 10000 1500
NoConn ~ 10750 1700
NoConn ~ 10850 1700
NoConn ~ 4600 1500
NoConn ~ 4600 2300
NoConn ~ 4600 2400
$Comp
L PWR_FLAG #FLG042
U 1 1 589871FA
P 2450 7500
F 0 "#FLG042" H 2450 7595 50  0001 C CNN
F 1 "PWR_FLAG" H 2450 7680 50  0000 C CNN
F 2 "" H 2450 7500 50  0000 C CNN
F 3 "" H 2450 7500 50  0000 C CNN
	1    2450 7500
	1    0    0    -1  
$EndComp
$Comp
L PWR_FLAG #FLG043
U 1 1 58988245
P 3000 7500
F 0 "#FLG043" H 3000 7595 50  0001 C CNN
F 1 "PWR_FLAG" H 3000 7680 50  0000 C CNN
F 2 "" H 3000 7500 50  0000 C CNN
F 3 "" H 3000 7500 50  0000 C CNN
	1    3000 7500
	1    0    0    -1  
$EndComp
$Comp
L PWR_FLAG #FLG044
U 1 1 5898DEC0
P 7350 3300
F 0 "#FLG044" H 7350 3395 50  0001 C CNN
F 1 "PWR_FLAG" H 7350 3480 50  0000 C CNN
F 2 "" H 7350 3300 50  0000 C CNN
F 3 "" H 7350 3300 50  0000 C CNN
	1    7350 3300
	1    0    0    -1  
$EndComp
Text Label 7600 3400 2    47   ~ 0
GND''
Wire Wire Line
	7600 3400 7350 3400
Wire Wire Line
	7350 3400 7350 3300
Text Label 8050 3400 2    47   ~ 0
+3V3''
$Comp
L PWR_FLAG #FLG045
U 1 1 589908AF
P 7800 3300
F 0 "#FLG045" H 7800 3395 50  0001 C CNN
F 1 "PWR_FLAG" H 7800 3480 50  0000 C CNN
F 2 "" H 7800 3300 50  0000 C CNN
F 3 "" H 7800 3300 50  0000 C CNN
	1    7800 3300
	1    0    0    -1  
$EndComp
Wire Wire Line
	8050 3400 7800 3400
Wire Wire Line
	7800 3400 7800 3300
Text Label 2700 7600 2    47   ~ 0
GND'
Text Label 3300 7600 2    47   ~ 0
+3V3'
Wire Wire Line
	2700 7600 2450 7600
Wire Wire Line
	2450 7600 2450 7500
Wire Wire Line
	3300 7600 3000 7600
Wire Wire Line
	3000 7600 3000 7500
$Comp
L R R113
U 1 1 589B3EC8
P 9800 3400
F 0 "R113" V 9880 3400 50  0000 C CNN
F 1 "1K" V 9807 3401 50  0000 C CNN
F 2 "Local:R_0603" V 9730 3400 30  0001 C CNN
F 3 "" H 9800 3400 30  0000 C CNN
	1    9800 3400
	0    -1   -1   0   
$EndComp
Text Label 10200 3400 2    47   ~ 0
GND''
Wire Wire Line
	10100 2900 10500 2900
Wire Wire Line
	10200 3400 9950 3400
Wire Wire Line
	9650 3400 9400 3400
Text Label 10500 2900 2    47   ~ 0
BOOT0'
Text Label 9400 3400 0    47   ~ 0
BOOT0'
Wire Wire Line
	1200 3200 1200 4200
Wire Wire Line
	1300 2900 1200 2900
Text GLabel 1200 2900 0    47   Input ~ 0
BOOT0
Text GLabel 700  3700 1    47   Input ~ 0
BOOT0
Wire Wire Line
	700  3700 700  3800
$Comp
L R R114
U 1 1 589C18F4
P 700 3950
F 0 "R114" V 780 3950 50  0000 C CNN
F 1 "10K" V 707 3951 50  0000 C CNN
F 2 "Local:R_0603" V 630 3950 30  0001 C CNN
F 3 "" H 700 3950 30  0000 C CNN
	1    700  3950
	-1   0    0    -1  
$EndComp
Wire Wire Line
	700  4100 700  4200
$Comp
L GND #PWR046
U 1 1 589C2369
P 700 4200
F 0 "#PWR046" H 700 3950 50  0001 C CNN
F 1 "GND" H 700 4050 50  0000 C CNN
F 2 "" H 700 4200 60  0000 C CNN
F 3 "" H 700 4200 60  0000 C CNN
	1    700  4200
	1    0    0    -1  
$EndComp
$Comp
L GND #PWR047
U 1 1 589C5EC9
P 7700 5500
F 0 "#PWR047" H 7700 5500 30  0001 C CNN
F 1 "GND" H 7700 5430 30  0001 C CNN
F 2 "" H 7700 5500 60  0001 C CNN
F 3 "" H 7700 5500 60  0001 C CNN
	1    7700 5500
	1    0    0    -1  
$EndComp
Wire Wire Line
	8900 5600 8800 5600
NoConn ~ 4600 2200
NoConn ~ 1200 1300
NoConn ~ 4600 900 
NoConn ~ 1200 2800
NoConn ~ 4600 1800
NoConn ~ 4600 1600
$EndSCHEMATC
