EESchema Schematic File Version 2
LIBS:power
LIBS:device
LIBS:transistors
LIBS:conn
LIBS:linear
LIBS:regul
LIBS:74xx
LIBS:cmos4000
LIBS:adc-dac
LIBS:memory
LIBS:xilinx
LIBS:microcontrollers
LIBS:dsp
LIBS:microchip
LIBS:analog_switches
LIBS:motorola
LIBS:texas
LIBS:intel
LIBS:audio
LIBS:interface
LIBS:digital-audio
LIBS:philips
LIBS:display
LIBS:cypress
LIBS:siliconi
LIBS:opto
LIBS:atmel
LIBS:contrib
LIBS:valves
LIBS:bridge
LIBS:addon
LIBS:stm32
LIBS:hall
LIBS:driver
LIBS:lph7366
LIBS:handler
LIBS:iface
LIBS:radio
LIBS:esdprot
LIBS:project-cache
EELAYER 25 0
EELAYER END
$Descr A4 11693 8268
encoding utf-8
Sheet 4 5
Title "3-Phase Inverter"
Date "2017-02-07"
Rev "Rev. 0.3"
Comp "Illumium.Org"
Comment1 ""
Comment2 ""
Comment3 ""
Comment4 ""
$EndDescr
$Comp
L CP C301
U 1 1 5774DAF5
P 9400 1850
F 0 "C301" H 9425 1950 50  0000 L CNN
F 1 "680u 450V" H 9200 1750 50  0000 L CNN
F 2 "Local:CP_Radial_D35.0mm_P10.00mm_SnapIn" H 9438 1700 50  0001 C CNN
F 3 "" H 9400 1850 50  0000 C CNN
	1    9400 1850
	1    0    0    -1  
$EndComp
$Comp
L CP C302
U 1 1 5774DAFC
P 9900 1850
F 0 "C302" H 9925 1950 50  0000 L CNN
F 1 "680u 450V" H 9700 1750 50  0000 L CNN
F 2 "Local:CP_Radial_D35.0mm_P10.00mm_SnapIn" H 9938 1700 50  0001 C CNN
F 3 "" H 9900 1850 50  0000 C CNN
	1    9900 1850
	1    0    0    -1  
$EndComp
$Comp
L CP C303
U 1 1 5774DB0A
P 10400 1850
F 0 "C303" H 10425 1950 50  0000 L CNN
F 1 "680u 450V" H 10200 1750 50  0000 L CNN
F 2 "Local:CP_Radial_D35.0mm_P10.00mm_SnapIn" H 10438 1700 50  0001 C CNN
F 3 "" H 10400 1850 50  0000 C CNN
	1    10400 1850
	1    0    0    -1  
$EndComp
$Comp
L VPP #PWR073
U 1 1 5774DB18
P 9400 1600
F 0 "#PWR073" H 9400 1450 50  0001 C CNN
F 1 "VPP" H 9400 1750 50  0000 C CNN
F 2 "" H 9400 1600 50  0000 C CNN
F 3 "" H 9400 1600 50  0000 C CNN
	1    9400 1600
	1    0    0    -1  
$EndComp
$Comp
L VPP #PWR074
U 1 1 5774DB1E
P 9900 1600
F 0 "#PWR074" H 9900 1450 50  0001 C CNN
F 1 "VPP" H 9900 1750 50  0000 C CNN
F 2 "" H 9900 1600 50  0000 C CNN
F 3 "" H 9900 1600 50  0000 C CNN
	1    9900 1600
	1    0    0    -1  
$EndComp
$Comp
L VPP #PWR075
U 1 1 5774DB2A
P 10400 1600
F 0 "#PWR075" H 10400 1450 50  0001 C CNN
F 1 "VPP" H 10400 1750 50  0000 C CNN
F 2 "" H 10400 1600 50  0000 C CNN
F 3 "" H 10400 1600 50  0000 C CNN
	1    10400 1600
	1    0    0    -1  
$EndComp
$Comp
L C C305
U 1 1 5774DB6C
P 10300 4100
F 0 "C305" H 10325 4200 50  0000 L CNN
F 1 "470n 450V" H 10100 4000 50  0000 L CNN
F 2 "Local:C_Rect_L18_W5_P15" H 10338 3950 50  0001 C CNN
F 3 "" H 10300 4100 50  0000 C CNN
	1    10300 4100
	1    0    0    -1  
$EndComp
$Comp
L VPP #PWR076
U 1 1 5774DB73
P 10300 3850
F 0 "#PWR076" H 10300 3700 50  0001 C CNN
F 1 "VPP" H 10300 4000 50  0000 C CNN
F 2 "" H 10300 3850 50  0000 C CNN
F 3 "" H 10300 3850 50  0000 C CNN
	1    10300 3850
	1    0    0    -1  
$EndComp
$Comp
L C C306
U 1 1 5774DB7F
P 10800 4100
F 0 "C306" H 10825 4200 50  0000 L CNN
F 1 "470n 450V" H 10600 4000 50  0000 L CNN
F 2 "Local:C_Rect_L18_W5_P15" H 10838 3950 50  0001 C CNN
F 3 "" H 10800 4100 50  0000 C CNN
	1    10800 4100
	1    0    0    -1  
$EndComp
$Comp
L VPP #PWR077
U 1 1 5774DB86
P 10800 3850
F 0 "#PWR077" H 10800 3700 50  0001 C CNN
F 1 "VPP" H 10800 4000 50  0000 C CNN
F 2 "" H 10800 3850 50  0000 C CNN
F 3 "" H 10800 3850 50  0000 C CNN
	1    10800 3850
	1    0    0    -1  
$EndComp
$Comp
L VPP #PWR078
U 1 1 5774E6A4
P 6400 2300
F 0 "#PWR078" H 6400 2150 50  0001 C CNN
F 1 "VPP" H 6400 2450 50  0000 C CNN
F 2 "" H 6400 2300 50  0000 C CNN
F 3 "" H 6400 2300 50  0000 C CNN
	1    6400 2300
	1    0    0    -1  
$EndComp
$Comp
L R R301
U 1 1 5774E6AA
P 7150 2800
F 0 "R301" V 7230 2800 50  0000 C CNN
F 1 "10R" V 7150 2800 50  0000 C CNN
F 2 "Local:R_1206" V 7080 2800 50  0001 C CNN
F 3 "" H 7150 2800 50  0000 C CNN
	1    7150 2800
	0    -1   -1   0   
$EndComp
$Comp
L C C307
U 1 1 5774E6BB
P 8050 2800
F 0 "C307" H 8075 2900 50  0000 L CNN
F 1 "470n 450V" H 7850 2700 50  0000 L CNN
F 2 "Local:C_Rect_L18_W5_P15" H 8088 2650 50  0001 C CNN
F 3 "" H 8050 2800 50  0000 C CNN
	1    8050 2800
	0    -1   -1   0   
$EndComp
$Comp
L C C308
U 1 1 5774E6C3
P 8050 2300
F 0 "C308" H 8075 2400 50  0000 L CNN
F 1 "470n 450V" H 7850 2200 50  0000 L CNN
F 2 "Local:C_Rect_L18_W5_P15" H 8088 2150 50  0001 C CNN
F 3 "" H 8050 2300 50  0000 C CNN
	1    8050 2300
	0    -1   -1   0   
$EndComp
$Comp
L CONN_01X01 P301
U 1 1 5774E6CF
P 5700 4500
F 0 "P301" H 5700 4600 50  0000 C CNN
F 1 "PWR_GND" H 5700 4400 50  0000 C CNN
F 2 "Local:PIN_X1" H 5700 4500 50  0001 C CNN
F 3 "" H 5700 4500 50  0000 C CNN
	1    5700 4500
	1    0    0    -1  
$EndComp
Text GLabel 6300 4100 0    47   Input ~ 0
PWR_ON
$Comp
L GNDPWR #PWR079
U 1 1 577E554E
P 5400 4600
F 0 "#PWR079" H 5400 4400 50  0001 C CNN
F 1 "GNDPWR" H 5400 4470 50  0000 C CNN
F 2 "" H 5400 4550 50  0000 C CNN
F 3 "" H 5400 4550 50  0000 C CNN
	1    5400 4600
	1    0    0    -1  
$EndComp
$Comp
L CP C309
U 1 1 57F8AB5C
P 7400 1450
F 0 "C309" H 7425 1550 50  0000 L CNN
F 1 "47u 400V" H 7250 1350 50  0000 L CNN
F 2 "Local:CP_Radial_D16.0mm_P7.50mm" H 7438 1300 50  0001 C CNN
F 3 "" H 7400 1450 50  0000 C CNN
	1    7400 1450
	1    0    0    -1  
$EndComp
$Comp
L DB D302
U 1 1 57F8AB63
P 6400 1300
F 0 "D302" H 6400 1200 50  0000 C CNN
F 1 "DB107S" H 6400 1300 50  0000 C CNN
F 2 "Local:DB4S" H 6400 1300 50  0001 C CNN
F 3 "" H 6400 1300 50  0000 C CNN
	1    6400 1300
	1    0    0    1   
$EndComp
$Comp
L THERMISTOR TH301
U 1 1 57F8AB81
P 6050 800
F 0 "TH301" V 6150 850 50  0000 C CNN
F 1 "10R" V 5950 800 50  0000 C BNN
F 2 "Local:NTC_11x5.5_f7.5" H 6050 800 50  0001 C CNN
F 3 "" H 6050 800 50  0000 C CNN
	1    6050 800 
	0    -1   -1   0   
$EndComp
Text GLabel 5100 800  0    60   Input ~ 0
AC_PHASE
Text GLabel 6300 1800 0    60   Input ~ 0
AC_GROUND
$Comp
L FUSE F302
U 1 1 57F8B18D
P 5450 800
F 0 "F302" H 5550 850 50  0000 C CNN
F 1 "1A" H 5350 750 50  0000 C CNN
F 2 "Local:FUSE_1A5" H 5450 800 50  0001 C CNN
F 3 "" H 5450 800 50  0000 C CNN
	1    5450 800 
	1    0    0    -1  
$EndComp
Text GLabel 5400 4100 0    60   Input ~ 0
AC_GROUND
$Comp
L GNDPWR #PWR080
U 1 1 57F94802
P 9400 2100
F 0 "#PWR080" H 9400 1900 50  0001 C CNN
F 1 "GNDPWR" H 9400 1970 50  0000 C CNN
F 2 "" H 9400 2050 50  0000 C CNN
F 3 "" H 9400 2050 50  0000 C CNN
	1    9400 2100
	1    0    0    -1  
$EndComp
$Comp
L GNDPWR #PWR081
U 1 1 57F948B5
P 9900 2100
F 0 "#PWR081" H 9900 1900 50  0001 C CNN
F 1 "GNDPWR" H 9900 1970 50  0000 C CNN
F 2 "" H 9900 2050 50  0000 C CNN
F 3 "" H 9900 2050 50  0000 C CNN
	1    9900 2100
	1    0    0    -1  
$EndComp
$Comp
L GNDPWR #PWR082
U 1 1 57F9495B
P 10400 2100
F 0 "#PWR082" H 10400 1900 50  0001 C CNN
F 1 "GNDPWR" H 10400 1970 50  0000 C CNN
F 2 "" H 10400 2050 50  0000 C CNN
F 3 "" H 10400 2050 50  0000 C CNN
	1    10400 2100
	1    0    0    -1  
$EndComp
$Comp
L GNDPWR #PWR083
U 1 1 57F949AE
P 10300 4350
F 0 "#PWR083" H 10300 4150 50  0001 C CNN
F 1 "GNDPWR" H 10300 4220 50  0000 C CNN
F 2 "" H 10300 4300 50  0000 C CNN
F 3 "" H 10300 4300 50  0000 C CNN
	1    10300 4350
	1    0    0    -1  
$EndComp
$Comp
L GNDPWR #PWR084
U 1 1 57F94A61
P 10800 4350
F 0 "#PWR084" H 10800 4150 50  0001 C CNN
F 1 "GNDPWR" H 10800 4220 50  0000 C CNN
F 2 "" H 10800 4300 50  0000 C CNN
F 3 "" H 10800 4300 50  0000 C CNN
	1    10800 4350
	1    0    0    -1  
$EndComp
$Comp
L Earth #PWR085
U 1 1 57F956BD
P 7400 1700
F 0 "#PWR085" H 7400 1450 50  0001 C CNN
F 1 "Earth" H 7400 1550 50  0001 C CNN
F 2 "" H 7400 1700 50  0000 C CNN
F 3 "" H 7400 1700 50  0000 C CNN
	1    7400 1700
	1    0    0    -1  
$EndComp
$Comp
L Earth #PWR086
U 1 1 57F95717
P 5900 1400
F 0 "#PWR086" H 5900 1150 50  0001 C CNN
F 1 "Earth" H 5900 1250 50  0001 C CNN
F 2 "" H 5900 1400 50  0000 C CNN
F 3 "" H 5900 1400 50  0000 C CNN
	1    5900 1400
	1    0    0    -1  
$EndComp
$Comp
L GNDPWR #PWR087
U 1 1 57FA70AA
P 6400 3300
F 0 "#PWR087" H 6400 3100 50  0001 C CNN
F 1 "GNDPWR" H 6400 3170 50  0000 C CNN
F 2 "" H 6400 3250 50  0000 C CNN
F 3 "" H 6400 3250 50  0000 C CNN
	1    6400 3300
	1    0    0    -1  
$EndComp
$Comp
L CONN_01X01 P302
U 1 1 57FAA21C
P 5700 4100
F 0 "P302" H 5700 4200 50  0000 C CNN
F 1 "AC_GROUND" H 5700 4000 50  0000 C CNN
F 2 "Local:PIN_X1" H 5700 4100 50  0001 C CNN
F 3 "" H 5700 4100 50  0000 C CNN
	1    5700 4100
	1    0    0    -1  
$EndComp
$Comp
L CONN_01X01 P303
U 1 1 57FAA338
P 5700 3700
F 0 "P303" H 5700 3800 50  0000 C CNN
F 1 "AC_PHASE" H 5700 3600 50  0000 C CNN
F 2 "Local:PIN_X1" H 5700 3700 50  0001 C CNN
F 3 "" H 5700 3700 50  0000 C CNN
	1    5700 3700
	1    0    0    -1  
$EndComp
Text GLabel 5900 2800 0    60   Input ~ 0
AC_GROUND
Text GLabel 5400 3700 0    60   Input ~ 0
AC_PHASE
Text GLabel 8400 2800 2    60   Input ~ 0
AC_PHASE
$Comp
L Relay S301
U 1 1 5831FA31
P 7550 3300
F 0 "S301" H 7550 3550 60  0000 C CNN
F 1 "SLA-12VDC-SL-A" H 7550 3100 60  0000 C CNN
F 2 "Local:SLA-12VDC-SL-A" H 7550 3400 60  0001 C CNN
F 3 "" H 7550 3400 60  0000 C CNN
	1    7550 3300
	1    0    0    -1  
$EndComp
Text Notes 7550 4400 0    60   ~ 0
SLA-12VDC-SL-A\nR = 166 Ohm\nL = 306 mH
$Comp
L +12V #PWR088
U 1 1 585E3E6A
P 8200 3400
F 0 "#PWR088" H 8200 3250 50  0001 C CNN
F 1 "+12V" V 8200 3600 50  0000 C CNN
F 2 "" H 8200 3400 50  0000 C CNN
F 3 "" H 8200 3400 50  0000 C CNN
	1    8200 3400
	0    1    1    0   
$EndComp
$Comp
L Q_NPN_BEC Q301
U 1 1 585E4401
P 7000 4100
F 0 "Q301" H 7200 4150 50  0000 L CNN
F 1 "S9013" H 7200 4050 50  0000 L CNN
F 2 "Local:SOT-23" H 7200 4200 50  0001 C CNN
F 3 "" H 7000 4100 50  0000 C CNN
	1    7000 4100
	1    0    0    -1  
$EndComp
$Comp
L GND #PWR089
U 1 1 585E4555
P 7100 4400
F 0 "#PWR089" H 7100 4150 50  0001 C CNN
F 1 "GND" H 7100 4250 50  0000 C CNN
F 2 "" H 7100 4400 50  0000 C CNN
F 3 "" H 7100 4400 50  0000 C CNN
	1    7100 4400
	1    0    0    -1  
$EndComp
$Comp
L R R311
U 1 1 585E47AB
P 6550 4100
F 0 "R311" V 6630 4100 50  0000 C CNN
F 1 "1K" V 6550 4100 50  0000 C CNN
F 2 "Local:R_0603" V 6480 4100 50  0001 C CNN
F 3 "" H 6550 4100 50  0000 C CNN
	1    6550 4100
	0    -1   -1   0   
$EndComp
$Comp
L D_Bridge D301
U 1 1 5774E695
P 6400 2800
F 0 "D301" V 6500 2800 50  0000 C CNN
F 1 "GBJ2510" V 6400 2800 50  0000 C CNN
F 2 "Local:D_Bridge_Horizontal" H 6400 2800 50  0001 C CNN
F 3 "" H 6400 2800 50  0000 C CNN
	1    6400 2800
	0    1    -1   0   
$EndComp
Text Notes 2350 800  0    60   ~ 0
VOLTAGE SENSE
Text GLabel 4200 1300 1    47   Input ~ 0
HV+3V3
$Comp
L C C341
U 1 1 585FD0CE
P 4200 1650
F 0 "C341" H 4225 1750 50  0000 L CNN
F 1 "100n" H 4225 1550 50  0000 L CNN
F 2 "Local:C_0603" H 4238 1500 50  0001 C CNN
F 3 "" H 4200 1650 50  0000 C CNN
	1    4200 1650
	-1   0    0    -1  
$EndComp
$Comp
L GNDPWR #PWR090
U 1 1 585FD0D7
P 4200 2000
F 0 "#PWR090" H 4200 1800 50  0001 C CNN
F 1 "GNDPWR" H 4200 1870 50  0000 C CNN
F 2 "" H 4200 1950 50  0000 C CNN
F 3 "" H 4200 1950 50  0000 C CNN
	1    4200 2000
	1    0    0    -1  
$EndComp
$Comp
L ATTINY13-S U301
U 1 1 585FD0DD
P 2700 1650
F 0 "U301" H 2700 2050 50  0000 C CNN
F 1 "ATTINY13A" H 3350 1250 50  0000 C CNN
F 2 "Local:SOIC-8_3.9x4.9mm_Pitch1.27mm" H 3350 1650 50  0001 C CIN
F 3 "" H 1900 2000 50  0000 C CNN
	1    2700 1650
	1    0    0    -1  
$EndComp
$Comp
L R R342
U 1 1 585FD0E6
P 800 2450
F 0 "R342" V 880 2450 50  0000 C CNN
F 1 "150K" V 800 2450 50  0000 C CNN
F 2 "Local:R_1206" V 730 2450 50  0001 C CNN
F 3 "" H 800 2450 50  0000 C CNN
	1    800  2450
	-1   0    0    -1  
$EndComp
$Comp
L R R341
U 1 1 585FD0ED
P 800 2050
F 0 "R341" V 880 2050 50  0000 C CNN
F 1 "220K" V 800 2050 50  0000 C CNN
F 2 "Local:R_1206" V 730 2050 50  0001 C CNN
F 3 "" H 800 2050 50  0000 C CNN
	1    800  2050
	-1   0    0    -1  
$EndComp
Text Label 1300 1600 0    47   ~ 0
U_SIG
$Comp
L R R343
U 1 1 585FD0FB
P 800 2950
F 0 "R343" V 880 2950 50  0000 C CNN
F 1 "1K" V 800 2950 50  0000 C CNN
F 2 "Local:R_0603" V 730 2950 50  0001 C CNN
F 3 "" H 800 2950 50  0000 C CNN
	1    800  2950
	-1   0    0    -1  
$EndComp
$Comp
L GNDPWR #PWR091
U 1 1 585FD102
P 800 3200
F 0 "#PWR091" H 800 3000 50  0001 C CNN
F 1 "GNDPWR" H 800 3070 50  0000 C CNN
F 2 "" H 800 3150 50  0000 C CNN
F 3 "" H 800 3150 50  0000 C CNN
	1    800  3200
	1    0    0    -1  
$EndComp
$Comp
L VPP #PWR092
U 1 1 585FD109
P 800 1800
F 0 "#PWR092" H 800 1650 50  0001 C CNN
F 1 "VPP" H 800 1950 50  0000 C CNN
F 2 "" H 800 1800 50  0000 C CNN
F 3 "" H 800 1800 50  0000 C CNN
	1    800  1800
	1    0    0    -1  
$EndComp
Text Label 1050 2700 2    47   ~ 0
U_SIG
$Comp
L GNDPWR #PWR093
U 1 1 585FD112
P 3800 2000
F 0 "#PWR093" H 3800 1800 50  0001 C CNN
F 1 "GNDPWR" H 3800 1870 50  0000 C CNN
F 2 "" H 3800 1950 50  0000 C CNN
F 3 "" H 3800 1950 50  0000 C CNN
	1    3800 2000
	1    0    0    -1  
$EndComp
Text GLabel 3800 1300 1    47   Input ~ 0
HV+3V3
Text Label 1300 1800 0    47   ~ 0
UART_TX
$Comp
L PC817 U302
U 1 1 585FD124
P 2500 3000
F 0 "U302" H 2500 3200 50  0000 C CNN
F 1 "PC817C" H 2500 2800 50  0000 C CNN
F 2 "Local:SOP-4_W7.62mm" H 2300 2800 50  0001 L CIN
F 3 "" H 2500 3000 50  0000 L CNN
	1    2500 3000
	1    0    0    -1  
$EndComp
$Comp
L R R344
U 1 1 585FD135
P 2100 2650
F 0 "R344" V 2180 2650 50  0000 C CNN
F 1 "220" V 2100 2650 50  0000 C CNN
F 2 "Local:R_0603" V 2030 2650 50  0001 C CNN
F 3 "" H 2100 2650 50  0000 C CNN
	1    2100 2650
	-1   0    0    -1  
$EndComp
Text Label 2500 3400 2    47   ~ 0
UART_TX
$Comp
L GND #PWR094
U 1 1 585FD141
P 2900 3200
F 0 "#PWR094" H 2900 2950 50  0001 C CNN
F 1 "GND" H 2900 3050 50  0000 C CNN
F 2 "" H 2900 3200 50  0000 C CNN
F 3 "" H 2900 3200 50  0000 C CNN
	1    2900 3200
	1    0    0    -1  
$EndComp
Text GLabel 3000 2900 2    47   Input ~ 0
MON_TX
$Comp
L R R345
U 1 1 585FD14A
P 2900 2650
F 0 "R345" V 2980 2650 50  0000 C CNN
F 1 "1K5" V 2900 2650 50  0000 C CNN
F 2 "Local:R_0603" V 2830 2650 50  0001 C CNN
F 3 "" H 2900 2650 50  0000 C CNN
	1    2900 2650
	-1   0    0    -1  
$EndComp
$Comp
L +3V3 #PWR095
U 1 1 585FD154
P 2900 2400
F 0 "#PWR095" H 2900 2250 50  0001 C CNN
F 1 "+3V3" H 2900 2540 50  0000 C CNN
F 2 "" H 2900 2400 50  0000 C CNN
F 3 "" H 2900 2400 50  0000 C CNN
	1    2900 2400
	1    0    0    -1  
$EndComp
Text Notes 2200 1000 0    60   ~ 0
U[S(MAX)]: 408 V
$Comp
L HEATSINK HS301
U 1 1 58626924
P 6950 2400
F 0 "HS301" H 6950 2600 50  0000 C CNN
F 1 "HS_68W" H 6950 2350 50  0000 C CNN
F 2 "Local:HS_CPU_68W" H 6950 2400 50  0001 C CNN
F 3 "" H 6950 2400 50  0000 C CNN
	1    6950 2400
	1    0    0    -1  
$EndComp
$Comp
L CONN_01X03 P311
U 1 1 58626F59
P 9000 5300
F 0 "P311" H 9000 5500 50  0000 C CNN
F 1 "FAN" V 9100 5300 50  0000 C CNN
F 2 "Local:Molex_KK-6410-03_03x2.54mm_Straight" H 9000 5300 50  0001 C CNN
F 3 "" H 9000 5300 50  0000 C CNN
	1    9000 5300
	1    0    0    1   
$EndComp
$Comp
L GND #PWR096
U 1 1 586272FD
P 8700 6000
F 0 "#PWR096" H 8700 5750 50  0001 C CNN
F 1 "GND" H 8700 5850 50  0000 C CNN
F 2 "" H 8700 6000 50  0000 C CNN
F 3 "" H 8700 6000 50  0000 C CNN
	1    8700 6000
	1    0    0    -1  
$EndComp
$Comp
L +12V #PWR097
U 1 1 58627373
P 8700 5200
F 0 "#PWR097" H 8700 5050 50  0001 C CNN
F 1 "+12V" H 8700 5340 50  0000 C CNN
F 2 "" H 8700 5200 50  0000 C CNN
F 3 "" H 8700 5200 50  0000 C CNN
	1    8700 5200
	1    0    0    -1  
$EndComp
$Comp
L Q_NPN_BEC Q302
U 1 1 58627D8A
P 8600 5700
F 0 "Q302" H 8800 5750 50  0000 L CNN
F 1 "S9013" H 8800 5650 50  0000 L CNN
F 2 "Local:SOT-23" H 8800 5800 50  0001 C CNN
F 3 "" H 8600 5700 50  0000 C CNN
	1    8600 5700
	1    0    0    -1  
$EndComp
$Comp
L R R312
U 1 1 58628477
P 8150 5700
F 0 "R312" V 8230 5700 50  0000 C CNN
F 1 "1K" V 8150 5700 50  0000 C CNN
F 2 "Local:R_0603" V 8080 5700 50  0001 C CNN
F 3 "" H 8150 5700 50  0000 C CNN
	1    8150 5700
	0    1    -1   0   
$EndComp
Text GLabel 7900 5700 0    47   Input ~ 0
BOX_FAN
$Comp
L CONN_01X03 P312
U 1 1 585F1AA5
P 10800 5300
F 0 "P312" H 10800 5500 50  0000 C CNN
F 1 "FAN" V 10900 5300 50  0000 C CNN
F 2 "Local:Molex_KK-6410-03_03x2.54mm_Straight" H 10800 5300 50  0001 C CNN
F 3 "" H 10800 5300 50  0000 C CNN
	1    10800 5300
	1    0    0    1   
$EndComp
$Comp
L GND #PWR098
U 1 1 585F1AAF
P 10500 6000
F 0 "#PWR098" H 10500 5750 50  0001 C CNN
F 1 "GND" H 10500 5850 50  0000 C CNN
F 2 "" H 10500 6000 50  0000 C CNN
F 3 "" H 10500 6000 50  0000 C CNN
	1    10500 6000
	1    0    0    -1  
$EndComp
$Comp
L +12V #PWR099
U 1 1 585F1AB5
P 10500 5200
F 0 "#PWR099" H 10500 5050 50  0001 C CNN
F 1 "+12V" H 10500 5340 50  0000 C CNN
F 2 "" H 10500 5200 50  0000 C CNN
F 3 "" H 10500 5200 50  0000 C CNN
	1    10500 5200
	1    0    0    -1  
$EndComp
$Comp
L Q_NPN_BEC Q303
U 1 1 585F1ABD
P 10400 5700
F 0 "Q303" H 10600 5750 50  0000 L CNN
F 1 "S9013" H 10600 5650 50  0000 L CNN
F 2 "Local:SOT-23" H 10600 5800 50  0001 C CNN
F 3 "" H 10400 5700 50  0000 C CNN
	1    10400 5700
	1    0    0    -1  
$EndComp
$Comp
L R R313
U 1 1 585F1AC4
P 9950 5700
F 0 "R313" V 10030 5700 50  0000 C CNN
F 1 "1K" V 9950 5700 50  0000 C CNN
F 2 "Local:R_0603" V 9880 5700 50  0001 C CNN
F 3 "" H 9950 5700 50  0000 C CNN
	1    9950 5700
	0    1    -1   0   
$EndComp
Text GLabel 9700 5700 0    47   Input ~ 0
DRV_FAN
Text Notes 9100 4950 0    60   ~ 0
FANs:\n12V, 170mA\n12V, 230mA\n\nRELAY:\n12V, 77mA
$Comp
L R R324
U 1 1 5861B3B0
P 1750 4000
F 0 "R324" V 1830 4000 50  0000 C CNN
F 1 "R01" V 1750 4000 50  0000 C CNN
F 2 "Local:R_2512" V 1680 4000 50  0001 C CNN
F 3 "" H 1750 4000 50  0000 C CNN
	1    1750 4000
	0    1    -1   0   
$EndComp
$Comp
L LM358N U305
U 2 1 5861B76B
P 2500 7100
F 0 "U305" H 2450 7300 50  0000 L CNN
F 1 "LM258" H 2450 6850 50  0000 L CNN
F 2 "Local:SOIC-8_3.9x4.9mm_Pitch1.27mm" H 2500 7100 50  0001 C CNN
F 3 "" H 2500 7100 50  0000 C CNN
	2    2500 7100
	1    0    0    -1  
$EndComp
$Comp
L R R325
U 1 1 5861BACE
P 1750 4200
F 0 "R325" V 1830 4200 50  0000 C CNN
F 1 "R01" V 1750 4200 50  0000 C CNN
F 2 "Local:R_2512" V 1680 4200 50  0001 C CNN
F 3 "" H 1750 4200 50  0000 C CNN
	1    1750 4200
	0    1    -1   0   
$EndComp
$Comp
L R R326
U 1 1 5861BB92
P 1750 4400
F 0 "R326" V 1830 4400 50  0000 C CNN
F 1 "R01" V 1750 4400 50  0000 C CNN
F 2 "Local:R_2512" V 1680 4400 50  0001 C CNN
F 3 "" H 1750 4400 50  0000 C CNN
	1    1750 4400
	0    1    -1   0   
$EndComp
$Comp
L R R327
U 1 1 5861C5AB
P 2250 4000
F 0 "R327" V 2330 4000 50  0000 C CNN
F 1 "R01" V 2250 4000 50  0000 C CNN
F 2 "Local:R_2512" V 2180 4000 50  0001 C CNN
F 3 "" H 2250 4000 50  0000 C CNN
	1    2250 4000
	0    1    -1   0   
$EndComp
$Comp
L R R328
U 1 1 5861C5B1
P 2250 4200
F 0 "R328" V 2330 4200 50  0000 C CNN
F 1 "R01" V 2250 4200 50  0000 C CNN
F 2 "Local:R_2512" V 2180 4200 50  0001 C CNN
F 3 "" H 2250 4200 50  0000 C CNN
	1    2250 4200
	0    1    -1   0   
$EndComp
$Comp
L R R329
U 1 1 5861C5B7
P 2250 4400
F 0 "R329" V 2330 4400 50  0000 C CNN
F 1 "R01" V 2250 4400 50  0000 C CNN
F 2 "Local:R_2512" V 2180 4400 50  0001 C CNN
F 3 "" H 2250 4400 50  0000 C CNN
	1    2250 4400
	0    1    -1   0   
$EndComp
Text Notes 1350 3850 0    60   ~ 0
Protection Shunt
Text Label 1300 1500 0    47   ~ 0
U_MOD
Text Label 1300 1400 0    47   ~ 0
I_MOD
Text Label 1300 1700 0    47   ~ 0
UART_RX
Text Label 1300 1900 0    47   ~ 0
I_SIG
$Comp
L GNDPWR #PWR0100
U 1 1 58621DF3
P 1000 4500
F 0 "#PWR0100" H 1000 4300 50  0001 C CNN
F 1 "GNDPWR" H 1000 4370 50  0000 C CNN
F 2 "" H 1000 4450 50  0000 C CNN
F 3 "" H 1000 4450 50  0000 C CNN
	1    1000 4500
	1    0    0    -1  
$EndComp
Text GLabel 2600 4200 2    47   Input ~ 0
DRV_GND
$Comp
L R R321
U 1 1 5862566A
P 1250 4000
F 0 "R321" V 1330 4000 50  0000 C CNN
F 1 "R01" V 1250 4000 50  0000 C CNN
F 2 "Local:R_2512" V 1180 4000 50  0001 C CNN
F 3 "" H 1250 4000 50  0000 C CNN
	1    1250 4000
	0    1    -1   0   
$EndComp
$Comp
L R R322
U 1 1 58625670
P 1250 4200
F 0 "R322" V 1330 4200 50  0000 C CNN
F 1 "R01" V 1250 4200 50  0000 C CNN
F 2 "Local:R_2512" V 1180 4200 50  0001 C CNN
F 3 "" H 1250 4200 50  0000 C CNN
	1    1250 4200
	0    1    -1   0   
$EndComp
$Comp
L R R323
U 1 1 58625676
P 1250 4400
F 0 "R323" V 1330 4400 50  0000 C CNN
F 1 "R01" V 1250 4400 50  0000 C CNN
F 2 "Local:R_2512" V 1180 4400 50  0001 C CNN
F 3 "" H 1250 4400 50  0000 C CNN
	1    1250 4400
	0    1    -1   0   
$EndComp
$Comp
L LM358N U305
U 1 1 586260C0
P 2500 5600
F 0 "U305" H 2450 5800 50  0000 L CNN
F 1 "LM258" H 2450 5350 50  0000 L CNN
F 2 "Local:SOIC-8_3.9x4.9mm_Pitch1.27mm" H 2500 5600 50  0001 C CNN
F 3 "" H 2500 5600 50  0000 C CNN
	1    2500 5600
	1    0    0    -1  
$EndComp
Text Label 3100 4000 2    47   ~ 0
I_SIG
$Comp
L ZENER D342
U 1 1 58628961
P 4000 4500
F 0 "D342" H 4000 4600 50  0000 C CNN
F 1 "1V5-3V3" H 4000 4400 50  0000 C CNN
F 2 "Local:MiniMELF_Standard" H 4000 4500 50  0001 C CNN
F 3 "" H 4000 4500 50  0000 C CNN
	1    4000 4500
	0    -1   1    0   
$EndComp
$Comp
L GNDPWR #PWR0101
U 1 1 58630514
P 2400 6000
F 0 "#PWR0101" H 2400 5800 50  0001 C CNN
F 1 "GNDPWR" H 2400 5870 50  0000 C CNN
F 2 "" H 2400 5950 50  0000 C CNN
F 3 "" H 2400 5950 50  0000 C CNN
	1    2400 6000
	1    0    0    -1  
$EndComp
$Comp
L GNDPWR #PWR0102
U 1 1 586308A4
P 2400 7500
F 0 "#PWR0102" H 2400 7300 50  0001 C CNN
F 1 "GNDPWR" H 2400 7370 50  0000 C CNN
F 2 "" H 2400 7450 50  0000 C CNN
F 3 "" H 2400 7450 50  0000 C CNN
	1    2400 7500
	1    0    0    -1  
$EndComp
$Comp
L D D343
U 1 1 5863151A
P 3050 5600
F 0 "D343" H 3050 5700 50  0000 C CNN
F 1 "1N4148" H 3050 5500 50  0000 C CNN
F 2 "Local:MiniMELF_Standard" H 3050 5600 50  0001 C CNN
F 3 "" H 3050 5600 50  0000 C CNN
	1    3050 5600
	1    0    0    -1  
$EndComp
$Comp
L D D344
U 1 1 5863161D
P 3050 7100
F 0 "D344" H 3050 7200 50  0000 C CNN
F 1 "1N4148" H 3050 7000 50  0000 C CNN
F 2 "Local:MiniMELF_Standard" H 3050 7100 50  0001 C CNN
F 3 "" H 3050 7100 50  0000 C CNN
	1    3050 7100
	1    0    0    -1  
$EndComp
Text Label 3500 6600 0    47   ~ 0
ALERT
Text Label 3400 5600 2    47   ~ 0
ALERT
Text Label 3400 7100 2    47   ~ 0
ALERT
Text Label 800  5500 0    47   ~ 0
I_MOD
$Comp
L R R351
U 1 1 58633E15
P 3700 6150
F 0 "R351" V 3780 6150 50  0000 C CNN
F 1 "220" V 3700 6150 50  0000 C CNN
F 2 "Local:R_0603" V 3630 6150 50  0001 C CNN
F 3 "" H 3700 6150 50  0000 C CNN
	1    3700 6150
	-1   0    0    -1  
$EndComp
Text Label 2000 5700 0    47   ~ 0
I_SIG
Text Label 2000 7200 0    47   ~ 0
U_SIG
$Comp
L C C344
U 1 1 58638322
P 1800 5750
F 0 "C344" H 1850 5850 50  0000 L CNN
F 1 "680n" H 1850 5650 50  0000 L CNN
F 2 "Local:C_0603" H 1838 5600 50  0001 C CNN
F 3 "" H 1800 5750 50  0000 C CNN
	1    1800 5750
	-1   0    0    -1  
$EndComp
$Comp
L R R349
U 1 1 58638E4F
P 1150 5500
F 0 "R349" V 1230 5500 50  0000 C CNN
F 1 "680" V 1150 5500 50  0000 C CNN
F 2 "Local:R_0603" V 1080 5500 50  0001 C CNN
F 3 "" H 1150 5500 50  0000 C CNN
	1    1150 5500
	0    1    -1   0   
$EndComp
$Comp
L GNDPWR #PWR0103
U 1 1 58639BB4
P 1800 6000
F 0 "#PWR0103" H 1800 5800 50  0001 C CNN
F 1 "GNDPWR" H 1800 5870 50  0000 C CNN
F 2 "" H 1800 5950 50  0000 C CNN
F 3 "" H 1800 5950 50  0000 C CNN
	1    1800 6000
	1    0    0    -1  
$EndComp
$Comp
L R R350
U 1 1 5863A0E7
P 1150 7000
F 0 "R350" V 1230 7000 50  0000 C CNN
F 1 "680" V 1150 7000 50  0000 C CNN
F 2 "Local:R_0603" V 1080 7000 50  0001 C CNN
F 3 "" H 1150 7000 50  0000 C CNN
	1    1150 7000
	0    1    -1   0   
$EndComp
$Comp
L C C345
U 1 1 5863A262
P 1800 7250
F 0 "C345" H 1825 7350 50  0000 L CNN
F 1 "680n" H 1850 7150 50  0000 L CNN
F 2 "Local:C_0603" H 1838 7100 50  0001 C CNN
F 3 "" H 1800 7250 50  0000 C CNN
	1    1800 7250
	-1   0    0    -1  
$EndComp
$Comp
L GNDPWR #PWR0104
U 1 1 5863A269
P 1800 7500
F 0 "#PWR0104" H 1800 7300 50  0001 C CNN
F 1 "GNDPWR" H 1800 7370 50  0000 C CNN
F 2 "" H 1800 7450 50  0000 C CNN
F 3 "" H 1800 7450 50  0000 C CNN
	1    1800 7500
	1    0    0    -1  
$EndComp
Text Label 800  7000 0    47   ~ 0
U_MOD
$Comp
L GNDPWR #PWR0105
U 1 1 5863C575
P 4000 4800
F 0 "#PWR0105" H 4000 4600 50  0001 C CNN
F 1 "GNDPWR" H 4000 4670 50  0000 C CNN
F 2 "" H 4000 4750 50  0000 C CNN
F 3 "" H 4000 4750 50  0000 C CNN
	1    4000 4800
	1    0    0    -1  
$EndComp
$Comp
L ZENER D341
U 1 1 5863C770
P 1600 2900
F 0 "D341" H 1600 3000 50  0000 C CNN
F 1 "1V5-3V3" H 1600 2800 50  0000 C CNN
F 2 "Local:MiniMELF_Standard" H 1600 2900 50  0001 C CNN
F 3 "" H 1600 2900 50  0000 C CNN
	1    1600 2900
	0    -1   1    0   
$EndComp
$Comp
L GNDPWR #PWR0106
U 1 1 5863CC2B
P 1600 3200
F 0 "#PWR0106" H 1600 3000 50  0001 C CNN
F 1 "GNDPWR" H 1600 3070 50  0000 C CNN
F 2 "" H 1600 3150 50  0000 C CNN
F 3 "" H 1600 3150 50  0000 C CNN
	1    1600 3200
	1    0    0    -1  
$EndComp
Text Label 4000 4100 3    47   ~ 0
I_SIG
Text Label 1600 2500 3    47   ~ 0
U_SIG
$Comp
L PC817 U303
U 1 1 5863F797
P 4100 3000
F 0 "U303" H 4100 3200 50  0000 C CNN
F 1 "PC817C" H 4100 2800 50  0000 C CNN
F 2 "Local:SOP-4_W7.62mm" H 3900 2800 50  0001 L CIN
F 3 "" H 4100 3000 50  0000 L CNN
	1    4100 3000
	1    0    0    -1  
$EndComp
$Comp
L R R346
U 1 1 5863F7A7
P 3700 2650
F 0 "R346" V 3780 2650 50  0000 C CNN
F 1 "220" V 3700 2650 50  0000 C CNN
F 2 "Local:R_0603" V 3630 2650 50  0001 C CNN
F 3 "" H 3700 2650 50  0000 C CNN
	1    3700 2650
	-1   0    0    -1  
$EndComp
Text Label 4900 2900 2    47   ~ 0
UART_RX
Text GLabel 3800 3400 2    47   Input ~ 0
MON_RX
$Comp
L R R347
U 1 1 5863F7BA
P 4500 2650
F 0 "R347" V 4580 2650 50  0000 C CNN
F 1 "1K5" V 4500 2650 50  0000 C CNN
F 2 "Local:R_0603" V 4430 2650 50  0001 C CNN
F 3 "" H 4500 2650 50  0000 C CNN
	1    4500 2650
	-1   0    0    -1  
$EndComp
$Comp
L GNDPWR #PWR0107
U 1 1 5863F9D9
P 4500 3200
F 0 "#PWR0107" H 4500 3000 50  0001 C CNN
F 1 "GNDPWR" H 4500 3070 50  0000 C CNN
F 2 "" H 4500 3150 50  0000 C CNN
F 3 "" H 4500 3150 50  0000 C CNN
	1    4500 3200
	1    0    0    -1  
$EndComp
$Comp
L PC817 U304
U 1 1 5862452F
P 4100 6500
F 0 "U304" H 4100 6700 50  0000 C CNN
F 1 "PC817C" H 4100 6300 50  0000 C CNN
F 2 "Local:SOP-4_W7.62mm" H 3900 6300 50  0001 L CIN
F 3 "" H 4100 6500 50  0000 L CNN
	1    4100 6500
	1    0    0    -1  
$EndComp
Text GLabel 2200 2400 2    47   Input ~ 0
HV+3V3
$Comp
L +3V3 #PWR0108
U 1 1 58625BBD
P 3700 2400
F 0 "#PWR0108" H 3700 2250 50  0001 C CNN
F 1 "+3V3" H 3700 2540 50  0000 C CNN
F 2 "" H 3700 2400 50  0000 C CNN
F 3 "" H 3700 2400 50  0000 C CNN
	1    3700 2400
	1    0    0    -1  
$EndComp
Text GLabel 4400 2400 0    47   Input ~ 0
HV+3V3
Text GLabel 3700 5900 1    47   Input ~ 0
HV+3V3
Text GLabel 2400 5200 1    47   Input ~ 0
HV+3V3
Text GLabel 2400 6700 1    47   Input ~ 0
HV+3V3
$Comp
L R R352
U 1 1 588F7454
P 4500 6150
F 0 "R352" V 4580 6150 50  0000 C CNN
F 1 "1K5" V 4500 6150 50  0000 C CNN
F 2 "Local:R_0603" V 4430 6150 50  0001 C CNN
F 3 "" H 4500 6150 50  0000 C CNN
	1    4500 6150
	-1   0    0    -1  
$EndComp
$Comp
L +3V3 #PWR0109
U 1 1 588F7A2A
P 4500 5900
F 0 "#PWR0109" H 4500 5750 50  0001 C CNN
F 1 "+3V3" H 4500 6040 50  0000 C CNN
F 2 "" H 4500 5900 50  0000 C CNN
F 3 "" H 4500 5900 50  0000 C CNN
	1    4500 5900
	1    0    0    -1  
$EndComp
Text GLabel 4600 6400 2    47   Input ~ 0
~MON_ALERT
$Comp
L GND #PWR0110
U 1 1 588F8B25
P 4500 6700
F 0 "#PWR0110" H 4500 6450 50  0001 C CNN
F 1 "GND" H 4500 6550 50  0000 C CNN
F 2 "" H 4500 6700 50  0000 C CNN
F 3 "" H 4500 6700 50  0000 C CNN
	1    4500 6700
	1    0    0    -1  
$EndComp
$Comp
L D D303
U 1 1 58900A9D
P 7550 3800
F 0 "D303" H 7550 3900 50  0000 C CNN
F 1 "FR107" H 7550 3700 50  0000 C CNN
F 2 "Local:D_SOD-123" H 7550 3800 50  0001 C CNN
F 3 "" H 7550 3800 50  0000 C CNN
	1    7550 3800
	-1   0    0    -1  
$EndComp
$Comp
L D D304
U 1 1 58903089
P 8450 5400
F 0 "D304" H 8450 5500 50  0000 C CNN
F 1 "FR107*" H 8450 5300 50  0000 C CNN
F 2 "Local:D_SOD-123" H 8450 5400 50  0001 C CNN
F 3 "" H 8450 5400 50  0000 C CNN
	1    8450 5400
	1    0    0    -1  
$EndComp
$Comp
L +12V #PWR0111
U 1 1 58903633
P 8200 5200
F 0 "#PWR0111" H 8200 5050 50  0001 C CNN
F 1 "+12V" H 8200 5340 50  0000 C CNN
F 2 "" H 8200 5200 50  0000 C CNN
F 3 "" H 8200 5200 50  0000 C CNN
	1    8200 5200
	1    0    0    -1  
$EndComp
$Comp
L D D305
U 1 1 58903788
P 10250 5400
F 0 "D305" H 10250 5500 50  0000 C CNN
F 1 "FR107*" H 10250 5300 50  0000 C CNN
F 2 "Local:D_SOD-123" H 10250 5400 50  0001 C CNN
F 3 "" H 10250 5400 50  0000 C CNN
	1    10250 5400
	1    0    0    -1  
$EndComp
$Comp
L +12V #PWR0112
U 1 1 58904066
P 10000 5200
F 0 "#PWR0112" H 10000 5050 50  0001 C CNN
F 1 "+12V" H 10000 5340 50  0000 C CNN
F 2 "" H 10000 5200 50  0000 C CNN
F 3 "" H 10000 5200 50  0000 C CNN
	1    10000 5200
	1    0    0    -1  
$EndComp
$Comp
L C C342
U 1 1 58915894
P 1200 2950
F 0 "C342" H 1225 3050 50  0000 L CNN
F 1 "1n" H 1200 2850 50  0000 L CNN
F 2 "Local:C_0603" H 1238 2800 50  0001 C CNN
F 3 "" H 1200 2950 50  0000 C CNN
	1    1200 2950
	-1   0    0    -1  
$EndComp
Wire Wire Line
	9400 1700 9400 1600
Wire Wire Line
	9900 1700 9900 1600
Wire Wire Line
	10400 1600 10400 1700
Wire Wire Line
	10400 2000 10400 2100
Wire Wire Line
	9900 2000 9900 2100
Wire Wire Line
	9400 2000 9400 2100
Wire Wire Line
	10300 3850 10300 3950
Wire Wire Line
	10300 4250 10300 4350
Wire Wire Line
	10800 3850 10800 3950
Wire Wire Line
	10800 4250 10800 4350
Wire Wire Line
	6400 3200 6400 3300
Wire Wire Line
	6800 2800 7000 2800
Wire Wire Line
	5500 4500 5400 4500
Wire Wire Line
	5400 4500 5400 4600
Wire Wire Line
	5400 4100 5500 4100
Connection ~ 6900 2800
Wire Wire Line
	5900 2800 6000 2800
Wire Wire Line
	6000 1300 5900 1300
Wire Wire Line
	5900 1300 5900 1400
Wire Wire Line
	7400 1600 7400 1700
Wire Wire Line
	6400 1800 6400 1700
Wire Wire Line
	6400 800  6400 900 
Wire Wire Line
	5200 800  5100 800 
Wire Wire Line
	6400 800  6300 800 
Wire Wire Line
	6400 1800 6300 1800
Wire Wire Line
	5500 3700 5400 3700
Wire Wire Line
	5800 800  5700 800 
Wire Wire Line
	6900 3200 7400 3200
Wire Wire Line
	7900 2300 7800 2300
Wire Wire Line
	7800 2300 7800 2800
Wire Wire Line
	7700 2800 7900 2800
Wire Wire Line
	8200 2300 8300 2300
Wire Wire Line
	8300 2300 8300 3200
Wire Wire Line
	8200 2800 8400 2800
Wire Wire Line
	8300 3200 7700 3200
Connection ~ 8300 2800
Wire Wire Line
	6900 3200 6900 2800
Wire Wire Line
	7700 3400 8200 3400
Wire Wire Line
	8100 3400 8100 3800
Wire Wire Line
	8100 3800 7700 3800
Connection ~ 8100 3400
Wire Wire Line
	7400 3400 7100 3400
Wire Wire Line
	7100 3400 7100 3900
Wire Wire Line
	7100 3800 7400 3800
Connection ~ 7100 3800
Wire Wire Line
	7100 4300 7100 4400
Wire Wire Line
	6800 4100 6700 4100
Wire Wire Line
	6400 4100 6300 4100
Wire Wire Line
	4200 1500 4200 1300
Wire Wire Line
	4200 1800 4200 2000
Wire Wire Line
	3700 1400 3800 1400
Wire Wire Line
	1700 1600 1300 1600
Wire Wire Line
	800  2200 800  2300
Wire Wire Line
	800  1900 800  1800
Wire Wire Line
	800  2600 800  2800
Wire Wire Line
	800  2700 1050 2700
Connection ~ 800  2700
Wire Wire Line
	800  3100 800  3200
Wire Wire Line
	3700 1900 3800 1900
Wire Wire Line
	3800 1900 3800 2000
Wire Wire Line
	3800 1400 3800 1300
Wire Wire Line
	1300 1400 1700 1400
Wire Wire Line
	1300 1500 1700 1500
Wire Wire Line
	1700 1700 1300 1700
Wire Wire Line
	1300 1800 1700 1800
Wire Wire Line
	1700 1900 1300 1900
Wire Wire Line
	2200 3100 2100 3100
Wire Wire Line
	2100 3100 2100 3400
Wire Wire Line
	2200 2900 2100 2900
Wire Wire Line
	2100 2900 2100 2800
Wire Wire Line
	2100 2500 2100 2400
Wire Wire Line
	2100 3400 2500 3400
Wire Wire Line
	2800 3100 2900 3100
Wire Wire Line
	2900 3100 2900 3200
Wire Wire Line
	2800 2900 3000 2900
Wire Wire Line
	2900 2900 2900 2800
Connection ~ 2900 2900
Wire Wire Line
	2900 2500 2900 2400
Wire Wire Line
	8600 5400 8800 5400
Wire Wire Line
	8700 5400 8700 5500
Wire Wire Line
	8800 5300 8700 5300
Wire Wire Line
	8700 5300 8700 5200
Wire Wire Line
	8700 5900 8700 6000
Wire Wire Line
	8300 5700 8400 5700
Wire Wire Line
	8000 5700 7900 5700
Wire Wire Line
	10400 5400 10600 5400
Wire Wire Line
	10500 5400 10500 5500
Wire Wire Line
	10600 5300 10500 5300
Wire Wire Line
	10500 5300 10500 5200
Wire Wire Line
	10500 5900 10500 6000
Wire Wire Line
	10100 5700 10200 5700
Wire Wire Line
	9800 5700 9700 5700
Wire Wire Line
	6400 2400 6400 2300
Wire Wire Line
	2400 4000 2600 4000
Wire Wire Line
	2500 4000 2500 4400
Wire Wire Line
	2400 4400 2600 4400
Wire Wire Line
	2400 4200 2600 4200
Connection ~ 2500 4200
Wire Wire Line
	1900 4000 2100 4000
Wire Wire Line
	2000 4000 2000 4400
Wire Wire Line
	1900 4400 2100 4400
Connection ~ 2000 4000
Connection ~ 2000 4400
Wire Wire Line
	1900 4200 2100 4200
Connection ~ 2000 4200
Wire Wire Line
	1100 4000 1000 4000
Wire Wire Line
	1000 4000 1000 4500
Wire Wire Line
	1000 4400 1100 4400
Wire Wire Line
	1000 4200 1100 4200
Connection ~ 1000 4200
Connection ~ 1000 4400
Wire Wire Line
	1400 4000 1600 4000
Wire Wire Line
	1500 4000 1500 4400
Wire Wire Line
	1400 4400 1600 4400
Wire Wire Line
	1400 4200 1600 4200
Connection ~ 1500 4200
Connection ~ 1500 4000
Connection ~ 1500 4400
Connection ~ 2500 4000
Wire Wire Line
	2400 5900 2400 6000
Wire Wire Line
	2400 5200 2400 5300
Wire Wire Line
	2400 7400 2400 7500
Wire Wire Line
	2400 6700 2400 6800
Wire Wire Line
	3200 7100 3400 7100
Wire Wire Line
	3400 5600 3200 5600
Wire Wire Line
	2900 5600 2800 5600
Wire Wire Line
	2900 7100 2800 7100
Wire Wire Line
	3500 6600 3800 6600
Wire Wire Line
	3800 6400 3700 6400
Wire Wire Line
	1300 5500 2200 5500
Wire Wire Line
	1300 7000 2200 7000
Wire Wire Line
	1800 5500 1800 5600
Wire Wire Line
	2200 5700 2000 5700
Wire Wire Line
	2200 7200 2000 7200
Wire Wire Line
	1800 7000 1800 7100
Wire Wire Line
	3700 6400 3700 6300
Wire Wire Line
	3700 6000 3700 5900
Connection ~ 1800 5500
Wire Wire Line
	1000 5500 800  5500
Wire Wire Line
	1800 5900 1800 6000
Wire Wire Line
	1800 7400 1800 7500
Connection ~ 1800 7000
Wire Wire Line
	1000 7000 800  7000
Wire Wire Line
	4000 4700 4000 4800
Wire Wire Line
	1600 3100 1600 3200
Wire Wire Line
	4000 4300 4000 4100
Wire Wire Line
	1600 2500 1600 2700
Wire Wire Line
	3800 3100 3700 3100
Wire Wire Line
	3700 3100 3700 3400
Wire Wire Line
	3800 2900 3700 2900
Wire Wire Line
	3700 2900 3700 2800
Wire Wire Line
	3700 2500 3700 2400
Wire Wire Line
	3700 3400 3800 3400
Wire Wire Line
	4400 3100 4500 3100
Wire Wire Line
	4500 3100 4500 3200
Wire Wire Line
	4400 2900 4900 2900
Wire Wire Line
	4500 2900 4500 2800
Connection ~ 4500 2900
Wire Wire Line
	4500 2500 4500 2400
Wire Wire Line
	2100 2400 2200 2400
Wire Wire Line
	4500 2400 4400 2400
Wire Wire Line
	4400 6400 4600 6400
Wire Wire Line
	4500 6300 4500 6400
Connection ~ 4500 6400
Wire Wire Line
	4500 6000 4500 5900
Wire Wire Line
	4400 6600 4500 6600
Wire Wire Line
	4500 6600 4500 6700
Connection ~ 8700 5400
Wire Wire Line
	8200 5400 8300 5400
Wire Wire Line
	8200 5200 8200 5400
Connection ~ 10500 5400
Wire Wire Line
	10000 5400 10100 5400
Wire Wire Line
	10000 5200 10000 5400
$Comp
L GNDPWR #PWR0113
U 1 1 58916153
P 1200 3200
F 0 "#PWR0113" H 1200 3000 50  0001 C CNN
F 1 "GNDPWR" H 1200 3070 50  0000 C CNN
F 2 "" H 1200 3150 50  0000 C CNN
F 3 "" H 1200 3150 50  0000 C CNN
	1    1200 3200
	1    0    0    -1  
$EndComp
Wire Wire Line
	1200 2500 1200 2800
Text Label 1200 2500 3    47   ~ 0
U_SIG
Wire Wire Line
	1200 3100 1200 3200
$Comp
L C C343
U 1 1 589178AB
P 3600 4550
F 0 "C343" H 3625 4650 50  0000 L CNN
F 1 "10n" H 3600 4450 50  0000 L CNN
F 2 "Local:C_0603" H 3638 4400 50  0001 C CNN
F 3 "" H 3600 4550 50  0000 C CNN
	1    3600 4550
	-1   0    0    -1  
$EndComp
$Comp
L GNDPWR #PWR0114
U 1 1 5891836F
P 3600 4800
F 0 "#PWR0114" H 3600 4600 50  0001 C CNN
F 1 "GNDPWR" H 3600 4670 50  0000 C CNN
F 2 "" H 3600 4750 50  0000 C CNN
F 3 "" H 3600 4750 50  0000 C CNN
	1    3600 4800
	1    0    0    -1  
$EndComp
Text Label 3600 4100 3    47   ~ 0
I_SIG
Wire Wire Line
	3600 4800 3600 4700
Wire Wire Line
	3600 4400 3600 4100
$Comp
L R R348
U 1 1 5891931A
P 2750 4000
F 0 "R348" V 2830 4000 50  0000 C CNN
F 1 "150" V 2750 4000 50  0000 C CNN
F 2 "Local:R_0603" V 2680 4000 50  0001 C CNN
F 3 "" H 2750 4000 50  0000 C CNN
	1    2750 4000
	0    1    -1   0   
$EndComp
Wire Wire Line
	2900 4000 3100 4000
Text Notes 1350 5350 0    60   ~ 0
100Hz CutOff
Text Notes 1350 6850 0    60   ~ 0
100 Hz CutOff
Text Notes 2550 3850 0    60   ~ 0
100KHz CutOff\n1.5uS Latency
Text Notes 1300 4750 0    60   ~ 0
0.01R x 10A = 0.1V\n0.01R x 20A = 0.2V\n0.01R x 30A = 0.3V
Wire Wire Line
	7400 1300 7400 1200
Wire Wire Line
	6800 1300 6900 1300
Wire Wire Line
	6900 1200 6900 1400
$Comp
L VPP #PWR0115
U 1 1 58915FE5
P 6900 1800
F 0 "#PWR0115" H 6900 1650 50  0001 C CNN
F 1 "VPP" H 6900 1950 50  0000 C CNN
F 2 "" H 6900 1800 50  0000 C CNN
F 3 "" H 6900 1800 50  0000 C CNN
	1    6900 1800
	-1   0    0    1   
$EndComp
$Comp
L D D306
U 1 1 58916547
P 6900 1550
F 0 "D306" H 6900 1650 50  0000 C CNN
F 1 "1N4007*" H 6900 1450 50  0000 C CNN
F 2 "Local:Diode_DO-41_SOD81_Vertical_KathodeUp" H 6900 1550 50  0001 C CNN
F 3 "" H 6900 1550 50  0000 C CNN
	1    6900 1550
	0    -1   1    0   
$EndComp
Text GLabel 7400 1200 1    60   Input ~ 0
HV+PSU
Text GLabel 6900 1200 1    60   Input ~ 0
HV+PSU
Wire Wire Line
	6900 1800 6900 1700
Connection ~ 6900 1300
$Comp
L R R302
U 1 1 58933FB5
P 7550 2800
F 0 "R302" V 7630 2800 50  0000 C CNN
F 1 "10R" V 7550 2800 50  0000 C CNN
F 2 "Local:R_1206" V 7480 2800 50  0001 C CNN
F 3 "" H 7550 2800 50  0000 C CNN
	1    7550 2800
	0    -1   -1   0   
$EndComp
Connection ~ 7800 2800
Wire Wire Line
	7400 2800 7300 2800
$Comp
L R R331
U 1 1 58941263
P 6700 5950
F 0 "R331" V 6780 5950 50  0000 C CNN
F 1 "4K7" V 6707 5951 50  0000 C CNN
F 2 "Local:R_0603" V 6630 5950 30  0001 C CNN
F 3 "" H 6700 5950 30  0000 C CNN
	1    6700 5950
	-1   0    0    1   
$EndComp
$Comp
L GND #PWR0116
U 1 1 5894126A
P 6700 6200
F 0 "#PWR0116" H 6700 5950 50  0001 C CNN
F 1 "GND" H 6700 6050 50  0000 C CNN
F 2 "" H 6700 6200 60  0000 C CNN
F 3 "" H 6700 6200 60  0000 C CNN
	1    6700 6200
	1    0    0    -1  
$EndComp
$Comp
L C C331
U 1 1 58941270
P 7200 5950
F 0 "C331" H 7225 6050 50  0000 L CNN
F 1 "10n" H 7225 5850 50  0000 L CNN
F 2 "Local:C_0603" H 7238 5800 30  0001 C CNN
F 3 "" H 7200 5950 60  0000 C CNN
	1    7200 5950
	1    0    0    -1  
$EndComp
$Comp
L GND #PWR0117
U 1 1 58941277
P 7200 6200
F 0 "#PWR0117" H 7200 5950 60  0001 C CNN
F 1 "GND" H 7200 6050 60  0000 C CNN
F 2 "" H 7200 6200 60  0000 C CNN
F 3 "" H 7200 6200 60  0000 C CNN
	1    7200 6200
	1    0    0    -1  
$EndComp
Text GLabel 7200 5600 1    47   Input ~ 0
BOX_TMP
$Comp
L THERMISTOR TH331
U 1 1 5894127E
P 6700 5350
F 0 "TH331" V 6800 5400 50  0000 C CNN
F 1 "10K" V 6600 5350 50  0000 C BNN
F 2 "Local:Molex_KK-6410-02_02x2.54mm_Straight" H 6700 5350 60  0001 C CNN
F 3 "" H 6700 5350 60  0000 C CNN
	1    6700 5350
	-1   0    0    -1  
$EndComp
Wire Wire Line
	6700 5000 6700 5100
Wire Wire Line
	6700 5600 6700 5800
Wire Wire Line
	6700 6100 6700 6200
Wire Wire Line
	6700 5700 6800 5700
Wire Wire Line
	7200 5600 7200 5800
Connection ~ 6700 5700
Wire Wire Line
	7200 6100 7200 6200
Connection ~ 7200 5700
Text GLabel 6700 5000 1    47   Input ~ 0
+3V3A
$Comp
L R R332
U 1 1 589449D8
P 6950 5700
F 0 "R332" V 7030 5700 50  0000 C CNN
F 1 "4K7" V 6957 5701 50  0000 C CNN
F 2 "Local:R_0603" V 6880 5700 30  0001 C CNN
F 3 "" H 6950 5700 30  0000 C CNN
	1    6950 5700
	0    -1   -1   0   
$EndComp
Wire Wire Line
	7200 5700 7100 5700
Text GLabel 7900 1200 1    60   Input ~ 0
HV+PSU
Wire Wire Line
	7900 1600 7900 1700
Wire Wire Line
	7900 1200 7900 1300
$Comp
L Earth #PWR0118
U 1 1 57F9A1C8
P 7900 1700
F 0 "#PWR0118" H 7900 1450 50  0001 C CNN
F 1 "Earth" H 7900 1550 50  0001 C CNN
F 2 "" H 7900 1700 50  0000 C CNN
F 3 "" H 7900 1700 50  0000 C CNN
	1    7900 1700
	1    0    0    -1  
$EndComp
$Comp
L C C311
U 1 1 57F99FED
P 7900 1450
F 0 "C311" H 7925 1550 50  0000 L CNN
F 1 "100n 450V" H 7700 1350 50  0000 L CNN
F 2 "Local:C_Rect_L7_W4.5_P5" H 7938 1300 50  0001 C CNN
F 3 "" H 7900 1450 50  0000 C CNN
	1    7900 1450
	1    0    0    -1  
$EndComp
$Comp
L PWR_FLAG #FLG0119
U 1 1 589B69BB
P 2600 4400
F 0 "#FLG0119" H 2600 4495 50  0001 C CNN
F 1 "PWR_FLAG" V 2600 4750 50  0000 C CNN
F 2 "" H 2600 4400 50  0000 C CNN
F 3 "" H 2600 4400 50  0000 C CNN
	1    2600 4400
	0    1    1    0   
$EndComp
Connection ~ 2500 4400
$Comp
L VPP #PWR0120
U 1 1 589BA21D
P 8900 1600
F 0 "#PWR0120" H 8900 1450 50  0001 C CNN
F 1 "VPP" H 8900 1750 50  0000 C CNN
F 2 "" H 8900 1600 50  0000 C CNN
F 3 "" H 8900 1600 50  0000 C CNN
	1    8900 1600
	1    0    0    -1  
$EndComp
$Comp
L PWR_FLAG #FLG0121
U 1 1 589BA392
P 8900 1700
F 0 "#FLG0121" H 8900 1795 50  0001 C CNN
F 1 "PWR_FLAG" H 8900 1880 50  0000 C CNN
F 2 "" H 8900 1700 50  0000 C CNN
F 3 "" H 8900 1700 50  0000 C CNN
	1    8900 1700
	-1   0    0    1   
$EndComp
Wire Wire Line
	8900 1700 8900 1600
NoConn ~ 8800 5200
NoConn ~ 10600 5200
$Comp
L Earth #PWR0122
U 1 1 589BC136
P 8300 1700
F 0 "#PWR0122" H 8300 1450 50  0001 C CNN
F 1 "Earth" H 8300 1550 50  0001 C CNN
F 2 "" H 8300 1700 50  0000 C CNN
F 3 "" H 8300 1700 50  0000 C CNN
	1    8300 1700
	1    0    0    -1  
$EndComp
$Comp
L PWR_FLAG #FLG0123
U 1 1 589BC381
P 8300 1600
F 0 "#FLG0123" H 8300 1695 50  0001 C CNN
F 1 "PWR_FLAG" H 8300 1780 50  0000 C CNN
F 2 "" H 8300 1600 50  0000 C CNN
F 3 "" H 8300 1600 50  0000 C CNN
	1    8300 1600
	1    0    0    -1  
$EndComp
Wire Wire Line
	8300 1700 8300 1600
$Comp
L R R353
U 1 1 589A9199
P 1400 5750
F 0 "R353" V 1480 5750 50  0000 C CNN
F 1 "100" V 1400 5750 50  0000 C CNN
F 2 "Local:R_0603" V 1330 5750 50  0001 C CNN
F 3 "" H 1400 5750 50  0000 C CNN
	1    1400 5750
	-1   0    0    -1  
$EndComp
$Comp
L R R354
U 1 1 589A94CE
P 1400 7250
F 0 "R354" V 1480 7250 50  0000 C CNN
F 1 "330" V 1400 7250 50  0000 C CNN
F 2 "Local:R_0603" V 1330 7250 50  0001 C CNN
F 3 "" H 1400 7250 50  0000 C CNN
	1    1400 7250
	-1   0    0    -1  
$EndComp
$Comp
L GNDPWR #PWR0124
U 1 1 589A9F6C
P 1400 6000
F 0 "#PWR0124" H 1400 5800 50  0001 C CNN
F 1 "GNDPWR" H 1400 5870 50  0000 C CNN
F 2 "" H 1400 5950 50  0000 C CNN
F 3 "" H 1400 5950 50  0000 C CNN
	1    1400 6000
	1    0    0    -1  
$EndComp
Wire Wire Line
	1400 5900 1400 6000
Wire Wire Line
	1400 5600 1400 5500
Connection ~ 1400 5500
$Comp
L GNDPWR #PWR0125
U 1 1 589AABB9
P 1400 7500
F 0 "#PWR0125" H 1400 7300 50  0001 C CNN
F 1 "GNDPWR" H 1400 7370 50  0000 C CNN
F 2 "" H 1400 7450 50  0000 C CNN
F 3 "" H 1400 7450 50  0000 C CNN
	1    1400 7500
	1    0    0    -1  
$EndComp
Wire Wire Line
	1400 7400 1400 7500
Wire Wire Line
	1400 7100 1400 7000
Connection ~ 1400 7000
$EndSCHEMATC
