(module CP_Radial_D10.0mm_P5.00mm (layer F.Cu) (tedit 58765D06)
  (descr "CP, Radial series, Radial, pin pitch=5.00mm, , diameter=10mm, Electrolytic Capacitor")
  (tags "CP Radial series Radial pin pitch 5.00mm  diameter 10mm Electrolytic Capacitor")
  (fp_text reference REF** (at 2.5 -6.06) (layer F.SilkS)
    (effects (font (size 1 1) (thickness 0.15)))
  )
  (fp_text value CP_Radial_D10.0mm_P5.00mm (at 2.5 6.06) (layer F.Fab)
    (effects (font (size 1 1) (thickness 0.15)))
  )
  (fp_arc (start 2.5 0) (end -2.451333 -1.18) (angle 153.2) (layer F.SilkS) (width 0.12))
  (fp_arc (start 2.5 0) (end -2.451333 1.18) (angle -153.2) (layer F.SilkS) (width 0.12))
  (fp_arc (start 2.5 0) (end 7.451333 -1.18) (angle 26.8) (layer F.SilkS) (width 0.12))
  (fp_circle (center 2.5 0) (end 7.5 0) (layer F.Fab) (width 0.1))
  (fp_line (start -2.7 0) (end -1.2 0) (layer F.Fab) (width 0.1))
  (fp_line (start -1.95 -0.75) (end -1.95 0.75) (layer F.Fab) (width 0.1))
  (fp_line (start 2.5 -5.05) (end 2.5 5.05) (layer F.SilkS) (width 0.12))
  (fp_line (start 2.54 -5.05) (end 2.54 5.05) (layer F.SilkS) (width 0.12))
  (fp_line (start 2.58 -5.05) (end 2.58 5.05) (layer F.SilkS) (width 0.12))
  (fp_line (start 2.62 -5.049) (end 2.62 5.049) (layer F.SilkS) (width 0.12))
  (fp_line (start 2.66 -5.048) (end 2.66 5.048) (layer F.SilkS) (width 0.12))
  (fp_line (start 2.7 -5.047) (end 2.7 5.047) (layer F.SilkS) (width 0.12))
  (fp_line (start 2.74 -5.045) (end 2.74 5.045) (layer F.SilkS) (width 0.12))
  (fp_line (start 2.78 -5.043) (end 2.78 5.043) (layer F.SilkS) (width 0.12))
  (fp_line (start 2.82 -5.04) (end 2.82 5.04) (layer F.SilkS) (width 0.12))
  (fp_line (start 2.86 -5.038) (end 2.86 5.038) (layer F.SilkS) (width 0.12))
  (fp_line (start 2.9 -5.035) (end 2.9 5.035) (layer F.SilkS) (width 0.12))
  (fp_line (start 2.94 -5.031) (end 2.94 5.031) (layer F.SilkS) (width 0.12))
  (fp_line (start 2.98 -5.028) (end 2.98 5.028) (layer F.SilkS) (width 0.12))
  (fp_line (start 3.02 -5.024) (end 3.02 5.024) (layer F.SilkS) (width 0.12))
  (fp_line (start 3.06 -5.02) (end 3.06 5.02) (layer F.SilkS) (width 0.12))
  (fp_line (start 3.1 -5.015) (end 3.1 5.015) (layer F.SilkS) (width 0.12))
  (fp_line (start 3.14 -5.01) (end 3.14 5.01) (layer F.SilkS) (width 0.12))
  (fp_line (start 3.18 -5.005) (end 3.18 5.005) (layer F.SilkS) (width 0.12))
  (fp_line (start 3.221 -4.999) (end 3.221 4.999) (layer F.SilkS) (width 0.12))
  (fp_line (start 3.261 -4.993) (end 3.261 4.993) (layer F.SilkS) (width 0.12))
  (fp_line (start 3.301 -4.987) (end 3.301 4.987) (layer F.SilkS) (width 0.12))
  (fp_line (start 3.341 -4.981) (end 3.341 4.981) (layer F.SilkS) (width 0.12))
  (fp_line (start 3.381 -4.974) (end 3.381 4.974) (layer F.SilkS) (width 0.12))
  (fp_line (start 3.421 -4.967) (end 3.421 4.967) (layer F.SilkS) (width 0.12))
  (fp_line (start 3.461 -4.959) (end 3.461 4.959) (layer F.SilkS) (width 0.12))
  (fp_line (start 3.501 -4.951) (end 3.501 4.951) (layer F.SilkS) (width 0.12))
  (fp_line (start 3.541 -4.943) (end 3.541 4.943) (layer F.SilkS) (width 0.12))
  (fp_line (start 3.581 -4.935) (end 3.581 4.935) (layer F.SilkS) (width 0.12))
  (fp_line (start 3.621 -4.926) (end 3.621 4.926) (layer F.SilkS) (width 0.12))
  (fp_line (start 3.661 -4.917) (end 3.661 4.917) (layer F.SilkS) (width 0.12))
  (fp_line (start 3.701 -4.907) (end 3.701 4.907) (layer F.SilkS) (width 0.12))
  (fp_line (start 3.741 -4.897) (end 3.741 4.897) (layer F.SilkS) (width 0.12))
  (fp_line (start 3.781 -4.887) (end 3.781 4.887) (layer F.SilkS) (width 0.12))
  (fp_line (start 3.821 -4.876) (end 3.821 -1.181) (layer F.SilkS) (width 0.12))
  (fp_line (start 3.821 1.181) (end 3.821 4.876) (layer F.SilkS) (width 0.12))
  (fp_line (start 3.861 -4.865) (end 3.861 -1.181) (layer F.SilkS) (width 0.12))
  (fp_line (start 3.861 1.181) (end 3.861 4.865) (layer F.SilkS) (width 0.12))
  (fp_line (start 3.901 -4.854) (end 3.901 -1.181) (layer F.SilkS) (width 0.12))
  (fp_line (start 3.901 1.181) (end 3.901 4.854) (layer F.SilkS) (width 0.12))
  (fp_line (start 3.941 -4.843) (end 3.941 -1.181) (layer F.SilkS) (width 0.12))
  (fp_line (start 3.941 1.181) (end 3.941 4.843) (layer F.SilkS) (width 0.12))
  (fp_line (start 3.981 -4.831) (end 3.981 -1.181) (layer F.SilkS) (width 0.12))
  (fp_line (start 3.981 1.181) (end 3.981 4.831) (layer F.SilkS) (width 0.12))
  (fp_line (start 4.021 -4.818) (end 4.021 -1.181) (layer F.SilkS) (width 0.12))
  (fp_line (start 4.021 1.181) (end 4.021 4.818) (layer F.SilkS) (width 0.12))
  (fp_line (start 4.061 -4.806) (end 4.061 -1.181) (layer F.SilkS) (width 0.12))
  (fp_line (start 4.061 1.181) (end 4.061 4.806) (layer F.SilkS) (width 0.12))
  (fp_line (start 4.101 -4.792) (end 4.101 -1.181) (layer F.SilkS) (width 0.12))
  (fp_line (start 4.101 1.181) (end 4.101 4.792) (layer F.SilkS) (width 0.12))
  (fp_line (start 4.141 -4.779) (end 4.141 -1.181) (layer F.SilkS) (width 0.12))
  (fp_line (start 4.141 1.181) (end 4.141 4.779) (layer F.SilkS) (width 0.12))
  (fp_line (start 4.181 -4.765) (end 4.181 -1.181) (layer F.SilkS) (width 0.12))
  (fp_line (start 4.181 1.181) (end 4.181 4.765) (layer F.SilkS) (width 0.12))
  (fp_line (start 4.221 -4.751) (end 4.221 -1.181) (layer F.SilkS) (width 0.12))
  (fp_line (start 4.221 1.181) (end 4.221 4.751) (layer F.SilkS) (width 0.12))
  (fp_line (start 4.261 -4.737) (end 4.261 -1.181) (layer F.SilkS) (width 0.12))
  (fp_line (start 4.261 1.181) (end 4.261 4.737) (layer F.SilkS) (width 0.12))
  (fp_line (start 4.301 -4.722) (end 4.301 -1.181) (layer F.SilkS) (width 0.12))
  (fp_line (start 4.301 1.181) (end 4.301 4.722) (layer F.SilkS) (width 0.12))
  (fp_line (start 4.341 -4.706) (end 4.341 -1.181) (layer F.SilkS) (width 0.12))
  (fp_line (start 4.341 1.181) (end 4.341 4.706) (layer F.SilkS) (width 0.12))
  (fp_line (start 4.381 -4.691) (end 4.381 -1.181) (layer F.SilkS) (width 0.12))
  (fp_line (start 4.381 1.181) (end 4.381 4.691) (layer F.SilkS) (width 0.12))
  (fp_line (start 4.421 -4.674) (end 4.421 -1.181) (layer F.SilkS) (width 0.12))
  (fp_line (start 4.421 1.181) (end 4.421 4.674) (layer F.SilkS) (width 0.12))
  (fp_line (start 4.461 -4.658) (end 4.461 -1.181) (layer F.SilkS) (width 0.12))
  (fp_line (start 4.461 1.181) (end 4.461 4.658) (layer F.SilkS) (width 0.12))
  (fp_line (start 4.501 -4.641) (end 4.501 -1.181) (layer F.SilkS) (width 0.12))
  (fp_line (start 4.501 1.181) (end 4.501 4.641) (layer F.SilkS) (width 0.12))
  (fp_line (start 4.541 -4.624) (end 4.541 -1.181) (layer F.SilkS) (width 0.12))
  (fp_line (start 4.541 1.181) (end 4.541 4.624) (layer F.SilkS) (width 0.12))
  (fp_line (start 4.581 -4.606) (end 4.581 -1.181) (layer F.SilkS) (width 0.12))
  (fp_line (start 4.581 1.181) (end 4.581 4.606) (layer F.SilkS) (width 0.12))
  (fp_line (start 4.621 -4.588) (end 4.621 -1.181) (layer F.SilkS) (width 0.12))
  (fp_line (start 4.621 1.181) (end 4.621 4.588) (layer F.SilkS) (width 0.12))
  (fp_line (start 4.661 -4.569) (end 4.661 -1.181) (layer F.SilkS) (width 0.12))
  (fp_line (start 4.661 1.181) (end 4.661 4.569) (layer F.SilkS) (width 0.12))
  (fp_line (start 4.701 -4.55) (end 4.701 -1.181) (layer F.SilkS) (width 0.12))
  (fp_line (start 4.701 1.181) (end 4.701 4.55) (layer F.SilkS) (width 0.12))
  (fp_line (start 4.741 -4.531) (end 4.741 -1.181) (layer F.SilkS) (width 0.12))
  (fp_line (start 4.741 1.181) (end 4.741 4.531) (layer F.SilkS) (width 0.12))
  (fp_line (start 4.781 -4.511) (end 4.781 -1.181) (layer F.SilkS) (width 0.12))
  (fp_line (start 4.781 1.181) (end 4.781 4.511) (layer F.SilkS) (width 0.12))
  (fp_line (start 4.821 -4.491) (end 4.821 -1.181) (layer F.SilkS) (width 0.12))
  (fp_line (start 4.821 1.181) (end 4.821 4.491) (layer F.SilkS) (width 0.12))
  (fp_line (start 4.861 -4.47) (end 4.861 -1.181) (layer F.SilkS) (width 0.12))
  (fp_line (start 4.861 1.181) (end 4.861 4.47) (layer F.SilkS) (width 0.12))
  (fp_line (start 4.901 -4.449) (end 4.901 -1.181) (layer F.SilkS) (width 0.12))
  (fp_line (start 4.901 1.181) (end 4.901 4.449) (layer F.SilkS) (width 0.12))
  (fp_line (start 4.941 -4.428) (end 4.941 -1.181) (layer F.SilkS) (width 0.12))
  (fp_line (start 4.941 1.181) (end 4.941 4.428) (layer F.SilkS) (width 0.12))
  (fp_line (start 4.981 -4.405) (end 4.981 -1.181) (layer F.SilkS) (width 0.12))
  (fp_line (start 4.981 1.181) (end 4.981 4.405) (layer F.SilkS) (width 0.12))
  (fp_line (start 5.021 -4.383) (end 5.021 -1.181) (layer F.SilkS) (width 0.12))
  (fp_line (start 5.021 1.181) (end 5.021 4.383) (layer F.SilkS) (width 0.12))
  (fp_line (start 5.061 -4.36) (end 5.061 -1.181) (layer F.SilkS) (width 0.12))
  (fp_line (start 5.061 1.181) (end 5.061 4.36) (layer F.SilkS) (width 0.12))
  (fp_line (start 5.101 -4.336) (end 5.101 -1.181) (layer F.SilkS) (width 0.12))
  (fp_line (start 5.101 1.181) (end 5.101 4.336) (layer F.SilkS) (width 0.12))
  (fp_line (start 5.141 -4.312) (end 5.141 -1.181) (layer F.SilkS) (width 0.12))
  (fp_line (start 5.141 1.181) (end 5.141 4.312) (layer F.SilkS) (width 0.12))
  (fp_line (start 5.181 -4.288) (end 5.181 -1.181) (layer F.SilkS) (width 0.12))
  (fp_line (start 5.181 1.181) (end 5.181 4.288) (layer F.SilkS) (width 0.12))
  (fp_line (start 5.221 -4.263) (end 5.221 -1.181) (layer F.SilkS) (width 0.12))
  (fp_line (start 5.221 1.181) (end 5.221 4.263) (layer F.SilkS) (width 0.12))
  (fp_line (start 5.261 -4.237) (end 5.261 -1.181) (layer F.SilkS) (width 0.12))
  (fp_line (start 5.261 1.181) (end 5.261 4.237) (layer F.SilkS) (width 0.12))
  (fp_line (start 5.301 -4.211) (end 5.301 -1.181) (layer F.SilkS) (width 0.12))
  (fp_line (start 5.301 1.181) (end 5.301 4.211) (layer F.SilkS) (width 0.12))
  (fp_line (start 5.341 -4.185) (end 5.341 -1.181) (layer F.SilkS) (width 0.12))
  (fp_line (start 5.341 1.181) (end 5.341 4.185) (layer F.SilkS) (width 0.12))
  (fp_line (start 5.381 -4.157) (end 5.381 -1.181) (layer F.SilkS) (width 0.12))
  (fp_line (start 5.381 1.181) (end 5.381 4.157) (layer F.SilkS) (width 0.12))
  (fp_line (start 5.421 -4.13) (end 5.421 -1.181) (layer F.SilkS) (width 0.12))
  (fp_line (start 5.421 1.181) (end 5.421 4.13) (layer F.SilkS) (width 0.12))
  (fp_line (start 5.461 -4.101) (end 5.461 -1.181) (layer F.SilkS) (width 0.12))
  (fp_line (start 5.461 1.181) (end 5.461 4.101) (layer F.SilkS) (width 0.12))
  (fp_line (start 5.501 -4.072) (end 5.501 -1.181) (layer F.SilkS) (width 0.12))
  (fp_line (start 5.501 1.181) (end 5.501 4.072) (layer F.SilkS) (width 0.12))
  (fp_line (start 5.541 -4.043) (end 5.541 -1.181) (layer F.SilkS) (width 0.12))
  (fp_line (start 5.541 1.181) (end 5.541 4.043) (layer F.SilkS) (width 0.12))
  (fp_line (start 5.581 -4.013) (end 5.581 -1.181) (layer F.SilkS) (width 0.12))
  (fp_line (start 5.581 1.181) (end 5.581 4.013) (layer F.SilkS) (width 0.12))
  (fp_line (start 5.621 -3.982) (end 5.621 -1.181) (layer F.SilkS) (width 0.12))
  (fp_line (start 5.621 1.181) (end 5.621 3.982) (layer F.SilkS) (width 0.12))
  (fp_line (start 5.661 -3.951) (end 5.661 -1.181) (layer F.SilkS) (width 0.12))
  (fp_line (start 5.661 1.181) (end 5.661 3.951) (layer F.SilkS) (width 0.12))
  (fp_line (start 5.701 -3.919) (end 5.701 -1.181) (layer F.SilkS) (width 0.12))
  (fp_line (start 5.701 1.181) (end 5.701 3.919) (layer F.SilkS) (width 0.12))
  (fp_line (start 5.741 -3.886) (end 5.741 -1.181) (layer F.SilkS) (width 0.12))
  (fp_line (start 5.741 1.181) (end 5.741 3.886) (layer F.SilkS) (width 0.12))
  (fp_line (start 5.781 -3.853) (end 5.781 -1.181) (layer F.SilkS) (width 0.12))
  (fp_line (start 5.781 1.181) (end 5.781 3.853) (layer F.SilkS) (width 0.12))
  (fp_line (start 5.821 -3.819) (end 5.821 -1.181) (layer F.SilkS) (width 0.12))
  (fp_line (start 5.821 1.181) (end 5.821 3.819) (layer F.SilkS) (width 0.12))
  (fp_line (start 5.861 -3.784) (end 5.861 -1.181) (layer F.SilkS) (width 0.12))
  (fp_line (start 5.861 1.181) (end 5.861 3.784) (layer F.SilkS) (width 0.12))
  (fp_line (start 5.901 -3.748) (end 5.901 -1.181) (layer F.SilkS) (width 0.12))
  (fp_line (start 5.901 1.181) (end 5.901 3.748) (layer F.SilkS) (width 0.12))
  (fp_line (start 5.941 -3.712) (end 5.941 -1.181) (layer F.SilkS) (width 0.12))
  (fp_line (start 5.941 1.181) (end 5.941 3.712) (layer F.SilkS) (width 0.12))
  (fp_line (start 5.981 -3.675) (end 5.981 -1.181) (layer F.SilkS) (width 0.12))
  (fp_line (start 5.981 1.181) (end 5.981 3.675) (layer F.SilkS) (width 0.12))
  (fp_line (start 6.021 -3.637) (end 6.021 -1.181) (layer F.SilkS) (width 0.12))
  (fp_line (start 6.021 1.181) (end 6.021 3.637) (layer F.SilkS) (width 0.12))
  (fp_line (start 6.061 -3.598) (end 6.061 -1.181) (layer F.SilkS) (width 0.12))
  (fp_line (start 6.061 1.181) (end 6.061 3.598) (layer F.SilkS) (width 0.12))
  (fp_line (start 6.101 -3.559) (end 6.101 -1.181) (layer F.SilkS) (width 0.12))
  (fp_line (start 6.101 1.181) (end 6.101 3.559) (layer F.SilkS) (width 0.12))
  (fp_line (start 6.141 -3.518) (end 6.141 -1.181) (layer F.SilkS) (width 0.12))
  (fp_line (start 6.141 1.181) (end 6.141 3.518) (layer F.SilkS) (width 0.12))
  (fp_line (start 6.181 -3.477) (end 6.181 3.477) (layer F.SilkS) (width 0.12))
  (fp_line (start 6.221 -3.435) (end 6.221 3.435) (layer F.SilkS) (width 0.12))
  (fp_line (start 6.261 -3.391) (end 6.261 3.391) (layer F.SilkS) (width 0.12))
  (fp_line (start 6.301 -3.347) (end 6.301 3.347) (layer F.SilkS) (width 0.12))
  (fp_line (start 6.341 -3.302) (end 6.341 3.302) (layer F.SilkS) (width 0.12))
  (fp_line (start 6.381 -3.255) (end 6.381 3.255) (layer F.SilkS) (width 0.12))
  (fp_line (start 6.421 -3.207) (end 6.421 3.207) (layer F.SilkS) (width 0.12))
  (fp_line (start 6.461 -3.158) (end 6.461 3.158) (layer F.SilkS) (width 0.12))
  (fp_line (start 6.501 -3.108) (end 6.501 3.108) (layer F.SilkS) (width 0.12))
  (fp_line (start 6.541 -3.057) (end 6.541 3.057) (layer F.SilkS) (width 0.12))
  (fp_line (start 6.581 -3.004) (end 6.581 3.004) (layer F.SilkS) (width 0.12))
  (fp_line (start 6.621 -2.949) (end 6.621 2.949) (layer F.SilkS) (width 0.12))
  (fp_line (start 6.661 -2.894) (end 6.661 2.894) (layer F.SilkS) (width 0.12))
  (fp_line (start 6.701 -2.836) (end 6.701 2.836) (layer F.SilkS) (width 0.12))
  (fp_line (start 6.741 -2.777) (end 6.741 2.777) (layer F.SilkS) (width 0.12))
  (fp_line (start 6.781 -2.715) (end 6.781 2.715) (layer F.SilkS) (width 0.12))
  (fp_line (start 6.821 -2.652) (end 6.821 2.652) (layer F.SilkS) (width 0.12))
  (fp_line (start 6.861 -2.587) (end 6.861 2.587) (layer F.SilkS) (width 0.12))
  (fp_line (start 6.901 -2.519) (end 6.901 2.519) (layer F.SilkS) (width 0.12))
  (fp_line (start 6.941 -2.449) (end 6.941 2.449) (layer F.SilkS) (width 0.12))
  (fp_line (start 6.981 -2.377) (end 6.981 2.377) (layer F.SilkS) (width 0.12))
  (fp_line (start 7.021 -2.301) (end 7.021 2.301) (layer F.SilkS) (width 0.12))
  (fp_line (start 7.061 -2.222) (end 7.061 2.222) (layer F.SilkS) (width 0.12))
  (fp_line (start 7.101 -2.14) (end 7.101 2.14) (layer F.SilkS) (width 0.12))
  (fp_line (start 7.141 -2.053) (end 7.141 2.053) (layer F.SilkS) (width 0.12))
  (fp_line (start 7.181 -1.962) (end 7.181 1.962) (layer F.SilkS) (width 0.12))
  (fp_line (start 7.221 -1.866) (end 7.221 1.866) (layer F.SilkS) (width 0.12))
  (fp_line (start 7.261 -1.763) (end 7.261 1.763) (layer F.SilkS) (width 0.12))
  (fp_line (start 7.301 -1.654) (end 7.301 1.654) (layer F.SilkS) (width 0.12))
  (fp_line (start 7.341 -1.536) (end 7.341 1.536) (layer F.SilkS) (width 0.12))
  (fp_line (start 7.381 -1.407) (end 7.381 1.407) (layer F.SilkS) (width 0.12))
  (fp_line (start 7.421 -1.265) (end 7.421 1.265) (layer F.SilkS) (width 0.12))
  (fp_line (start 7.461 -1.104) (end 7.461 1.104) (layer F.SilkS) (width 0.12))
  (fp_line (start 7.501 -0.913) (end 7.501 0.913) (layer F.SilkS) (width 0.12))
  (fp_line (start 7.541 -0.672) (end 7.541 0.672) (layer F.SilkS) (width 0.12))
  (fp_line (start 7.581 -0.279) (end 7.581 0.279) (layer F.SilkS) (width 0.12))
  (fp_line (start -2.7 0) (end -1.2 0) (layer F.SilkS) (width 0.12))
  (fp_line (start -1.95 -0.75) (end -1.95 0.75) (layer F.SilkS) (width 0.12))
  (fp_line (start -2.85 -5.35) (end -2.85 5.35) (layer F.CrtYd) (width 0.05))
  (fp_line (start -2.85 5.35) (end 7.85 5.35) (layer F.CrtYd) (width 0.05))
  (fp_line (start 7.85 5.35) (end 7.85 -5.35) (layer F.CrtYd) (width 0.05))
  (fp_line (start 7.85 -5.35) (end -2.85 -5.35) (layer F.CrtYd) (width 0.05))
  (pad 1 thru_hole rect (at 0 0) (size 2 2) (drill 1.0) (layers *.Cu *.Mask))
  (pad 2 thru_hole circle (at 5 0) (size 2 2) (drill 1.0) (layers *.Cu *.Mask))
  (model Capacitors_ThroughHole.3dshapes/CP_Radial_D10.0mm_P5.00mm.wrl
    (at (xyz 0 0 0))
    (scale (xyz 0.393701 0.393701 0.393701))
    (rotate (xyz 0 0 0))
  )
)