(module CP_Radial_D5.0mm_P2.00mm (layer F.Cu) (tedit 58765D06)
  (descr "CP, Radial series, Radial, pin pitch=2.00mm, , diameter=5mm, Electrolytic Capacitor")
  (tags "CP Radial series Radial pin pitch 2.00mm  diameter 5mm Electrolytic Capacitor")
  (fp_text reference REF** (at 1 -3.56) (layer F.SilkS)
    (effects (font (size 1 1) (thickness 0.15)))
  )
  (fp_text value CP_Radial_D5.0mm_P2.00mm (at 1 3.56) (layer F.Fab)
    (effects (font (size 1 1) (thickness 0.15)))
  )
  (fp_arc (start 1 0) (end -1.397436 -0.98) (angle 135.5) (layer F.SilkS) (width 0.12))
  (fp_arc (start 1 0) (end -1.397436 0.98) (angle -135.5) (layer F.SilkS) (width 0.12))
  (fp_arc (start 1 0) (end 3.397436 -0.98) (angle 44.5) (layer F.SilkS) (width 0.12))
  (fp_circle (center 1 0) (end 3.5 0) (layer F.Fab) (width 0.1))
  (fp_line (start -2.2 0) (end -1 0) (layer F.Fab) (width 0.1))
  (fp_line (start -1.6 -0.65) (end -1.6 0.65) (layer F.Fab) (width 0.1))
  (fp_line (start 1 -2.55) (end 1 2.55) (layer F.SilkS) (width 0.12))
  (fp_line (start 1.04 -2.55) (end 1.04 -0.98) (layer F.SilkS) (width 0.12))
  (fp_line (start 1.04 0.98) (end 1.04 2.55) (layer F.SilkS) (width 0.12))
  (fp_line (start 1.08 -2.549) (end 1.08 -0.98) (layer F.SilkS) (width 0.12))
  (fp_line (start 1.08 0.98) (end 1.08 2.549) (layer F.SilkS) (width 0.12))
  (fp_line (start 1.12 -2.548) (end 1.12 -0.98) (layer F.SilkS) (width 0.12))
  (fp_line (start 1.12 0.98) (end 1.12 2.548) (layer F.SilkS) (width 0.12))
  (fp_line (start 1.16 -2.546) (end 1.16 -0.98) (layer F.SilkS) (width 0.12))
  (fp_line (start 1.16 0.98) (end 1.16 2.546) (layer F.SilkS) (width 0.12))
  (fp_line (start 1.2 -2.543) (end 1.2 -0.98) (layer F.SilkS) (width 0.12))
  (fp_line (start 1.2 0.98) (end 1.2 2.543) (layer F.SilkS) (width 0.12))
  (fp_line (start 1.24 -2.539) (end 1.24 -0.98) (layer F.SilkS) (width 0.12))
  (fp_line (start 1.24 0.98) (end 1.24 2.539) (layer F.SilkS) (width 0.12))
  (fp_line (start 1.28 -2.535) (end 1.28 -0.98) (layer F.SilkS) (width 0.12))
  (fp_line (start 1.28 0.98) (end 1.28 2.535) (layer F.SilkS) (width 0.12))
  (fp_line (start 1.32 -2.531) (end 1.32 -0.98) (layer F.SilkS) (width 0.12))
  (fp_line (start 1.32 0.98) (end 1.32 2.531) (layer F.SilkS) (width 0.12))
  (fp_line (start 1.36 -2.525) (end 1.36 -0.98) (layer F.SilkS) (width 0.12))
  (fp_line (start 1.36 0.98) (end 1.36 2.525) (layer F.SilkS) (width 0.12))
  (fp_line (start 1.4 -2.519) (end 1.4 -0.98) (layer F.SilkS) (width 0.12))
  (fp_line (start 1.4 0.98) (end 1.4 2.519) (layer F.SilkS) (width 0.12))
  (fp_line (start 1.44 -2.513) (end 1.44 -0.98) (layer F.SilkS) (width 0.12))
  (fp_line (start 1.44 0.98) (end 1.44 2.513) (layer F.SilkS) (width 0.12))
  (fp_line (start 1.48 -2.506) (end 1.48 -0.98) (layer F.SilkS) (width 0.12))
  (fp_line (start 1.48 0.98) (end 1.48 2.506) (layer F.SilkS) (width 0.12))
  (fp_line (start 1.52 -2.498) (end 1.52 -0.98) (layer F.SilkS) (width 0.12))
  (fp_line (start 1.52 0.98) (end 1.52 2.498) (layer F.SilkS) (width 0.12))
  (fp_line (start 1.56 -2.489) (end 1.56 -0.98) (layer F.SilkS) (width 0.12))
  (fp_line (start 1.56 0.98) (end 1.56 2.489) (layer F.SilkS) (width 0.12))
  (fp_line (start 1.6 -2.48) (end 1.6 -0.98) (layer F.SilkS) (width 0.12))
  (fp_line (start 1.6 0.98) (end 1.6 2.48) (layer F.SilkS) (width 0.12))
  (fp_line (start 1.64 -2.47) (end 1.64 -0.98) (layer F.SilkS) (width 0.12))
  (fp_line (start 1.64 0.98) (end 1.64 2.47) (layer F.SilkS) (width 0.12))
  (fp_line (start 1.68 -2.46) (end 1.68 -0.98) (layer F.SilkS) (width 0.12))
  (fp_line (start 1.68 0.98) (end 1.68 2.46) (layer F.SilkS) (width 0.12))
  (fp_line (start 1.721 -2.448) (end 1.721 -0.98) (layer F.SilkS) (width 0.12))
  (fp_line (start 1.721 0.98) (end 1.721 2.448) (layer F.SilkS) (width 0.12))
  (fp_line (start 1.761 -2.436) (end 1.761 -0.98) (layer F.SilkS) (width 0.12))
  (fp_line (start 1.761 0.98) (end 1.761 2.436) (layer F.SilkS) (width 0.12))
  (fp_line (start 1.801 -2.424) (end 1.801 -0.98) (layer F.SilkS) (width 0.12))
  (fp_line (start 1.801 0.98) (end 1.801 2.424) (layer F.SilkS) (width 0.12))
  (fp_line (start 1.841 -2.41) (end 1.841 -0.98) (layer F.SilkS) (width 0.12))
  (fp_line (start 1.841 0.98) (end 1.841 2.41) (layer F.SilkS) (width 0.12))
  (fp_line (start 1.881 -2.396) (end 1.881 -0.98) (layer F.SilkS) (width 0.12))
  (fp_line (start 1.881 0.98) (end 1.881 2.396) (layer F.SilkS) (width 0.12))
  (fp_line (start 1.921 -2.382) (end 1.921 -0.98) (layer F.SilkS) (width 0.12))
  (fp_line (start 1.921 0.98) (end 1.921 2.382) (layer F.SilkS) (width 0.12))
  (fp_line (start 1.961 -2.366) (end 1.961 -0.98) (layer F.SilkS) (width 0.12))
  (fp_line (start 1.961 0.98) (end 1.961 2.366) (layer F.SilkS) (width 0.12))
  (fp_line (start 2.001 -2.35) (end 2.001 -0.98) (layer F.SilkS) (width 0.12))
  (fp_line (start 2.001 0.98) (end 2.001 2.35) (layer F.SilkS) (width 0.12))
  (fp_line (start 2.041 -2.333) (end 2.041 -0.98) (layer F.SilkS) (width 0.12))
  (fp_line (start 2.041 0.98) (end 2.041 2.333) (layer F.SilkS) (width 0.12))
  (fp_line (start 2.081 -2.315) (end 2.081 -0.98) (layer F.SilkS) (width 0.12))
  (fp_line (start 2.081 0.98) (end 2.081 2.315) (layer F.SilkS) (width 0.12))
  (fp_line (start 2.121 -2.296) (end 2.121 -0.98) (layer F.SilkS) (width 0.12))
  (fp_line (start 2.121 0.98) (end 2.121 2.296) (layer F.SilkS) (width 0.12))
  (fp_line (start 2.161 -2.276) (end 2.161 -0.98) (layer F.SilkS) (width 0.12))
  (fp_line (start 2.161 0.98) (end 2.161 2.276) (layer F.SilkS) (width 0.12))
  (fp_line (start 2.201 -2.256) (end 2.201 -0.98) (layer F.SilkS) (width 0.12))
  (fp_line (start 2.201 0.98) (end 2.201 2.256) (layer F.SilkS) (width 0.12))
  (fp_line (start 2.241 -2.234) (end 2.241 -0.98) (layer F.SilkS) (width 0.12))
  (fp_line (start 2.241 0.98) (end 2.241 2.234) (layer F.SilkS) (width 0.12))
  (fp_line (start 2.281 -2.212) (end 2.281 -0.98) (layer F.SilkS) (width 0.12))
  (fp_line (start 2.281 0.98) (end 2.281 2.212) (layer F.SilkS) (width 0.12))
  (fp_line (start 2.321 -2.189) (end 2.321 -0.98) (layer F.SilkS) (width 0.12))
  (fp_line (start 2.321 0.98) (end 2.321 2.189) (layer F.SilkS) (width 0.12))
  (fp_line (start 2.361 -2.165) (end 2.361 -0.98) (layer F.SilkS) (width 0.12))
  (fp_line (start 2.361 0.98) (end 2.361 2.165) (layer F.SilkS) (width 0.12))
  (fp_line (start 2.401 -2.14) (end 2.401 -0.98) (layer F.SilkS) (width 0.12))
  (fp_line (start 2.401 0.98) (end 2.401 2.14) (layer F.SilkS) (width 0.12))
  (fp_line (start 2.441 -2.113) (end 2.441 -0.98) (layer F.SilkS) (width 0.12))
  (fp_line (start 2.441 0.98) (end 2.441 2.113) (layer F.SilkS) (width 0.12))
  (fp_line (start 2.481 -2.086) (end 2.481 -0.98) (layer F.SilkS) (width 0.12))
  (fp_line (start 2.481 0.98) (end 2.481 2.086) (layer F.SilkS) (width 0.12))
  (fp_line (start 2.521 -2.058) (end 2.521 -0.98) (layer F.SilkS) (width 0.12))
  (fp_line (start 2.521 0.98) (end 2.521 2.058) (layer F.SilkS) (width 0.12))
  (fp_line (start 2.561 -2.028) (end 2.561 -0.98) (layer F.SilkS) (width 0.12))
  (fp_line (start 2.561 0.98) (end 2.561 2.028) (layer F.SilkS) (width 0.12))
  (fp_line (start 2.601 -1.997) (end 2.601 -0.98) (layer F.SilkS) (width 0.12))
  (fp_line (start 2.601 0.98) (end 2.601 1.997) (layer F.SilkS) (width 0.12))
  (fp_line (start 2.641 -1.965) (end 2.641 -0.98) (layer F.SilkS) (width 0.12))
  (fp_line (start 2.641 0.98) (end 2.641 1.965) (layer F.SilkS) (width 0.12))
  (fp_line (start 2.681 -1.932) (end 2.681 -0.98) (layer F.SilkS) (width 0.12))
  (fp_line (start 2.681 0.98) (end 2.681 1.932) (layer F.SilkS) (width 0.12))
  (fp_line (start 2.721 -1.897) (end 2.721 -0.98) (layer F.SilkS) (width 0.12))
  (fp_line (start 2.721 0.98) (end 2.721 1.897) (layer F.SilkS) (width 0.12))
  (fp_line (start 2.761 -1.861) (end 2.761 -0.98) (layer F.SilkS) (width 0.12))
  (fp_line (start 2.761 0.98) (end 2.761 1.861) (layer F.SilkS) (width 0.12))
  (fp_line (start 2.801 -1.823) (end 2.801 -0.98) (layer F.SilkS) (width 0.12))
  (fp_line (start 2.801 0.98) (end 2.801 1.823) (layer F.SilkS) (width 0.12))
  (fp_line (start 2.841 -1.783) (end 2.841 -0.98) (layer F.SilkS) (width 0.12))
  (fp_line (start 2.841 0.98) (end 2.841 1.783) (layer F.SilkS) (width 0.12))
  (fp_line (start 2.881 -1.742) (end 2.881 -0.98) (layer F.SilkS) (width 0.12))
  (fp_line (start 2.881 0.98) (end 2.881 1.742) (layer F.SilkS) (width 0.12))
  (fp_line (start 2.921 -1.699) (end 2.921 -0.98) (layer F.SilkS) (width 0.12))
  (fp_line (start 2.921 0.98) (end 2.921 1.699) (layer F.SilkS) (width 0.12))
  (fp_line (start 2.961 -1.654) (end 2.961 -0.98) (layer F.SilkS) (width 0.12))
  (fp_line (start 2.961 0.98) (end 2.961 1.654) (layer F.SilkS) (width 0.12))
  (fp_line (start 3.001 -1.606) (end 3.001 1.606) (layer F.SilkS) (width 0.12))
  (fp_line (start 3.041 -1.556) (end 3.041 1.556) (layer F.SilkS) (width 0.12))
  (fp_line (start 3.081 -1.504) (end 3.081 1.504) (layer F.SilkS) (width 0.12))
  (fp_line (start 3.121 -1.448) (end 3.121 1.448) (layer F.SilkS) (width 0.12))
  (fp_line (start 3.161 -1.39) (end 3.161 1.39) (layer F.SilkS) (width 0.12))
  (fp_line (start 3.201 -1.327) (end 3.201 1.327) (layer F.SilkS) (width 0.12))
  (fp_line (start 3.241 -1.261) (end 3.241 1.261) (layer F.SilkS) (width 0.12))
  (fp_line (start 3.281 -1.189) (end 3.281 1.189) (layer F.SilkS) (width 0.12))
  (fp_line (start 3.321 -1.112) (end 3.321 1.112) (layer F.SilkS) (width 0.12))
  (fp_line (start 3.361 -1.028) (end 3.361 1.028) (layer F.SilkS) (width 0.12))
  (fp_line (start 3.401 -0.934) (end 3.401 0.934) (layer F.SilkS) (width 0.12))
  (fp_line (start 3.441 -0.829) (end 3.441 0.829) (layer F.SilkS) (width 0.12))
  (fp_line (start 3.481 -0.707) (end 3.481 0.707) (layer F.SilkS) (width 0.12))
  (fp_line (start 3.521 -0.559) (end 3.521 0.559) (layer F.SilkS) (width 0.12))
  (fp_line (start 3.561 -0.354) (end 3.561 0.354) (layer F.SilkS) (width 0.12))
  (fp_line (start -2.2 0) (end -1 0) (layer F.SilkS) (width 0.12))
  (fp_line (start -1.6 -0.65) (end -1.6 0.65) (layer F.SilkS) (width 0.12))
  (fp_line (start -1.85 -2.85) (end -1.85 2.85) (layer F.CrtYd) (width 0.05))
  (fp_line (start -1.85 2.85) (end 3.85 2.85) (layer F.CrtYd) (width 0.05))
  (fp_line (start 3.85 2.85) (end 3.85 -2.85) (layer F.CrtYd) (width 0.05))
  (fp_line (start 3.85 -2.85) (end -1.85 -2.85) (layer F.CrtYd) (width 0.05))
  (pad 1 thru_hole rect (at 0 0) (size 1.6 1.6) (drill 0.8) (layers *.Cu *.Mask))
  (pad 2 thru_hole circle (at 2 0) (size 1.6 1.6) (drill 0.8) (layers *.Cu *.Mask))
  (model Capacitors_ThroughHole.3dshapes/CP_Radial_D5.0mm_P2.00mm.wrl
    (at (xyz 0 0 0))
    (scale (xyz 0.393701 0.393701 0.393701))
    (rotate (xyz 0 0 0))
  )
)