(module OPTO4S (layer F.Cu) (tedit 57DBA1CE)
  (fp_text reference REF** (at -0.635 0 90) (layer F.SilkS)
    (effects (font (size 0.7 0.7) (thickness 0.15)))
  )
  (fp_text value OPTO4S (at 0.635 0 90) (layer F.Fab)
    (effects (font (size 0.7 0.7) (thickness 0.15)))
  )
  (fp_line (start -1.92 -2.245) (end 1.92 -2.245) (layer F.SilkS) (width 0.15))
  (fp_line (start 1.92 -2.2) (end 1.92 2.2) (layer F.SilkS) (width 0.15))
  (fp_line (start -1.92 -2.2) (end -1.92 2.2) (layer F.SilkS) (width 0.15))
  (fp_line (start -1.92 2.2) (end 1.92 2.2) (layer F.SilkS) (width 0.15))
  (pad 3 smd rect (at 1.27 -3.25) (size 1 1.2) (layers F.Cu F.Paste F.Mask))
  (pad 4 smd rect (at -1.27 -3.25) (size 1 1.2) (layers F.Cu F.Paste F.Mask))
  (pad 1 smd rect (at -1.27 3.25) (size 1 1.2) (layers F.Cu F.Paste F.Mask))
  (pad 2 smd rect (at 1.27 3.25) (size 1 1.2) (layers F.Cu F.Paste F.Mask))
)
