(module PIN_X1 (layer F.Cu) (tedit 589977CF)
  (fp_text reference REF** (at -4.064 0 90) (layer F.SilkS)
    (effects (font (size 1 1) (thickness 0.15)))
  )
  (fp_text value PIN_X1 (at 4.064 0 90) (layer F.Fab)
    (effects (font (size 1 1) (thickness 0.15)))
  )
  (fp_line (start -3.302 3.302) (end 3.302 3.302) (layer F.SilkS) (width 0.15))
  (fp_line (start -3.302 3.302) (end -3.302 -3.302) (layer F.SilkS) (width 0.15))
  (fp_line (start 3.302 3.302) (end 3.302 -3.302) (layer F.SilkS) (width 0.15))
  (fp_line (start -3.302 -3.302) (end 3.302 -3.302) (layer F.SilkS) (width 0.15))
  (pad 1 thru_hole circle (at 0 0) (size 6 6) (drill 3) (layers *.Cu *.Mask F.SilkS))
)
