(module TO-247_Horizontal_Neutral123_largePads (layer F.Cu) (tedit 58908343)
  (descr "TO-247 TO-218 TOP-3 FET 1=Gate 2=Drain 3=Source Vertical, large Pads")
  (tags "Transistor FET TO-247 TO-218 TOP-3 Vertical")
  (fp_text reference REF** (at 0 -5.08) (layer F.SilkS)
    (effects (font (size 1 1) (thickness 0.15)))
  )
  (fp_text value TO-247_Horizontal_Neutral123_largePads (at -1.016 8.128) (layer F.Fab)
    (effects (font (size 1 1) (thickness 0.15)))
  )
  (fp_circle (center 0 20.1295) (end 1.651 20.1295) (layer F.SilkS) (width 0.15))
  (fp_line (start 6.985 25.146) (end 8.001 23.495) (layer F.SilkS) (width 0.15))
  (fp_line (start -7.112 25.146) (end -8.001 23.495) (layer F.SilkS) (width 0.15))
  (fp_line (start -8.001 5.08) (end 8.001 5.08) (layer F.SilkS) (width 0.15))
  (fp_line (start 8.001 5.08) (end 8.001 23.495) (layer F.SilkS) (width 0.15))
  (fp_line (start -8.001 5.08) (end -8.001 23.495) (layer F.SilkS) (width 0.15))
  (fp_line (start -7.112 25.146) (end 6.985 25.146) (layer F.SilkS) (width 0.15))
  (fp_line (start -6.604 1.905) (end -6.604 5.08) (layer F.SilkS) (width 0.15))
  (fp_line (start -4.572 1.905) (end -4.572 5.08) (layer F.SilkS) (width 0.15))
  (fp_line (start 6.604 1.905) (end 6.604 5.08) (layer F.SilkS) (width 0.15))
  (fp_line (start 4.572 1.905) (end 4.572 5.08) (layer F.SilkS) (width 0.15))
  (fp_line (start 1.524 1.905) (end 1.524 5.08) (layer F.SilkS) (width 0.15))
  (fp_line (start -1.524 1.905) (end -1.524 5.08) (layer F.SilkS) (width 0.15))
  (fp_line (start 0 0) (end 0 5.08) (layer F.SilkS) (width 0.15))
  (pad 2 thru_hole oval (at 0 0 90) (size 5.50164 3.50012) (drill 1.50114) (layers *.Cu *.Mask F.SilkS))
  (pad 1 thru_hole oval (at -5.588 0 90) (size 5.50164 3.50012) (drill 1.50114) (layers *.Cu *.Mask F.SilkS))
  (pad 3 thru_hole oval (at 5.588 0 90) (size 5.50164 3.50012) (drill 1.50114) (layers *.Cu *.Mask F.SilkS))
)
