(module TO-92_Inline_Wide (layer F.Cu) (tedit 5744366C)
  (descr "TO-92 leads in-line, wide, drill 0.8mm (see NXP sot054_po.pdf)")
  (tags "to-92 sc-43 sc-43a sot54 PA33 transistor")
  (fp_text reference REF** (at 0 -4 180) (layer F.SilkS)
    (effects (font (size 1 1) (thickness 0.15)))
  )
  (fp_text value TO-92_Inline_Wide (at 0 3) (layer F.Fab)
    (effects (font (size 1 1) (thickness 0.15)))
  )
  (fp_arc (start 2.54 0) (end 0.84 1.7) (angle 20.5) (layer F.SilkS) (width 0.15))
  (fp_arc (start 2.54 0) (end 4.24 1.7) (angle -20.5) (layer F.SilkS) (width 0.15))
  (fp_line (start -1 1.95) (end -1 -2.65) (layer F.CrtYd) (width 0.05))
  (fp_line (start -1 1.95) (end 6.1 1.95) (layer F.CrtYd) (width 0.05))
  (fp_line (start 0.84 1.7) (end 4.24 1.7) (layer F.SilkS) (width 0.15))
  (fp_arc (start 2.54 0) (end 2.54 -2.4) (angle -65.55604127) (layer F.SilkS) (width 0.15))
  (fp_arc (start 2.54 0) (end 2.54 -2.4) (angle 65.55604127) (layer F.SilkS) (width 0.15))
  (fp_line (start -1 -2.65) (end 6.1 -2.65) (layer F.CrtYd) (width 0.05))
  (fp_line (start 6.1 1.95) (end 6.1 -2.65) (layer F.CrtYd) (width 0.05))
  (pad 2 thru_hole circle (at 2.54 0 90) (size 2 2) (drill 0.8) (layers *.Cu *.Mask F.SilkS))
  (pad 3 thru_hole circle (at 5.08 0 90) (size 2 2) (drill 0.8) (layers *.Cu *.Mask F.SilkS))
  (pad 1 thru_hole circle (at 0 0 90) (size 2 2) (drill 0.8) (layers *.Cu *.Mask F.SilkS))
  (model TO_SOT_Packages_THT.3dshapes/TO-92_Inline_Wide.wrl
    (at (xyz 0.1 0 0))
    (scale (xyz 1 1 1))
    (rotate (xyz 0 0 -90))
  )
)
