EESchema Schematic File Version 2
LIBS:spice
LIBS:project-cache
EELAYER 25 0
EELAYER END
$Descr A4 11693 8268
encoding utf-8
Sheet 1 1
Title ""
Date ""
Rev ""
Comp ""
Comment1 ""
Comment2 ""
Comment3 ""
Comment4 ""
$EndDescr
$Comp
L C C2
U 1 1 56F2C8D1
P 4100 2600
F 0 "C2" H 4100 2725 60  0000 C CNN
F 1 "680n" H 4100 2475 60  0000 C CNN
F 2 "" H 3450 3150 60  0000 C CNN
F 3 "" H 3450 3150 60  0000 C CNN
	1    4100 2600
	0    -1   -1   0   
$EndComp
Wire Wire Line
	3500 2200 4300 2200
$Comp
L R R21
U 1 1 56F2C9BD
P 3300 2200
F 0 "R21" H 3300 2300 60  0000 C CNN
F 1 "680" H 3300 2100 60  0000 C CNN
F 2 "" H 3300 2200 60  0000 C CNN
F 3 "" H 3300 2200 60  0000 C CNN
	1    3300 2200
	1    0    0    -1  
$EndComp
$Comp
L V V1
U 1 1 56F2CA7B
P 1700 2750
F 0 "V1" H 1575 2950 60  0000 C CNN
F 1 "PULSE(0V 3.3V 10nS 10nS 10nS {PWMduty*PWMperiod} {PWMperiod})" V 1950 2750 60  0000 C CNN
F 2 "" H 1375 2750 60  0000 C CNN
F 3 "" H 1375 2750 60  0000 C CNN
	1    1700 2750
	1    0    0    -1  
$EndComp
Wire Wire Line
	1700 2450 1700 2550
Wire Wire Line
	1700 2950 1700 3050
Text Notes 5500 4450 0    60   ~ 0
+pspice\n* \n.control\n  options nopage\n  options savecurrents\n  tran 100nS 5mS 0mS\n  set gnuplot_terminal=png\n  gnuplot project\n*  + v(PWM)\n  + v(REF)\n  + v(IREF)\n  + v(UREF)\n.endc
Text GLabel 1700 2450 1    60   Input ~ 0
PWM
$Comp
L 0 #GND01
U 1 1 5898ADC8
P 1700 3050
F 0 "#GND01" H 1700 2950 40  0001 C CNN
F 1 "0" H 1700 2980 40  0000 C CNN
F 2 "" H 1700 3050 60  0000 C CNN
F 3 "" H 1700 3050 60  0000 C CNN
	1    1700 3050
	1    0    0    -1  
$EndComp
Text GLabel 2900 2200 0    60   Input ~ 0
PWM
Wire Wire Line
	3100 2200 2900 2200
$Comp
L R R22
U 1 1 5898AF01
P 3700 2600
F 0 "R22" H 3700 2700 60  0000 C CNN
F 1 "100" H 3700 2500 60  0000 C CNN
F 2 "" H 3700 2600 60  0000 C CNN
F 3 "" H 3700 2600 60  0000 C CNN
	1    3700 2600
	0    -1   -1   0   
$EndComp
Wire Wire Line
	3700 2200 3700 2400
Wire Wire Line
	3700 2800 3700 3000
$Comp
L 0 #GND02
U 1 1 5898AFA2
P 3700 3000
F 0 "#GND02" H 3700 2900 40  0001 C CNN
F 1 "0" H 3700 2930 40  0000 C CNN
F 2 "" H 3700 3000 60  0000 C CNN
F 3 "" H 3700 3000 60  0000 C CNN
	1    3700 3000
	1    0    0    -1  
$EndComp
Wire Wire Line
	4100 2200 4100 2500
Connection ~ 3700 2200
Wire Wire Line
	4100 2700 4100 3000
$Comp
L 0 #GND03
U 1 1 5898B061
P 4100 3000
F 0 "#GND03" H 4100 2900 40  0001 C CNN
F 1 "0" H 4100 2930 40  0000 C CNN
F 2 "" H 4100 3000 60  0000 C CNN
F 3 "" H 4100 3000 60  0000 C CNN
	1    4100 3000
	1    0    0    -1  
$EndComp
$Comp
L C C3
U 1 1 5898B1F0
P 4100 3800
F 0 "C3" H 4100 3925 60  0000 C CNN
F 1 "680n" H 4100 3675 60  0000 C CNN
F 2 "" H 3450 4350 60  0000 C CNN
F 3 "" H 3450 4350 60  0000 C CNN
	1    4100 3800
	0    -1   -1   0   
$EndComp
Wire Wire Line
	3500 3400 4300 3400
$Comp
L R R31
U 1 1 5898B1F7
P 3300 3400
F 0 "R31" H 3300 3500 60  0000 C CNN
F 1 "680" H 3300 3300 60  0000 C CNN
F 2 "" H 3300 3400 60  0000 C CNN
F 3 "" H 3300 3400 60  0000 C CNN
	1    3300 3400
	1    0    0    -1  
$EndComp
Text GLabel 2900 3400 0    60   Input ~ 0
PWM
Wire Wire Line
	3100 3400 2900 3400
$Comp
L R R32
U 1 1 5898B1FF
P 3700 3800
F 0 "R32" H 3700 3900 60  0000 C CNN
F 1 "330" H 3700 3700 60  0000 C CNN
F 2 "" H 3700 3800 60  0000 C CNN
F 3 "" H 3700 3800 60  0000 C CNN
	1    3700 3800
	0    -1   -1   0   
$EndComp
Wire Wire Line
	3700 3400 3700 3600
Wire Wire Line
	3700 4000 3700 4200
$Comp
L 0 #GND04
U 1 1 5898B207
P 3700 4200
F 0 "#GND04" H 3700 4100 40  0001 C CNN
F 1 "0" H 3700 4130 40  0000 C CNN
F 2 "" H 3700 4200 60  0000 C CNN
F 3 "" H 3700 4200 60  0000 C CNN
	1    3700 4200
	1    0    0    -1  
$EndComp
Wire Wire Line
	4100 3400 4100 3700
Connection ~ 3700 3400
Wire Wire Line
	4100 3900 4100 4200
$Comp
L 0 #GND05
U 1 1 5898B210
P 4100 4200
F 0 "#GND05" H 4100 4100 40  0001 C CNN
F 1 "0" H 4100 4130 40  0000 C CNN
F 2 "" H 4100 4200 60  0000 C CNN
F 3 "" H 4100 4200 60  0000 C CNN
	1    4100 4200
	1    0    0    -1  
$EndComp
Connection ~ 4100 2200
Connection ~ 4100 3400
Text GLabel 4300 2200 2    60   Input ~ 0
IREF
Text GLabel 4300 3400 2    60   Input ~ 0
UREF
Text Notes 5400 2050 0    60   ~ 0
-pspice\n* \n.param\n+ MCUfreq=9.6MegHz\n+ PWMduty=0.5\n+ PWMfreq=MCUfreq/2\n+ PWMperiod=PWMfreq^-1
$Comp
L C C1
U 1 1 5898BAED
P 4100 1400
F 0 "C1" H 4100 1525 60  0000 C CNN
F 1 "680n" H 4100 1275 60  0000 C CNN
F 2 "" H 3450 1950 60  0000 C CNN
F 3 "" H 3450 1950 60  0000 C CNN
	1    4100 1400
	0    -1   -1   0   
$EndComp
Wire Wire Line
	3500 1000 4300 1000
$Comp
L R R11
U 1 1 5898BAF4
P 3300 1000
F 0 "R11" H 3300 1100 60  0000 C CNN
F 1 "680" H 3300 900 60  0000 C CNN
F 2 "" H 3300 1000 60  0000 C CNN
F 3 "" H 3300 1000 60  0000 C CNN
	1    3300 1000
	1    0    0    -1  
$EndComp
Text GLabel 2900 1000 0    60   Input ~ 0
PWM
Wire Wire Line
	3100 1000 2900 1000
Wire Wire Line
	3700 1000 3700 1200
Wire Wire Line
	4100 1000 4100 1300
Connection ~ 3700 1000
Wire Wire Line
	4100 1500 4100 1800
$Comp
L 0 #GND06
U 1 1 5898BB0D
P 4100 1800
F 0 "#GND06" H 4100 1700 40  0001 C CNN
F 1 "0" H 4100 1730 40  0000 C CNN
F 2 "" H 4100 1800 60  0000 C CNN
F 3 "" H 4100 1800 60  0000 C CNN
	1    4100 1800
	1    0    0    -1  
$EndComp
Connection ~ 4100 1000
Text GLabel 4300 1000 2    60   Input ~ 0
REF
$Comp
L 0 #GND07
U 1 1 5898BB04
P 3700 1800
F 0 "#GND07" H 3700 1700 40  0001 C CNN
F 1 "0" H 3700 1730 40  0000 C CNN
F 2 "" H 3700 1800 60  0000 C CNN
F 3 "" H 3700 1800 60  0000 C CNN
	1    3700 1800
	1    0    0    -1  
$EndComp
Wire Wire Line
	3700 1600 3700 1800
$Comp
L R R12
U 1 1 5898BAFC
P 3700 1400
F 0 "R12" H 3700 1500 60  0000 C CNN
F 1 "1Meg" H 3700 1300 60  0000 C CNN
F 2 "" H 3700 1400 60  0000 C CNN
F 3 "" H 3700 1400 60  0000 C CNN
	1    3700 1400
	0    -1   -1   0   
$EndComp
$EndSCHEMATC
